<?xml version="1.0" encoding="UTF-8" standalone="no"?>
<svg
   xmlns:dc="http://purl.org/dc/elements/1.1/"
   xmlns:cc="http://creativecommons.org/ns#"
   xmlns:rdf="http://www.w3.org/1999/02/22-rdf-syntax-ns#"
   xmlns:svg="http://www.w3.org/2000/svg"
   xmlns="http://www.w3.org/2000/svg"
   id="svg8"
   version="1.1"
   viewBox="0 0 308.527 177.04065">
  <defs
     id="defs2" />
  <metadata
     id="metadata5">
    <rdf:RDF>
      <cc:Work
         rdf:about="">
        <dc:format>image/svg+xml</dc:format>
        <dc:type
           rdf:resource="http://purl.org/dc/dcmitype/StillImage" />
        <dc:title></dc:title>
      </cc:Work>
    </rdf:RDF>
  </metadata>
  <g
     transform="translate(511.9325,-207.42822)"
     id="layer1">
    <rect
       y="207.42822"
       x="-511.9325"
       height="177.04065"
       width="308.52701"
       id="rect6068"
       style="fill:#ffffff;fill-opacity:0.00392157;stroke:none;stroke-width:0.25623;stroke-miterlimit:4;stroke-dasharray:none;stroke-opacity:1" />
    <path
       d="m -288.88101,377.21721 c -1.03859,-0.40826 -2.06985,-0.83475 -3.10781,-1.24336 -1.32064,-0.48497 -2.64357,-0.96867 -3.94177,-1.51163 0.10359,0.0299 0.41787,0.1061 0.31473,0.0747 -0.87249,-0.2657 -1.76408,-0.46286 -2.62729,-0.76551 -1.89121,-0.61941 -1.14257,-0.41 -3.25542,-1.11568 -0.19997,-0.0864 -1.67631,-0.55501 -1.76515,-0.72731 -0.075,-0.14551 0.62055,0.20934 0.46618,0.15477 -0.8155,-0.28832 -0.52113,-0.11771 -0.80984,-0.29042 -1.16459,-0.35958 -2.33072,-0.74675 -3.40537,-1.11261 0.0694,0.0133 0.27621,0.059 0.20814,0.04 -0.67887,-0.18898 -1.44104,-0.31137 -2.51298,-0.64907 0.3712,0.0663 0.74511,0.11896 1.1136,0.19903 0.16318,0.0354 -0.33178,-0.039 -0.49672,-0.065 -0.0178,-0.003 0.0357,-0.006 0.0538,-0.004 0.27834,-0.004 0.56448,-0.0743 0.83508,-0.009 0.52599,0.12702 -2.28289,-0.0778 -1.62303,0.0327 -1.96071,-0.0615 -3.92342,-0.27886 -5.76867,-0.99169 0.33031,0.0783 0.66928,0.12642 0.99095,0.23496 0.37181,0.12545 -0.88044,-0.18161 -0.86355,-0.18041 2.25579,0.1595 -0.69766,0.0158 -0.9757,-0.10389 -0.20253,-0.0322 -0.40545,-0.0623 -0.60762,-0.0968 -0.0278,-0.005 -0.11008,-0.0213 -0.0819,-0.0211 0.22814,0.002 0.91202,0.0281 0.68389,0.0272 -0.94122,-0.004 -1.88168,-0.0822 -2.81536,-0.19583 -1.69309,-0.24359 -3.30646,-0.42815 -5.09178,-0.96808 -1.70709,-0.59429 -2.66142,-0.97142 -4.57993,-1.79003 -1.87267,-1.00881 -2.86628,-1.8882 -3.89059,-2.75828 -0.0429,-0.0365 0.0904,0.067 0.13562,0.10054 -1.28117,-1.10793 -2.35544,-2.15436 -3.32035,-3.21469 -1.71824,-2.21334 -1.21039,-1.69091 -2.52213,-3.59474 0.27646,0.36969 -0.0672,-0.0846 -0.23736,-0.37379 -0.73099,-1.24184 -0.96236,-1.57256 -1.41619,-2.71515 -0.0667,-0.16784 0.21157,0.46996 0.25565,0.4777 -0.96441,-1.71934 -1.79446,-3.53768 -2.24841,-5.46323 -0.2561,-1.56178 -0.45562,-3.1171 -0.51594,-4.70013 -0.10135,-1.72761 -0.15867,-3.46529 0.0887,-5.18486 0.396,-2.35513 0.56564,-2.68947 1.21176,-5.05791 0.62855,-1.53593 1.34302,-3.02089 2.23372,-4.42412 1.18188,-1.95216 2.51488,-3.82507 4.36224,-5.20993 1.4744,-1.17331 3.03154,-2.2146 4.74703,-3.00634 1.33471,-0.61431 2.65785,-1.26639 4.03978,-1.76979 1.74015,-0.55404 3.50131,-1.06208 5.33731,-1.17459 0.51395,-0.0592 1.02854,-0.11851 1.52154,-0.28584 1.19651,-0.34665 2.41345,-0.58415 3.62466,-0.86656 1.60475,-0.37443 3.22798,-0.58493 4.87293,-0.66242 1.06932,-0.0813 2.13886,-0.1596 3.20824,-0.2399 1.00765,-0.0736 2.01545,-0.1462 3.02191,-0.23475 0.7848,-0.0743 1.57091,-0.15342 2.3439,-0.31307 1.34425,-0.29051 2.60931,-0.88212 3.97525,-1.10003 1.46902,-0.22718 2.93307,-0.40164 4.41848,-0.47432 1.06349,-0.0808 2.12696,-0.1617 3.19022,-0.24554 1.13147,-0.089 2.26304,-0.17807 3.39581,-0.24914 1.58175,-0.0888 3.17031,-0.14384 4.74953,0.0238 0.2759,0.0327 0.55222,0.0621 0.82772,0.098 0.19628,0.0256 0.78396,0.0959 0.58603,0.0958 -0.24394,-3.1e-4 -0.97474,0.006 -0.73163,-0.0137 0.32027,-0.0274 1.46554,0.0261 1.76718,0.0372 1.56474,0.11495 2.81787,0.35272 3.31781,0.35315 0.21385,0.016 2.41958,0.128 0.60757,0.16161 -0.35512,0.007 1.41711,-0.0879 1.06246,-0.0808 1.06966,-0.0813 2.13908,-0.16563 3.20874,-0.24695 1.22797,-0.0934 2.45638,-0.18667 3.68736,-0.22989 1.45574,-0.0364 2.91286,-0.0221 4.36295,0.12759 0.0341,0.006 0.13645,0.0138 0.10218,0.0188 -0.17408,0.0257 -0.70191,0.0504 -0.52607,0.044 0.8961,-0.0321 1.78858,-0.16446 2.68441,-0.20408 1.36916,-0.10412 2.73832,-0.20816 4.10751,-0.31227 1.06573,-0.081 2.13124,-0.16504 3.19684,-0.24805 1.26796,-0.0964 2.53618,-0.19883 3.80773,-0.23352 1.89305,-0.0254 3.78977,0.0636 5.64312,0.48441 0.6735,0.1468 1.01502,0.25006 2.00729,0.28156 1.50602,0.15865 3.13544,0.49258 3.904,0.62582 0.13502,0.0214 0.27963,0.01 0.40502,0.0645 0.0831,0.036 -0.36162,-0.0147 -0.27149,-0.006 1.12026,0.1035 2.24574,0.17149 3.34866,0.4133 1.57013,0.24291 3.41928,0.59546 5.00587,1.28069 1.20686,0.46946 2.41118,0.99398 3.54546,1.58619 1.34909,0.53708 2.69209,1.0945 4.00228,1.72141 1.65824,0.81788 3.28573,1.7102 4.75492,2.84228 1.03767,0.75096 2.16055,1.37733 3.19595,2.13245 1.82864,1.37237 3.54817,2.87872 4.93794,4.70829 1.38262,1.79539 2.73276,3.64227 3.47346,5.81159 0.70532,2.14966 1.2078,4.33249 1.17283,6.61097 0.0312,2.16821 -0.10652,4.34169 -0.76197,6.42522 -0.49318,1.53805 -0.9663,2.82978 -1.53797,4.18806 -1.04949,2.09369 -2.28359,4.08561 -4.03359,5.677 -0.4912,0.48453 -0.94256,1.05446 -1.77156,2.08621 -0.91823,0.96641 -1.80556,1.819 -2.80724,2.69576 -0.10696,0.0936 -0.22261,0.35033 -0.33516,0.26354 -0.11024,-0.085 0.19962,-0.19404 0.29942,-0.29107 -0.71881,0.68676 -1.46883,1.48998 -2.25677,2.18717 -1.17193,1.15565 -2.40812,2.23314 -3.66884,3.2897 -1.66283,1.27589 -3.4279,2.4014 -5.38148,3.18683 -1.53636,0.61074 -0.57463,0.11629 -1.93907,0.88622 -1.60768,0.94212 -3.22433,1.91172 -5.0292,2.46555 -0.78831,0.24581 -1.5953,0.42893 -2.37434,0.66734 -1.74202,0.69245 -3.53471,1.24932 -5.41351,1.40526 -0.67012,0.0887 -1.31197,0.2751 -1.94287,0.52311 -1.49425,0.47808 -2.99764,0.94208 -4.53605,1.25823 -1.67776,0.39383 -3.37567,0.60453 -5.09614,0.67886 -1.72515,0.1136 -3.45215,0.20338 -5.18125,0.22487 -1.69445,0.0146 -3.39336,-0.0738 -5.08233,0.0197 -1.30589,0.0993 -2.61201,0.19557 -3.9179,0.29485 -1.0743,0.0847 -2.14909,0.16739 -3.21956,0.2925 -0.95316,0.11869 -1.89337,0.25602 -2.8134,0.54973 -1.09056,0.19908 -2.17743,0.3585 -3.27085,0.52874 -3.1898,0.36651 -8.36431,-1.38251 -12.04229,-3.63223 z"
       id="path6023"
       style="fill:#efcb68;fill-opacity:1;stroke:#160808;stroke-width:0.26458332;stroke-miterlimit:4;stroke-dasharray:none;stroke-opacity:1" />
    <g
       transform="translate(-138.44562,-98.889723)"
       id="g1341">
      <path
         style="fill:#000000;fill-opacity:1;stroke:#160808;stroke-width:0.26458332;stroke-miterlimit:4;stroke-dasharray:none;stroke-opacity:1"
         id="path1258"
         d="m -246.37827,387.15643 c -0.24012,1.0936 -0.5644,2.16095 -0.93186,3.21754 -0.34824,0.86262 -0.74149,1.70236 -1.07336,2.57146 -0.28909,0.73835 -0.41145,1.51757 -0.47772,2.30285 -0.012,0.70139 -0.10685,1.41791 -0.004,2.11511 0.0272,0.48469 0.29742,0.76406 0.64289,1.06619 0.53393,0.3552 1.09269,0.67424 1.68978,0.91017 0.62668,0.21643 1.2912,0.25048 1.94769,0.27649 0.74337,0.0188 1.48708,0.0122 2.23061,0.01 0.61988,-0.003 1.23977,-0.003 1.85966,-0.005 0.96217,-0.003 0.96648,1.88767 0.004,1.88987 v 0 c -0.6191,0.003 -1.23819,0.003 -1.85727,0.005 -0.77134,0.003 -1.5429,0.01 -2.31406,-0.0111 -0.87377,-0.0363 -1.75338,-0.10383 -2.5804,-0.41318 -0.79388,-0.327 -1.5547,-0.73766 -2.24218,-1.25489 -0.66741,-0.60793 -1.17641,-1.3171 -1.25737,-2.24724 -0.0882,-0.83177 -0.0492,-1.66925 -0.002,-2.50351 0.0844,-0.96002 0.24226,-1.91199 0.59507,-2.81456 0.32519,-0.85148 0.70366,-1.67685 1.05389,-2.51801 0.35587,-1.0232 0.6668,-2.0569 0.8997,-3.11595 0.26432,-0.92514 2.08149,-0.40595 1.81716,0.51919 z" />
      <path
         style="fill:#000000;fill-opacity:1;stroke:#160808;stroke-width:0.26458332;stroke-miterlimit:4;stroke-dasharray:none;stroke-opacity:1"
         id="path1260"
         d="m -249.28143,394.29314 c 1.06072,-0.15169 2.10204,-0.40688 3.16297,-0.56359 0.83744,-0.2054 1.68011,-0.37076 2.53753,-0.4627 0.48786,-0.0368 0.27678,-0.003 0.63694,-0.0807 0.94496,-0.18116 1.30077,1.67495 0.35581,1.85608 v 0 c -0.55755,0.0989 -0.2925,0.0674 -0.79396,0.10403 -0.83276,0.0866 -1.64605,0.26644 -2.46151,0.4531 -1.06358,0.15545 -2.10624,0.41807 -3.17051,0.5647 -0.9525,0.13608 -1.21977,-1.73482 -0.26727,-1.87089 z" />
      <path
         style="fill:#000000;fill-opacity:1;stroke:#160808;stroke-width:0.26458332;stroke-miterlimit:4;stroke-dasharray:none;stroke-opacity:1"
         id="path1262"
         d="m -248.76982,386.39136 c 1.14688,0 2.29377,0 3.44065,0 0.86764,0 1.73527,0 2.60291,0 0.50607,0 1.01213,0 1.5182,0 0.96217,0 0.96217,1.88989 0,1.88989 v 0 c -0.50607,0 -1.01213,0 -1.5182,0 -0.86764,0 -1.73527,0 -2.60291,0 -1.14688,0 -2.29377,0 -3.44065,0 -0.96217,0 -0.96217,-1.88989 0,-1.88989 z" />
      <path
         style="fill:#000000;fill-opacity:1;stroke:#160808;stroke-width:0.26458332;stroke-miterlimit:4;stroke-dasharray:none;stroke-opacity:1"
         id="path1264"
         d="m -235.79493,386.77847 c -0.27678,1.0297 -0.43486,2.08351 -0.67635,3.12137 -0.17379,0.93929 -0.40529,1.86634 -0.55013,2.81114 -0.19731,0.85186 -0.38144,1.70328 -0.47275,2.57353 -0.0635,0.73059 -0.0652,1.46454 -0.0681,2.19731 0.0206,0.8796 0.008,1.74934 -0.11423,2.62122 -0.0782,0.83519 -0.32262,1.63788 -0.47999,2.45862 -0.13509,0.69075 0.0262,0.8377 -1.5561,-0.5493 -0.002,-0.003 0.51805,-0.96475 0.77423,-1.43637 0.0882,-0.18823 0.17651,-0.37645 0.26476,-0.56468 0.41061,-0.87013 2.11976,-0.0636 1.70915,0.80653 v 0 c -0.10445,0.22016 -0.20891,0.44032 -0.31336,0.66051 -0.0735,0.13509 -0.85925,1.62261 -0.89256,1.62637 -1.95477,0.21992 -2.05034,0.16039 -1.84163,-0.90184 0.15385,-0.7901 0.38729,-1.56247 0.46451,-2.36638 0.11347,-0.78547 0.10956,-1.56906 0.0953,-2.36217 0.003,-0.79708 0.006,-1.59549 0.0787,-2.39001 0.097,-0.89913 0.2695,-1.78355 0.48429,-2.66197 0.15428,-0.99147 0.39188,-1.96543 0.57717,-2.95098 0.24872,-1.06807 0.40751,-2.15392 0.69985,-3.21209 0.26433,-0.92517 2.08149,-0.40598 1.81717,0.51919 z" />
      <path
         style="fill:#000000;fill-opacity:1;stroke:#160808;stroke-width:0.26458332;stroke-miterlimit:4;stroke-dasharray:none;stroke-opacity:1"
         id="path1270"
         d="m -236.01041,386.38522 c 0.23606,0.97655 0.40023,1.96527 0.67968,2.93042 0.28276,0.59179 0.53056,1.19898 0.82492,1.78522 0.43835,0.71684 0.80512,1.47807 1.10053,2.26417 0.30278,0.76303 0.58256,1.53805 0.81977,2.32429 0.29164,0.73281 0.62793,1.44838 0.93166,2.17747 0.34802,0.69775 0.75439,1.39006 1.25496,1.99054 0.38695,0.34451 0.17372,0.0367 -0.0276,0.0206 -0.18615,-0.0151 -0.42036,0.18608 -0.41315,0.018 0.10189,-0.6219 0.0948,-1.25542 0.0974,-1.88375 -0.0203,-0.86685 0.17407,-1.71778 0.40775,-2.54643 0.20271,-0.67313 0.27206,-1.37128 0.31248,-2.0697 0.008,-0.70102 0.21636,-1.37634 0.31057,-2.0678 0.0774,-0.67863 0.0838,-1.36258 0.0909,-2.04475 -0.0225,-0.55782 0.0951,-1.10752 0.18655,-1.65457 0.15867,-0.94899 2.02268,-0.63733 1.864,0.31167 v 0 c -0.0754,0.4512 -0.18405,0.90268 -0.16077,1.36301 -0.008,0.76218 -0.0175,1.5263 -0.10873,2.28406 -0.0902,0.64254 -0.2764,1.27077 -0.29595,1.91969 -0.05,0.83439 -0.13998,1.66769 -0.38035,2.47203 -0.18792,0.66434 -0.35872,1.34509 -0.33662,2.04091 -0.004,0.8272 0.007,1.66624 -0.19469,2.47433 -0.58121,1.50125 -1.70059,1.69876 -2.82016,0.55253 -0.59983,-0.7539 -1.1249,-1.58125 -1.53176,-2.45499 -0.32734,-0.78951 -0.70043,-1.56014 -0.9971,-2.36111 -0.2217,-0.74869 -0.4948,-1.48347 -0.78132,-2.20933 -0.264,-0.72646 -0.62407,-1.41562 -1.02009,-2.07835 -0.34114,-0.68935 -0.6493,-1.39483 -0.94882,-2.10304 -0.30282,-1.04966 -0.48975,-2.12365 -0.73499,-3.18783 -0.13607,-0.9525 1.73481,-1.21979 1.87089,-0.26729 z" />
      <path
         style="fill:#000000;fill-opacity:1;stroke:#160808;stroke-width:0.26458332;stroke-miterlimit:4;stroke-dasharray:none;stroke-opacity:1"
         id="path1276"
         d="m -221.26934,387.51917 c 0.15254,1.07815 0.24072,2.16358 0.29842,3.25046 0.0429,0.90556 0.0445,1.81229 0.0464,2.71862 0.0174,0.87842 0.0169,1.74667 -0.12139,2.61538 -0.15627,0.75448 -0.17296,1.52622 -0.29287,2.28489 -0.15508,0.75438 -0.23982,1.51453 -0.44717,2.25705 -0.17527,0.42831 -0.3387,0.8591 -0.48044,1.29956 -0.29576,0.91559 -2.09414,0.33464 -1.79837,-0.58095 v 0 c 0.13498,-0.41648 0.2751,-0.83156 0.45929,-1.22952 0.19103,-0.67588 0.25251,-1.37245 0.40285,-2.05877 0.13773,-0.7502 0.11594,-1.52662 0.29099,-2.27352 0.12592,-0.76657 0.10546,-1.53413 0.0972,-2.31018 -0.002,-0.87439 -0.003,-1.74913 -0.0437,-2.62276 -0.0543,-1.0309 -0.13772,-2.06039 -0.28206,-3.083 -0.13607,-0.9525 1.73482,-1.21976 1.87089,-0.26726 z" />
      <path
         style="fill:#000000;fill-opacity:1;stroke:#160808;stroke-width:0.26458332;stroke-miterlimit:4;stroke-dasharray:none;stroke-opacity:1"
         id="path1278"
         d="m -226.09125,386.76934 c 0.91468,0.009 1.82216,0.0271 2.72906,-0.0989 0.832,-0.13891 1.67131,-0.21358 2.51321,-0.25361 0.65751,0.0442 1.28117,-0.12761 1.92114,-0.24143 0.43523,-0.0924 0.88625,-0.0629 1.31792,-0.16563 0.94349,-0.1887 1.31413,1.66449 0.37064,1.8532 v 0 c -0.45186,0.0825 -0.90441,0.11363 -1.35958,0.17346 -0.71727,0.12589 -1.42556,0.30837 -2.16123,0.26818 -0.78596,0.0366 -1.56915,0.10768 -2.34569,0.23823 -0.9926,0.13428 -1.9849,0.13277 -2.98547,0.11636 -0.96217,0 -0.96217,-1.88989 0,-1.88989 z" />
      <path
         style="fill:#000000;fill-opacity:1;stroke:#160808;stroke-width:0.26458332;stroke-miterlimit:4;stroke-dasharray:none;stroke-opacity:1"
         id="path1280"
         d="m -212.23363,390.6766 c 0.0543,1.09911 -0.10874,2.18647 -0.23386,3.27472 -0.094,0.80005 -0.12382,1.6051 -0.13928,2.40983 -0.01,0.74967 -0.008,1.49944 -0.007,2.24914 10e-4,0.75499 0.002,1.50998 0.002,2.26497 2e-4,0.62997 2.1e-4,1.25997 2.3e-4,1.88997 2e-5,0.96216 -1.88986,0.96221 -1.88988,2e-5 v 0 c -2e-5,-0.62976 -3e-5,-1.25952 -2.3e-4,-1.88931 -2.6e-4,-0.75451 -7.9e-4,-1.50905 -0.002,-2.26359 -7.9e-4,-0.7626 -0.003,-1.52524 0.007,-2.28777 0.0169,-0.86468 0.0503,-1.72961 0.1513,-2.58921 0.117,-1.01682 0.27614,-2.0316 0.22149,-3.05877 0,-0.96216 1.88988,-0.96216 1.88988,0 z" />
      <path
         style="fill:#000000;fill-opacity:1;stroke:#160808;stroke-width:0.26458332;stroke-miterlimit:4;stroke-dasharray:none;stroke-opacity:1"
         id="path1282"
         d="m -204.29613,390.6766 c 0,1.05558 0,2.11116 0,3.16675 -0.006,0.78875 -0.0327,1.5695 0.0955,2.34873 0.15003,0.78375 0.21832,1.57805 0.25692,2.37395 0.029,0.76935 0.0279,1.5394 0.0282,2.30915 -5.2e-4,0.66005 0.0216,1.31709 -0.0558,1.97302 -0.13051,0.95327 -2.00292,0.69691 -1.87241,-0.25635 v 0 c 0.10081,-0.56288 0.003,-1.14684 0.0383,-1.71583 -2.7e-4,-0.73985 0.001,-1.47994 -0.026,-2.2194 -0.0344,-0.72536 -0.0965,-1.44902 -0.23488,-2.16297 -0.14024,-0.88029 -0.13559,-1.7603 -0.11973,-2.6503 0,-1.05559 0,-2.11117 0,-3.16675 0,-0.96216 1.88988,-0.96216 1.88988,0 z" />
      <path
         style="fill:#000000;fill-opacity:1;stroke:#160808;stroke-width:0.26458332;stroke-miterlimit:4;stroke-dasharray:none;stroke-opacity:1"
         id="path1284"
         d="m -209.08232,387.52528 c 0.95242,0 1.90484,0 2.85726,0 0.77122,0.0542 1.51769,-0.033 2.27512,-0.15846 0.79093,-0.13631 1.59241,-0.18089 2.39324,-0.20653 0.63891,-0.0156 1.27805,-0.0153 1.9171,-0.0156 0.96217,0 0.96301,1.88944 8e-4,1.88986 v 0 c -0.61936,2.7e-4 -1.23881,-1.3e-4 -1.85803,0.0146 -0.7175,0.0225 -1.43583,0.0598 -2.1445,0.18211 -0.85822,0.14205 -1.71152,0.23582 -2.58377,0.18386 -0.95243,0 -1.90485,0 -2.85727,0 -0.96217,0 -0.96217,-1.88989 0,-1.88989 z" />
      <path
         style="fill:#000000;fill-opacity:1;stroke:#160808;stroke-width:0.26458332;stroke-miterlimit:4;stroke-dasharray:none;stroke-opacity:1"
         id="path1286"
         d="m -195.27941,386.27452 c -0.0242,1.00483 0.009,2.01001 0.0286,3.01466 0.0168,0.83815 0.0224,1.67645 0.0252,2.51476 0.0123,0.64675 -0.0685,1.31611 0.17064,1.93206 0.0435,0.18101 0.23696,0.61826 0.51039,0.45784 0.58272,-0.0547 1.0901,-0.45519 1.5726,-0.75994 0.65953,-0.48204 1.26508,-1.04121 1.86772,-1.59358 0.56383,-0.50144 1.05648,-1.07315 1.33588,-1.77856 0.19775,-0.62007 0.20885,-1.27571 0.22301,-1.9204 0.006,-0.49575 0.002,-0.99152 -5.3e-4,-1.48727 -0.005,-0.96216 1.88458,-0.97253 1.88986,-0.0103 v 0 c 0.003,0.51348 0.007,1.02701 7e-5,1.54048 -0.0205,0.88191 -0.0601,1.77353 -0.37032,2.61022 -0.41171,0.94668 -1.01924,1.76028 -1.8013,2.43938 -0.68627,0.62847 -1.37676,1.2645 -2.13825,1.79991 -0.85315,0.53464 -1.72394,1.10305 -2.77566,1.03973 -1.09744,-0.1873 -1.75716,-0.65849 -2.10929,-1.74865 -0.2496,-0.82286 -0.30314,-1.65693 -0.26469,-2.51442 -0.003,-0.82815 -0.008,-1.65629 -0.0249,-2.4843 -0.0216,-1.10583 -0.0675,-2.21356 -0.01,-3.31881 0.13607,-0.9525 2.00696,-0.68524 1.87089,0.26726 z" />
      <path
         style="fill:#000000;fill-opacity:1;stroke:#160808;stroke-width:0.26458332;stroke-miterlimit:4;stroke-dasharray:none;stroke-opacity:1"
         id="path1288"
         d="m -192.20089,395.21233 c 0,1.05555 0,2.11113 0,3.16672 0,0.83317 0,1.66634 0,2.49951 0.0572,0.81413 -0.11855,1.60912 -0.23813,2.40866 -0.0359,0.15317 -0.0718,0.30634 -0.10764,0.45953 -0.22687,0.93504 -2.06346,0.48943 -1.83659,-0.44561 v 0 c 0.0251,-0.0981 0.0502,-0.19619 0.0753,-0.29427 0.10646,-0.70786 0.27328,-1.40724 0.21722,-2.12831 0,-0.83317 0,-1.66634 0,-2.49951 0,-1.05559 0,-2.11117 0,-3.16672 0,-0.96219 1.88988,-0.96219 1.88988,0 z" />
    </g>
    <path
       d="m -409.89666,318.92438 c 0.98113,-0.86291 1.96308,-1.72429 2.92221,-2.61173 0.79399,-0.7621 1.6714,-1.42888 2.49916,-2.1532 0.7341,-0.66114 1.52821,-1.24966 2.27451,-1.89723 0.61734,-0.64129 1.27798,-1.23925 1.92073,-1.85483 0.70358,-0.73184 1.46768,-1.39216 2.24899,-2.03811 0.6486,-0.53126 1.24484,-1.12088 1.88719,-1.65889 0.73927,-0.61584 1.94889,0.83622 1.20963,1.45206 v 0 c -0.6472,0.53555 -1.23755,1.13618 -1.89261,1.66336 -0.74605,0.61682 -1.47578,1.24584 -2.14607,1.94654 -0.66535,0.63712 -1.34657,1.25817 -1.98988,1.91783 -0.74481,0.64521 -1.53475,1.23444 -2.26835,1.89185 -0.81493,0.71234 -1.67715,1.36972 -2.4599,2.11789 -0.94125,0.87066 -1.90128,1.72002 -2.86926,2.56079 -0.68035,0.68038 -2.0167,-0.65598 -1.33635,-1.33633 z"
       id="path1343"
       style="fill:#000000;fill-opacity:1;stroke:#160808;stroke-width:0.26458332;stroke-miterlimit:4;stroke-dasharray:none;stroke-opacity:1" />
    <path
       d="m -355.21496,263.0607 c 0,1.05558 0,2.11116 0,3.16672 -0.0102,0.87037 -0.025,1.73286 0.0984,2.59527 0.14084,0.82775 0.2143,1.66333 0.25411,2.50129 0.0288,0.77139 0.0278,1.54347 0.0282,2.31529 -5.3e-4,0.75565 -0.002,1.51127 -0.002,2.2669 -0.009,0.83566 -0.15622,1.67616 -0.34619,2.48925 -0.1325,0.51176 -0.0706,0.2612 -0.18644,0.7515 -0.22175,0.93625 -2.06076,0.50069 -1.83901,-0.43556 v 0 c 0.12321,-0.51901 0.0601,-0.26559 0.18858,-0.76044 0.16919,-0.66352 0.27621,-1.36279 0.29317,-2.0461 5.3e-4,-0.75491 0.002,-1.50979 0.002,-2.2647 -2.6e-4,-0.74248 7.9e-4,-1.48522 -0.0261,-2.22735 -0.0363,-0.77946 -0.10567,-1.55643 -0.23769,-2.32621 -0.13242,-0.95057 -0.13418,-1.90043 -0.11688,-2.85914 0,-1.05556 0,-2.11114 0,-3.16672 0,-0.96218 1.88988,-0.96218 1.88988,0 z"
       id="path1345"
       style="fill:#000000;fill-opacity:1;stroke:#160808;stroke-width:0.26458332;stroke-miterlimit:4;stroke-dasharray:none;stroke-opacity:1" />
    <path
       d="m -319.84483,309.35163 c 1.13589,0.65288 2.11168,1.53728 3.06707,2.42408 0.74289,0.78283 1.42139,1.62275 2.14483,2.42343 0.61998,0.74117 1.37968,1.3362 2.10973,1.96167 0.79961,0.68993 1.5581,1.42523 2.31242,2.16382 0.60021,0.66217 1.28883,1.21348 2.02892,1.7086 0.67821,0.44735 1.30472,0.96509 1.95396,1.45166 0.32306,0.23069 0.1644,0.10697 0.47502,0.37232 0.72171,0.63632 -0.52816,2.05388 -1.24986,1.41756 v 0 c -0.16774,-0.16058 -0.0538,-0.0592 -0.36179,-0.27998 -0.62156,-0.46961 -1.22558,-0.96322 -1.87489,-1.39528 -0.82952,-0.56404 -1.61588,-1.17981 -2.29358,-1.92456 -0.72437,-0.70934 -1.45231,-1.41605 -2.21988,-2.07904 -0.79097,-0.67783 -1.60927,-1.32852 -2.28253,-2.13003 -0.68621,-0.75996 -1.33595,-1.55138 -2.02848,-2.30542 -0.84886,-0.78891 -1.71111,-1.58356 -2.71859,-2.16794 -0.83539,-0.47739 0.10225,-2.11825 0.93765,-1.64089 z"
       id="path1347"
       style="fill:#000000;fill-opacity:1;stroke:#160808;stroke-width:0.26458332;stroke-miterlimit:4;stroke-dasharray:none;stroke-opacity:1" />
    <path
       style="fill:#6969f0;fill-opacity:1;stroke:#160808;stroke-width:0.26458332;stroke-miterlimit:4;stroke-dasharray:none;stroke-opacity:1"
       d="m -474.87986,331.36463 c -0.94374,0.0314 -1.62457,0.63455 -2.2655,1.28881 -0.64248,0.48237 -0.8818,1.18952 -1.17512,1.8955 -0.30292,0.62768 -0.50628,1.28781 -0.73019,1.94562 -0.22567,0.76142 -0.43088,1.53016 -0.6232,2.30113 -0.12885,0.7747 -0.26448,1.54321 -0.4186,2.31357 -0.15557,0.83818 -0.23625,1.6881 -0.17465,2.53834 0.15957,1.06748 0.85407,1.84988 1.53426,2.63239 0.63871,0.81015 1.40687,1.40382 2.36213,1.7844 0.83187,0.27178 1.70865,0.29197 2.57505,0.30438 1.04804,0.0568 2.01655,-0.35894 2.92074,-0.84286 0.40558,-0.25299 0.7284,-0.60391 1.07643,-0.92551 0.70612,-0.65358 -0.57753,-2.0406 -1.28365,-1.387 -0.23479,0.21762 -0.45726,0.44707 -0.70022,0.65527 -0.60841,0.34522 -1.27302,0.65058 -1.98694,0.61028 -0.6453,-0.009 -1.30064,-0.0103 -1.92805,-0.18034 -0.67802,-0.23749 -1.16123,-0.70477 -1.60973,-1.25883 -0.41555,-0.47733 -0.89704,-0.93644 -1.07746,-1.56115 -0.083,-0.66386 0.0529,-1.3426 0.14573,-1.99937 0.14788,-0.74161 0.28401,-1.48127 0.39894,-2.2283 0.17815,-0.72181 0.37248,-1.44063 0.58034,-2.15387 0.20815,-0.62462 0.39994,-1.24849 0.69194,-1.84173 0.20124,-0.50901 0.30549,-0.9542 0.78496,-1.29244 0.25559,-0.27459 0.54124,-0.65371 0.92139,-0.7152 0.68942,0.0604 1.35686,0.18357 1.93889,0.58704 0.8849,0.64063 1.67225,1.3952 2.41745,2.19262 0.61597,0.73917 2.06809,-0.47058 1.45208,-1.20972 -0.83978,-0.92134 -1.75093,-1.77007 -2.75486,-2.50889 -0.8599,-0.60915 -1.85024,-0.84368 -2.87991,-0.94258 -0.0653,-0.003 -0.12933,-0.004 -0.19225,-0.003 z m 87.37761,0.46096 c -0.81595,-0.0172 -1.21821,1.59552 -0.35088,1.8433 1.08818,0.30826 2.20401,0.49165 3.32693,0.61132 0.31812,0.0303 0.63699,0.0487 0.95601,0.0625 0.0171,0.77205 0.0866,1.54032 0.18604,2.30941 0.095,0.85122 0.3448,1.67246 0.47077,2.51923 0.0913,0.70879 0.1,1.42431 0.108,2.13783 0.004,0.80791 0.001,1.61571 0,2.42364 -0.002,0.821 -0.002,1.6424 -0.002,2.4634 -0.0141,0.21662 0.003,0.43418 0,0.65114 -0.20077,0.25829 -0.27684,0.57836 -0.0796,0.86196 0.58429,0.0345 1.17509,0.19685 1.75287,0.10335 0.22569,-0.0365 0.22682,-1.39639 0.21652,-1.61592 0,-0.82028 0.001,-1.64057 0.002,-2.46083 7.9e-4,-0.81571 0.005,-1.63169 0,-2.4474 -0.009,-0.80087 -0.0216,-1.60377 -0.12867,-2.39882 -0.127,-0.83357 -0.36055,-1.64407 -0.46561,-2.47994 -0.0878,-0.6782 -0.15001,-1.35464 -0.16898,-2.03451 0.67403,0 1.34807,8e-5 2.0221,-0.003 0.61804,0.0329 1.21793,-0.13766 1.82108,-0.24339 0.94755,-0.16708 0.6194,-2.02848 -0.32815,-1.86137 -0.49636,0.088 -0.98903,0.23847 -1.49655,0.21498 -0.75404,0 -1.50834,0.003 -2.26239,0.003 -0.80212,-0.004 -1.60513,-0.0111 -2.40451,-0.0853 -1.01477,-0.10637 -2.02303,-0.27197 -3.00653,-0.54933 -0.0578,-0.0164 -0.11407,-0.0246 -0.16847,-0.0259 z m -23.27867,0.56327 c -0.41035,0.003 -0.79846,0.19402 -0.84958,0.61185 -0.0143,0.11769 -0.0286,0.23529 -0.0429,0.35295 -0.11914,0.79918 -0.2944,1.59396 -0.2377,2.40761 -3e-5,0.75591 2e-5,1.51167 0,2.26755 -3e-5,0.75544 -1.1e-4,1.51112 0,2.26653 0,0.75726 5e-5,1.51448 0.003,2.27169 0.003,0.79552 0.007,1.59094 0.008,2.38643 -0.003,0.40754 -0.003,0.81592 -0.0135,1.2237 -0.24545,-0.39944 -0.494,-0.79708 -0.74776,-1.19166 -0.42855,-0.75155 -0.85233,-1.50344 -1.24436,-2.27531 -0.44784,-0.76581 -0.90289,-1.52593 -1.38182,-2.27274 -0.53416,-0.90683 -1.08894,-1.81512 -1.83142,-2.56934 -0.6632,-0.72501 -1.34797,-1.42605 -2.08359,-2.07481 -0.18333,-0.56031 -0.3774,-1.11718 -0.58603,-1.66759 -0.37901,-0.8844 -2.11584,-0.13976 -1.73683,0.74464 0.10123,0.27265 0.19902,0.54708 0.29456,0.82217 -0.17261,0.32779 -0.19095,0.70628 0.10438,0.95239 0.0991,0.0783 0.19249,0.16243 0.2894,0.24289 0.10846,0.3452 0.21403,0.6913 0.31367,1.0387 0.20833,0.74139 0.26482,1.50868 0.29353,2.27428 0.0707,0.70429 -0.0295,1.38144 -0.14833,2.07171 -0.17113,0.85844 -0.11803,1.74297 -0.24908,2.60398 -0.003,0.0361 -0.0368,0.20876 -0.0692,0.38447 -0.28972,0.1793 -0.47868,0.46722 -0.37931,0.81078 0.3991,0.93621 0.23916,1.11821 1.85518,0.72091 0.3927,-0.0966 0.35343,-1.38485 0.46562,-1.65573 0.11035,-0.84495 0.0991,-1.70143 0.23926,-2.54402 0.14078,-0.81833 0.24585,-1.63145 0.17415,-2.46446 -0.0111,-0.28607 -0.0295,-0.57203 -0.0527,-0.85731 0.58952,0.63249 1.04241,1.37721 1.4764,2.12183 0.47776,0.74668 0.93319,1.50537 1.38028,2.27068 0.38569,0.76695 0.81021,1.5108 1.23402,2.25671 0.48077,0.75382 0.95009,1.51289 1.40613,2.28203 0.93038,1.36541 2.2035,1.47307 2.73417,-0.32607 0.15735,-0.96308 0.14997,-1.94355 0.15299,-2.91664 0,-0.79951 -0.006,-1.59877 -0.008,-2.39829 -0.003,-0.75551 -0.003,-1.511 -0.003,-2.26652 -1.3e-4,-0.75525 -3e-5,-1.5108 0,-2.26603 2e-5,-0.75591 0,-1.51164 0,-2.26755 -0.0555,-0.72089 0.11094,-1.42026 0.21704,-2.12805 0.0164,-0.13433 0.0331,-0.26874 0.0496,-0.40306 0.0657,-0.53724 -0.49874,-0.84492 -1.0263,-0.8413 z m 20.97804,0.38343 c -0.47248,1.1e-4 -0.94491,0.24085 -0.94465,0.72192 2.7e-4,0.63992 1.2e-4,1.28003 0.016,1.91979 0.0259,0.80156 0.0704,1.60385 0.20878,2.39519 0.11779,0.69644 0.21469,1.38076 0.15089,2.09085 -0.0144,0.71768 -0.0362,1.43684 -0.13642,2.1487 -0.12102,0.81915 -0.29571,1.63465 -0.21601,2.46806 0.007,0.22977 0.0207,0.45927 0.0315,0.68885 -0.47053,-0.56354 -0.76021,-1.24516 -1.19631,-1.83555 -0.60152,-0.78822 -1.19365,-1.58184 -1.85312,-2.32389 -0.76052,-0.85637 -1.60514,-1.63287 -2.4045,-2.45255 -0.55256,-0.55259 -1.10522,-1.10522 -1.65778,-1.6578 -0.0238,-0.22776 -0.0508,-0.45514 -0.0863,-0.6816 -0.0956,-0.6695 -1.04605,-0.73459 -1.55649,-0.38449 -0.5845,0.20087 -1.09917,0.99788 -0.62219,1.47487 0.14727,0.14727 0.29457,0.29456 0.44184,0.44183 0.0605,0.73554 0.10468,1.47238 0.2005,2.204 0.15241,0.831 0.27148,1.666 0.32918,2.50889 0.0421,0.76975 0.0398,1.54085 0.0408,2.31148 0,0.67339 -5.3e-4,1.34667 -0.002,2.02004 -0.002,0.96229 1.8878,0.96525 1.8898,0.003 10e-4,-0.67519 0.002,-1.35054 0.002,-2.0257 -0.001,-0.81338 2.1e-4,-1.62732 -0.046,-2.43967 -0.0584,-0.83384 -0.16797,-1.66106 -0.31626,-2.48357 0.0153,0.0154 0.0307,0.0307 0.046,0.046 0.76529,0.79734 1.59573,1.53418 2.32389,2.36624 0.63006,0.70824 1.19383,1.4672 1.76785,2.22002 0.42777,0.66526 0.79331,1.35876 1.30225,1.96836 0.47057,0.53743 0.84187,1.13554 1.22525,1.73324 0.53783,0.70157 1.12176,0.91749 1.95285,0.21135 0.38226,-0.32481 0.25027,-1.18637 0.22117,-1.61902 -0.0752,-0.78319 -0.12052,-1.56815 -0.14573,-2.35439 -0.0739,-0.72125 0.0918,-1.42195 0.19689,-2.13061 0.11312,-0.79076 0.13977,-1.58996 0.15607,-2.38744 0.0626,-0.82577 -0.0395,-1.63219 -0.17674,-2.4438 -0.12358,-0.70715 -0.16075,-1.42425 -0.18345,-2.14043 -0.015,-0.61991 -0.0147,-1.24034 -0.015,-1.86036 -2.3e-4,-0.48152 -0.47269,-0.72202 -0.94517,-0.72192 z m -53.40657,0.2744 c -0.57361,-0.0116 -1.23518,0.38659 -1.08934,0.96997 0.0217,0.0733 0.0452,0.14594 0.0672,0.21912 -0.10576,0.0276 -0.21252,0.0508 -0.31779,0.0806 -0.92515,0.26432 -0.40579,2.08177 0.51935,1.81745 0.1239,-0.0349 0.24894,-0.0636 0.37362,-0.0951 0.1973,0.58653 0.40124,1.17089 0.61081,1.75339 0.31009,0.83596 0.42622,1.72014 0.62786,2.58435 0.13938,0.885 0.57036,1.67476 0.95499,2.47062 0.2894,0.60482 0.37332,1.26379 0.42322,1.92392 -0.0132,0.78753 0.15529,1.55626 0.26871,2.33114 0.0749,0.52898 0.0959,1.06254 0.11576,1.59576 -0.0225,0.0883 -0.0289,0.18274 -0.008,0.28524 0.007,-1e-4 0.0135,0 0.0201,0 0,0.0145 0,0.029 0.003,0.0434 0.0665,-0.0154 0.13295,-0.0311 0.19947,-0.0465 0.56306,-0.009 1.12625,-0.018 1.68929,-0.0269 -0.0275,-0.70983 -0.0471,-1.42121 -0.14883,-2.12546 -0.10814,-0.73339 -0.27115,-1.45769 -0.25424,-2.20347 -0.0576,-0.71861 -0.16105,-1.4323 -0.4036,-2.10892 0.0282,-0.004 0.0557,-0.005 0.0847,-0.0135 0.13938,-0.0431 0.27869,-0.0861 0.41807,-0.1292 0.64386,-0.30371 1.1294,-0.7258 1.52498,-1.31775 0.49884,-0.60521 0.90085,-1.28374 1.00922,-2.07532 0.0883,-0.80541 0.0304,-1.6225 -0.15708,-2.41225 -0.30014,-0.91451 -0.82193,-1.62915 -1.57356,-2.23449 -0.97469,-0.6559 -1.81173,-0.79497 -2.96984,-0.62735 -0.38473,0.041 -0.76808,0.0935 -1.15033,0.15192 -0.0305,-0.0997 -0.0626,-0.19876 -0.0925,-0.29869 -0.0875,-0.35004 -0.39997,-0.50466 -0.74414,-0.5116 z m 40.06527,0.65474 c -0.0541,-0.006 -0.11099,-0.006 -0.17055,0.003 -0.65775,0.0947 -0.32485,0.0382 -0.99838,0.17105 -1.00523,0.25678 -1.96365,0.63167 -2.91816,1.02992 -0.41217,-0.0686 -0.83691,0.0562 -0.95446,0.46765 -0.25204,1.07074 -0.51062,2.13926 -0.76274,3.21016 -0.14613,0.61796 -0.22082,1.24651 -0.26512,1.87791 -0.40187,0.28392 -0.3534,0.97991 -0.0506,1.40353 -0.007,0.65945 -0.007,1.31924 -0.005,1.97869 -0.0503,1.01997 0.23661,1.95239 0.72551,2.83342 0.55295,0.94028 1.39893,1.55647 2.33167,2.07532 0.81976,0.45174 1.72789,0.61811 2.64789,0.70281 0.91879,-0.003 1.79428,-0.16582 2.57606,-0.65474 0.75636,-0.67043 0.739,-1.49376 0.47233,-2.39519 -0.2808,-0.92028 -2.08843,-0.36841 -1.80764,0.55189 0.0779,0.24321 0.0677,0.28583 0.24959,0.29663 -0.0899,0.23431 -1.08227,0.27545 -1.32188,0.31935 -0.65725,-0.0568 -1.31032,-0.15343 -1.89912,-0.47284 -0.62881,-0.34843 -1.22738,-0.72207 -1.60713,-1.35908 -0.34909,-0.5873 -0.51927,-1.21153 -0.4775,-1.9017 -0.003,-0.63928 -0.003,-1.27899 0.005,-1.91823 0.6406,-0.13321 1.28325,-0.254 1.91719,-0.42272 0.67136,-0.1987 1.36552,-0.2685 2.06137,-0.30541 0.49948,-0.0164 0.23453,0.005 0.79428,-0.0749 0.95008,-0.152 0.6514,-2.01859 -0.29869,-1.86656 -0.33589,0.0659 -0.13771,0.0387 -0.5979,0.0543 -0.82558,0.0456 -1.64881,0.13401 -2.44584,0.3664 -0.43833,0.11713 -0.88162,0.20793 -1.32551,0.29712 0.0382,-0.31996 0.0871,-0.63844 0.16124,-0.95342 0.18354,-0.78206 0.37102,-1.56316 0.55602,-2.34456 0.88564,-0.3684 1.76887,-0.73038 2.70269,-0.96324 0.53944,-0.10289 0.27305,-0.0594 0.80047,-0.13229 0.89313,-0.12636 0.71601,-1.77877 -0.0946,-1.87381 z m -24.01249,0.35658 c -0.61916,0.0101 -1.21825,0.21902 -1.8097,0.42529 -0.31935,0.11152 -0.44638,0.40489 -0.44133,0.72398 -0.50231,-0.185 -1.02658,-0.30655 -1.56527,-0.34674 -0.81788,0.0974 -1.47886,0.56677 -2.07687,1.10226 -0.48036,0.54004 -0.81984,1.19102 -1.1312,1.83917 -0.399,0.55123 -0.5768,1.19557 -0.69713,1.85465 -0.0272,0.57351 -0.11808,1.1171 -0.24392,1.67434 -0.15684,0.7266 -0.18939,1.47074 -0.21238,2.21123 -0.10189,1.05105 0.352,1.91013 0.9462,2.73214 0.5292,0.699 1.2767,1.12784 2.02777,1.54461 0.79764,0.45651 1.66531,0.37764 2.53939,0.29093 1.01291,-0.11858 1.8347,-0.56076 2.59879,-1.21234 0.65823,-0.61842 1.25167,-1.30887 1.75599,-2.05828 0.46276,-0.70194 0.79544,-1.47865 1.17459,-2.22776 0.48675,-0.7696 0.91284,-1.54745 1.17978,-2.42105 0.26934,-0.89024 0.20307,-1.77937 0.0651,-2.682 -0.2024,-0.84905 -0.55946,-1.63232 -1.12292,-2.29753 -0.67021,-0.60757 -1.49317,-0.89972 -2.36058,-1.08935 -0.21133,-0.0483 -0.41995,-0.0669 -0.62632,-0.0636 z m -21.15013,0.33486 c -0.37928,-0.0201 -0.6631,0.17372 -0.98134,0.60772 -0.381,0.64294 -0.77531,1.27344 -1.30742,1.80557 -0.5225,0.56123 -1.08974,1.10926 -1.70531,1.56321 -0.36296,0.20116 -0.81307,0.47077 -1.22061,0.2894 -0.62727,-0.36322 -0.9167,-1.03158 -1.25264,-1.64642 -0.0946,-0.15481 -0.98258,-1.65116 -1.07281,-1.66656 -0.53268,-0.0907 -1.08042,0.0314 -1.62057,0.047 -0.0594,0.18671 -0.13237,0.36967 -0.17828,0.56017 -0.0953,0.39024 0.0714,0.84368 0,1.23921 0.003,0.5639 0.003,1.12746 0.003,1.69137 -0.004,0.68763 -0.009,1.37655 -0.0713,2.06187 -0.0926,0.84352 -0.28559,1.66598 -0.45474,2.4965 -0.12512,1.08826 -0.28789,2.17512 -0.2336,3.27422 v 0 c -2e-5,0.96216 1.88979,0.96216 1.88979,0 -0.0546,-1.02716 0.1047,-2.04192 0.2217,-3.05874 0.1905,-0.8283 0.35988,-1.65772 0.45526,-2.50267 0.066,-0.6931 0.0749,-1.38938 0.0801,-2.08515 0.32843,0.44635 0.71803,0.83918 1.19629,1.16943 1.04981,0.60995 2.12285,0.31668 3.13367,-0.19534 0.82301,-0.52528 1.52995,-1.23463 2.20297,-1.93993 0.25816,-0.25934 0.48578,-0.54131 0.70125,-0.83251 0.11515,0.42574 0.23786,0.8495 0.35552,1.27434 0.16677,0.90736 0.60159,1.72675 0.86712,2.60398 0.25694,0.83031 0.61021,1.62219 0.95758,2.41691 0.2612,0.75026 0.62222,1.46045 0.88884,2.20814 0.11592,0.41486 0.0629,0.21037 0.16018,0.61341 0.22815,0.93474 2.06423,0.4867 1.83608,-0.44805 -0.12719,-0.51649 -0.0553,-0.24728 -0.2186,-0.80719 -0.28617,-0.78494 -0.6523,-1.53715 -0.93483,-2.32389 -0.31903,-0.72837 -0.64637,-1.45275 -0.88262,-2.21382 -0.2668,-0.86024 -0.67807,-1.6683 -0.85267,-2.5559 -0.20892,-0.74856 -0.43384,-1.49318 -0.59894,-2.25311 -0.0889,-0.28983 -0.24164,-0.98015 -0.55033,-1.13223 -0.32441,-0.15984 -0.58635,-0.24892 -0.81391,-0.26096 z m 7.97986,1.13223 c 0.3439,0.003 0.63738,0.0882 0.99012,0.35555 0.40058,0.36435 0.70956,0.72175 0.85267,1.24589 0.0654,0.51671 0.1987,1.08032 0.0894,1.59838 -0.0708,0.40888 -0.27879,0.79766 -0.56845,1.09603 -0.26168,0.31943 -0.44519,0.68392 -0.85059,0.8196 -0.0619,0.0151 -0.12414,0.0304 -0.18602,0.0455 -0.13023,0.0377 -0.22879,0.10843 -0.30438,0.19741 -0.12401,-0.3008 -0.22484,-0.60984 -0.27337,-0.93639 -0.21831,-0.93509 -0.34597,-1.89216 -0.68987,-2.79466 -0.17645,-0.49046 -0.34682,-0.98319 -0.51472,-1.4764 0.25228,-0.0348 0.50527,-0.0649 0.75861,-0.0915 0.26596,-0.0344 0.49027,-0.0615 0.6966,-0.0594 z m -22.08287,0.3788 c -0.21587,0.0276 -0.38552,0.16539 -0.50128,0.35499 -1.27902,-0.0146 -2.47428,0.37928 -3.58582,0.99841 -0.99494,0.61174 -1.74551,1.19279 -2.23295,2.27478 -0.27601,0.8096 -0.27294,1.66952 -0.27593,2.51457 -0.0153,0.81691 0.003,1.62246 0.13692,2.4288 0.24971,0.82106 0.42413,1.661 0.80256,2.43398 0.49612,0.81288 1.15734,1.33308 2.05412,1.63296 0.86677,0.24169 1.71527,0.20349 2.56521,-0.0641 0.88667,-0.4228 1.51697,-1.18403 2.10532,-1.94561 0.53406,-0.77602 1.00626,-1.593 1.37303,-2.46084 0.25082,-0.80988 0.48048,-1.63023 0.64026,-2.46393 0.15952,-0.86108 0.17817,-1.72003 0.0522,-2.58432 -0.1932,-0.91701 -0.56349,-1.74222 -1.20717,-2.4231 -0.50972,-0.42566 -1.11294,-0.60418 -1.75596,-0.69557 -0.0596,-0.008 -0.11657,-0.008 -0.17052,0 z m 14.80323,0.0222 c -0.006,0.0111 -0.0435,0.0497 -0.0889,0.0925 0.0101,-0.0167 0.0206,-0.0329 0.0305,-0.0496 0.0476,-0.0422 0.0632,-0.052 0.0584,-0.0429 z m 20.49589,0.0227 c 0.0606,0.003 0.12131,0.008 0.18243,0.0201 0.48448,0.10205 0.94226,0.23516 1.35909,0.51213 0.37221,0.32176 0.47442,0.87574 0.6542,1.3136 0.0967,0.62939 0.18241,1.23161 -0.009,1.85777 -0.21902,0.77089 -0.65402,1.41962 -1.05471,2.10685 -0.34501,0.68374 -0.64822,1.39174 -1.06299,2.03555 -0.39798,0.61383 -0.89566,1.16157 -1.41644,1.67224 -0.46556,0.40992 -0.9161,0.68472 -1.5503,0.76222 -0.49459,0.0493 -0.98137,0.17483 -1.44021,-0.0656 -0.51017,-0.27853 -1.02999,-0.54401 -1.40922,-0.99788 -0.35711,-0.49209 -0.67707,-0.91754 -0.58806,-1.56527 0.0188,-0.62013 0.0402,-1.2442 0.16689,-1.85365 0.13116,-0.58218 0.23985,-1.15903 0.26046,-1.75699 0.0884,-0.50787 0.23432,-0.95697 0.5457,-1.38028 0.19889,-0.43156 0.44202,-0.84402 0.69247,-1.24642 0.11822,-0.1093 0.77679,-0.55311 0.78859,-0.57981 0.009,-0.0201 -0.0384,-0.0233 -0.0574,-0.0346 0.65617,-0.0558 1.34678,0.3964 1.90013,0.68421 0.70086,0.46723 1.59171,-0.68014 1.26556,-1.3312 0.2527,-0.0886 0.5098,-0.16259 0.77255,-0.15295 z m -35.02525,1.88772 c 0.11282,0.0273 0.22302,0.0641 0.33073,0.11473 0.41309,0.28821 0.49538,0.91429 0.65992,1.35186 0.1007,0.65355 0.0789,1.30006 -0.0398,1.95337 -0.13184,0.70694 -0.33586,1.3975 -0.52814,2.08928 -0.29292,0.71964 -0.70011,1.38435 -1.125,2.03295 -0.36513,0.47442 -0.74319,0.93803 -1.21748,1.31001 -0.45432,0.18449 -0.9193,0.15332 -1.39322,0.0491 -0.42609,-0.11094 -0.67109,-0.33105 -0.93483,-0.68885 -0.32535,-0.58306 -0.37266,-1.27365 -0.62216,-1.89031 -0.12068,-0.6985 -0.11909,-1.39721 -0.1101,-2.10582 0.003,-0.59743 -0.0108,-1.20528 0.1292,-1.79007 0.22855,-0.67185 0.88471,-0.97583 1.43248,-1.36736 0.87021,-0.52581 1.84457,-0.79457 2.8665,-0.74518 0.24836,0 0.43174,-0.12681 0.55189,-0.31369 z m 79.32849,9.10593 c -2.6e-4,0.007 5.3e-4,0.0145 0,0.0217 -0.003,0.0493 -0.0361,0.19346 -0.0341,0.14417 0.003,-0.0651 0.0159,-0.11856 0.0341,-0.16587 z m -28.37657,0.42011 c 0.059,0.0303 0.10893,0.084 0.15814,0.12919 0.0132,0.0127 -0.0412,0.013 -0.0537,0 -0.0387,-0.0397 -0.0722,-0.084 -0.10441,-0.12919 z"
       id="path1349" />
    <path
       style="fill:#6969f0;fill-opacity:1;stroke:#160808;stroke-width:0.26458332;stroke-miterlimit:4;stroke-dasharray:none;stroke-opacity:1"
       d="m -402.19541,235.77822 c -1.12757,0.11562 -2.05562,0.73715 -2.87268,1.48002 -0.7166,0.64342 -1.26648,1.4242 -1.78337,2.2288 -0.51343,0.74975 -0.97616,1.53395 -1.39732,2.33886 -0.39595,0.77976 -0.50398,1.65026 -0.70229,2.49082 -0.19473,0.80097 -0.25939,1.62245 -0.29612,2.44326 -0.068,0.92898 0.19688,1.81774 0.53951,2.66857 0.39593,0.82618 0.85784,1.60885 1.52964,2.23654 0.92205,0.59156 1.90537,0.43789 2.88663,0.10907 0.90937,-0.28872 1.68736,-0.85027 2.47169,-1.37512 0.35739,-0.19881 0.68393,-0.44482 1.02474,-0.66974 0.8025,-0.53081 -0.24033,-2.10693 -1.04283,-1.57613 -0.34355,0.2277 -0.67308,0.47535 -1.03404,0.67594 -0.6511,0.43648 -1.29013,0.91868 -2.04432,1.16167 -0.22164,0.0839 -0.4649,0.17733 -0.70228,0.20413 -0.0973,0.0101 -0.20622,-0.0371 -0.29353,0.007 -0.0148,0.007 -0.0106,0.0306 -0.0156,0.046 -0.49856,-0.37076 -0.71554,-1.02717 -1.03249,-1.53842 -0.25074,-0.5923 -0.44915,-1.21606 -0.39946,-1.86706 0.0306,-0.70279 0.0808,-1.4064 0.24754,-2.09238 0.1624,-0.6885 0.24572,-1.40317 0.53949,-2.05208 0.39102,-0.75605 0.83132,-1.48701 1.31103,-2.19004 0.42963,-0.66902 0.87469,-1.32601 1.47331,-1.85983 0.46828,-0.4386 1.00395,-0.85757 1.64692,-0.98134 0.54652,-0.24107 1.62809,0.86124 2.09651,1.11413 v 0 c 0.80057,0.53372 1.84908,-1.03881 1.04851,-1.57252 -0.76725,-0.47165 -1.48592,-1.23153 -2.40967,-1.39629 -0.2594,-0.0462 -0.52638,-0.0233 -0.78962,-0.0346 z m 34.88779,0.71262 c -0.0693,-0.003 -0.14019,-0.003 -0.21239,0 -1.05687,0.0976 -2.03537,0.34547 -2.83755,1.08985 -0.10105,0.096 -0.199,0.19516 -0.29869,0.2925 -0.17603,0.0792 -0.31392,0.20653 -0.38344,0.37671 -0.65484,0.66233 -1.27959,1.35366 -1.87327,2.07224 h 5.3e-4 c -0.61597,0.73914 0.83562,1.9494 1.45159,1.21026 0.16635,-0.20013 0.3357,-0.39796 0.50643,-0.59428 0.0324,0.27593 0.0665,0.552 0.0982,0.82785 0.094,0.80005 0.1235,1.60494 0.13901,2.40967 0.01,0.74967 0.008,1.49976 0.007,2.24949 -0.001,0.75499 -0.002,1.51 -0.002,2.26496 -0.0119,0.80272 0.18431,1.5884 0.2806,2.38229 0.0897,0.74768 0.0537,1.50172 0.15193,2.24742 0.0398,0.3388 0.14775,0.64402 0.28681,0.95136 0.45295,0.84889 2.12004,-0.041 1.66708,-0.88987 0.006,0.0257 0.0281,0.1021 0.0181,0.0775 -0.0507,-0.13051 -0.0748,-0.28418 -0.10284,-0.41753 -0.1336,-0.7193 -0.0104,-1.47508 -0.14521,-2.19832 -0.0884,-0.71766 -0.26365,-1.42883 -0.26665,-2.15231 0,-0.44635 5.3e-4,-0.8926 0.001,-1.33895 0.51545,-0.2201 1.04401,-0.41531 1.53686,-0.68522 0.69469,-0.34578 1.35226,-0.78631 1.90996,-1.3281 0.73756,-0.67855 1.33814,-1.45129 1.54047,-2.45824 0.20258,-0.86905 0.30045,-1.75554 0.003,-2.61845 -0.27648,-0.80116 -0.58521,-1.61287 -1.0697,-2.31198 -0.64144,-0.79116 -1.36707,-1.42502 -2.40709,-1.45987 z m -17.4227,1.05781 c -0.31761,0.22635 -0.67305,0.4074 -0.95292,0.67902 -0.23135,0.2245 -0.12353,1.57417 -0.14573,1.93117 0.001,0.88503 0.004,1.76959 0.003,2.65462 -0.003,0.96708 -0.005,1.93561 -0.0863,2.90007 -0.11061,1.206 -0.268,2.41043 -0.55604,3.58841 h -5.3e-4 c -0.23336,0.93343 1.60012,1.39179 1.83348,0.45837 0.31243,-1.27141 0.48403,-2.57122 0.60462,-3.87313 0.0871,-1.01984 0.09,-2.0438 0.094,-3.0665 5e-5,-0.047 -4e-5,-0.0941 0,-0.14107 0.14558,0.2659 0.30507,0.52451 0.49144,0.76896 0.89553,0.81134 2.00191,0.99448 3.15691,0.79062 1.00586,-0.3439 1.88757,-0.96506 2.71819,-1.61538 0.16451,-0.12767 0.31921,-0.26546 0.46922,-0.40773 -0.0359,0.77177 -0.0383,1.54472 -0.0393,2.31717 0,0.75668 0.001,1.51344 0.002,2.27013 5.3e-4,0.75533 0.001,1.51071 0.001,2.26602 3e-5,0.50393 10e-6,1.00764 0,1.51154 0,0.96218 1.8898,0.96216 1.8898,0 0,-0.50398 4e-5,-1.00812 0,-1.51207 0,-0.75583 -5.3e-4,-1.51175 -10e-4,-2.26756 -0.001,-0.75509 -0.002,-1.50987 -0.002,-2.26496 10e-4,-0.76256 0.002,-1.52586 0.0382,-2.28772 0.0485,-0.8331 0.13255,-1.66302 0.28577,-2.4841 0.15192,-0.98956 0.23887,-0.66611 -1.54823,-1.43092 -0.0238,-0.0103 -0.60199,0.90795 -0.66559,0.98444 -0.46757,0.65857 -0.95933,1.31569 -1.59783,1.81954 -0.60426,0.47688 -1.24107,0.9207 -1.93787,1.25211 -0.4471,0.13462 -0.86409,0.0268 -1.29604,-0.12454 -0.50726,-0.55464 -0.64956,-1.36456 -0.98909,-2.01901 -0.14283,-0.39452 -0.62843,-2.01506 -0.87023,-2.22776 -0.25394,-0.22336 -0.5994,-0.31316 -0.89917,-0.46974 z m 37.05096,0.72554 c -0.52751,-0.008 -1.09489,0.29422 -1.03404,0.83198 0.0643,0.55877 0.14364,1.1162 0.2992,1.6583 0.20125,0.72533 0.35039,1.46109 0.55656,2.18541 0.14372,0.77597 0.35725,1.53572 0.47749,2.31613 0.17182,0.72269 0.35972,1.43775 0.44752,2.17766 0.0551,0.37848 0.0552,0.76216 0.046,1.14617 -0.44976,-0.64058 -0.90808,-1.27693 -1.3932,-1.88928 -0.64939,-0.73679 -1.3557,-1.42206 -1.96887,-2.1916 -0.74682,-0.85256 -1.4302,-1.78408 -2.31717,-2.4965 -0.18894,-0.0976 -0.35452,-0.28191 -0.56689,-0.293 -1.55353,-0.081 -1.62972,0.96435 -1.33635,2.07687 0.18199,0.91631 0.14135,1.8769 0.41857,2.78019 0.22488,0.91999 0.44902,1.83978 0.68989,2.7559 0.13607,0.9525 2.00675,0.68482 1.87068,-0.26768 -0.23759,-0.98009 -0.4859,-1.95656 -0.7245,-2.93624 -0.11277,-0.41854 -0.17296,-0.84505 -0.22221,-1.2733 0.25495,0.30051 0.50755,0.60359 0.76636,0.89916 0.61001,0.77139 1.3257,1.44909 1.96836,2.19056 0.51623,0.66601 1.01431,1.35218 1.49293,2.0469 0.3555,0.48887 0.56797,1.1658 1.04025,1.56734 0.14343,0.12194 0.31064,0.21216 0.46612,0.31834 0.31018,-0.0185 0.645,0.0664 0.93069,-0.0558 0.76584,-0.32753 0.72888,-1.50488 0.75758,-2.17247 0.0124,-0.81201 0.045,-1.62534 -0.0424,-2.43345 -0.0969,-0.80944 -0.29752,-1.59475 -0.48472,-2.38588 -0.1115,-0.74893 -0.32204,-1.4767 -0.45734,-2.22108 -0.21368,-0.7802 -0.37809,-1.57043 -0.59428,-2.34971 -0.12825,-0.44627 -0.19136,-0.90519 -0.24236,-1.3653 -0.0473,-0.41828 -0.43359,-0.61307 -0.84388,-0.6196 z m -19.67477,0.10025 c 0.46374,0.0145 0.71592,0.42614 0.98031,0.75964 0.32092,0.5396 0.55555,1.14033 0.75396,1.73686 0.16538,0.51485 0.0921,1.04241 -0.0486,1.55596 -0.12016,0.63437 -0.48915,1.0953 -0.9679,1.50585 -0.43151,0.40876 -0.92303,0.78642 -1.46813,1.03198 -0.2349,0.12396 -0.47646,0.23337 -0.71933,0.33952 -5.3e-4,-0.38801 0.002,-0.77626 -0.004,-1.16428 -0.0169,-0.86465 -0.0504,-1.72937 -0.15141,-2.58897 -0.0939,-0.81582 -0.21299,-1.63036 -0.22893,-2.45102 0.0501,-0.048 0.0983,-0.0977 0.14883,-0.1452 0.48874,-0.44667 1.0731,-0.52824 1.70481,-0.58034 z m -24.24709,0.17933 c -0.30118,-0.0265 -0.55795,0.1763 -0.72192,0.45474 -0.14365,-0.15518 -0.33707,-0.24447 -0.57258,-0.21084 -1.18049,0.11199 -2.29489,0.42629 -3.32899,1.002 -0.96858,0.5838 -1.71962,1.38023 -2.34456,2.30994 -0.53539,0.81693 -0.73615,1.74935 -0.83354,2.70476 -0.05,0.8264 -0.0817,1.65674 0.008,2.48047 0.0993,0.95361 0.56606,1.75501 1.19321,2.45462 0.64237,0.61439 1.44111,1.00756 2.21433,1.42576 0.73545,0.41375 1.44721,0.79809 2.27222,1.00044 1.00117,0.22064 1.96774,0.008 2.88768,-0.39222 0.90128,-0.45016 1.59345,-1.17438 2.29236,-1.87843 0.6986,-0.68321 0.99545,-1.54954 1.13637,-2.49132 0.10602,-0.88884 0.10644,-1.75935 -0.12299,-2.62567 -0.20872,-0.84484 -0.6447,-1.59425 -0.98651,-2.38541 -0.28564,-0.59867 -0.63775,-1.16967 -0.89141,-1.78284 -0.33767,-0.79721 -0.86278,-1.41999 -1.60249,-1.86086 -0.14426,-0.056 -0.28879,-0.11195 -0.43305,-0.16794 -0.0566,-0.0204 -0.1122,-0.0325 -0.1664,-0.0372 z m 48.67041,0.72605 c -0.47247,0 -0.94516,0.24029 -0.94516,0.72141 v 0.18809 c -0.22597,0.35039 -0.22597,0.91414 0,1.26453 v 1.7141 2.4996 2.26859 c -0.0651,0.88886 0.0479,1.71995 0.32711,2.56315 0.34649,0.89421 0.90517,1.5716 1.70687,2.08618 0.77354,0.34835 1.60542,0.56928 2.43758,0.72967 0.80472,0.13605 1.62198,0.1547 2.43603,0.1669 0.76211,0.008 1.52455,0.006 2.28668,0.003 0.12593,0 0.25182,2.1e-4 0.37775,0 0.96249,-0.003 0.95907,-1.89331 -0.003,-1.89032 -0.12609,0 -0.25218,-2.1e-4 -0.37827,0 -0.75153,0.003 -1.50313,0.006 -2.25465,0 -0.70521,-0.0103 -1.41346,-0.022 -2.11149,-0.13332 -0.61506,-0.11457 -1.21573,-0.29025 -1.80816,-0.48834 -0.44481,-0.23368 -0.6879,-0.62066 -0.89607,-1.06868 -0.11641,-0.34605 -0.18789,-0.68482 -0.22325,-1.02939 0.0787,0.0209 0.16225,0.0312 0.25425,0.018 1.0507,-0.16563 2.11687,-0.18812 3.1688,-0.33538 0.80382,-0.15743 1.61236,-0.27194 2.42931,-0.32814 0.48203,-0.023 0.24096,-0.0132 0.72451,-0.0279 0.96175,-0.0297 0.90331,-1.91858 -0.0584,-1.88879 -0.52907,0.0164 -0.26357,0.006 -0.79737,0.0315 -0.86339,0.0608 -1.71991,0.1745 -2.56935,0.34261 -1.04618,0.15846 -2.11322,0.15584 -3.15846,0.33436 v -1.35083 -2.4996 -1.40457 h 2.1177 2.54455 2.26652 c 0.96217,0 0.96217,-1.88979 0,-1.88979 h -2.26652 -2.54455 -2.13372 c -0.0754,-0.39655 -0.5002,-0.59687 -0.92914,-0.59687 z m -32.09003,0.23357 c 0.0181,-0.0322 -0.0211,0.099 -0.0574,0.0946 0.0186,-0.0319 0.0431,-0.0692 0.0574,-0.0946 z m 58.20006,0.0863 c -0.81595,-0.0172 -1.21821,1.59499 -0.35088,1.84277 1.08817,0.30826 2.20401,0.49218 3.32693,0.61185 0.63258,0.0466 1.25458,0.16967 1.87999,0.27233 -0.054,0.68313 -0.0902,1.368 -0.11782,2.05259 -0.10505,1.09132 0.0497,2.1681 0.18965,3.24683 0.18048,0.76875 0.36595,1.53157 0.45475,2.31717 0.0658,0.71649 0.0678,1.43706 0.0718,2.15596 2.6e-4,0.0946 -0.0293,0.19388 5.3e-4,0.28368 0.0236,0.0719 -0.0402,-0.17854 0.0186,-0.22632 0.0544,-0.0442 0.11264,-0.0828 0.17053,-0.12197 -0.24335,0.50003 -0.18661,1.21359 0.37311,1.35342 1.04337,-0.46929 1.36075,-0.30739 1.32705,-1.29863 -0.004,-0.78793 -0.007,-1.57715 -0.0837,-2.36215 -0.0927,-0.79348 -0.25273,-1.57204 -0.45837,-2.34405 -0.12635,-0.97372 -0.27763,-1.94228 -0.17518,-2.92798 0.0261,-0.65154 0.0601,-1.30321 0.1111,-1.95337 0.3654,0.0122 0.73113,0.018 1.09658,0.0217 0.75823,0.003 1.51656,0 2.2748,0 0.75551,-0.003 1.511,-0.003 2.26652,-0.003 0.50387,-8e-5 0.25162,6e-5 0.75551,0 0.96218,-8e-5 0.96217,-1.88986 0,-1.88978 -0.50407,5e-5 -0.25193,-8e-5 -0.75602,0 -0.75623,0 -1.51289,0.003 -2.26912,0.003 -0.75128,0.003 -1.50233,0.004 -2.25361,0 -0.32291,-0.003 -0.646,-0.008 -0.96893,-0.018 -0.20517,-0.66167 -1.50356,-0.81746 -1.79524,-0.16433 -0.63637,-0.10494 -1.26917,-0.23297 -1.91358,-0.27646 -1.01478,-0.10637 -2.02304,-0.27194 -3.00653,-0.54933 -0.0578,-0.0164 -0.11407,-0.0246 -0.16847,-0.0259 z m -13.17697,0.59325 c -0.67632,-0.0146 -1.45455,0.97115 -0.90175,1.52392 0.0597,0.0688 0.12053,0.1365 0.18035,0.20516 -0.52663,0.008 -1.08305,0.3267 -1.00666,0.86145 0.14434,1.02264 0.22785,2.05211 0.28215,3.08301 0.0377,0.81677 0.0414,1.63462 0.0434,2.45205 -0.0119,0.80192 0.18367,1.58708 0.27957,2.38022 0.19903,0.77785 0.30247,1.57517 0.47336,2.35799 0.0832,0.40389 0.18658,0.79486 0.31471,1.1865 0.3115,0.91035 2.0995,0.2985 1.788,-0.61185 -0.11958,-0.32245 -0.1758,-0.65672 -0.2589,-0.99013 -0.16908,-0.71786 -0.23523,-1.4596 -0.44131,-2.17093 -0.0882,-0.71895 -0.2631,-1.43155 -0.2651,-2.15646 -0.002,-0.8492 -0.006,-1.6987 -0.0465,-2.54711 -0.0496,-0.93414 -0.12417,-1.8669 -0.2403,-2.7952 0.48113,0.54245 0.96535,1.08202 1.45779,1.61439 0.79356,0.85148 1.6124,1.67888 2.43293,2.50422 0.64007,0.7506 1.27006,1.50858 1.9327,2.23968 0.66526,0.68759 1.29904,1.40739 1.85777,2.18487 0.42105,0.58082 0.93018,1.09567 1.32033,1.6986 0.39719,0.50464 0.94481,1.45465 1.76061,1.24489 0.32375,-0.0832 0.55259,-0.37618 0.8289,-0.5643 0.37674,-0.81902 0.55649,-1.70302 0.67902,-2.59054 0.15947,-0.87278 -0.004,-1.73662 -0.12454,-2.60088 -0.0949,-0.7679 -0.31243,-1.51135 -0.42116,-2.2779 -0.0866,-0.71073 -0.0943,-1.42753 -0.10232,-2.14252 -0.005,-0.75202 -0.002,-1.50413 -5.3e-4,-2.25618 7.9e-4,-0.50424 5.3e-4,-0.25228 10e-4,-0.75655 0.001,-0.96311 -1.88881,-0.96528 -1.88981,-0.003 -5.3e-4,0.50363 -2.4e-4,0.25183 -0.001,0.75551 -0.002,0.75973 -0.004,1.51972 5.3e-4,2.27944 0.009,0.79828 0.0208,1.59856 0.12196,2.3916 0.11119,0.76393 0.31636,1.50669 0.42013,2.27015 0.0971,0.69474 0.25299,1.3829 0.12299,2.08513 -0.0319,0.23849 -0.0704,0.4741 -0.11576,0.709 -0.34498,-0.45958 -0.71976,-0.89588 -1.07022,-1.35236 -0.60491,-0.82878 -1.27116,-1.61079 -1.98799,-2.34509 -0.68245,-0.75226 -1.32409,-1.53802 -1.99213,-2.30269 -0.80456,-0.80928 -1.60763,-1.62041 -2.3859,-2.45515 -0.88745,-0.95914 -1.74881,-1.94117 -2.61172,-2.92232 v 0 c -0.12757,-0.12756 -0.27853,-0.18418 -0.4346,-0.18756 z m -62.15538,0.13642 c 0.0265,0.0138 0.0503,0.0296 0.0801,0.0403 0.0533,0.0148 0.10638,0.0302 0.15968,0.045 0.3996,0.15748 0.59275,0.58865 0.77721,0.95033 0.26829,0.6118 0.59293,1.19811 0.89607,1.79316 0.31412,0.71501 0.71,1.39108 0.90331,2.1549 0.2039,0.58989 0.10038,1.22251 0.0672,1.83452 -0.0715,0.54469 -0.19407,1.032 -0.6072,1.42679 -0.53482,0.54017 -1.05224,1.11104 -1.72548,1.48569 -0.53222,0.25363 -1.09888,0.39531 -1.68827,0.27389 -0.66477,-0.13496 -1.19839,-0.52305 -1.79834,-0.82166 -0.58915,-0.31811 -1.19746,-0.6109 -1.71824,-1.03817 -0.3784,-0.39934 -0.6601,-0.84982 -0.7121,-1.41076 -0.1025,-0.6799 -0.0169,-1.37925 -0.003,-2.06346 0.0609,-0.6455 0.16626,-1.28185 0.52296,-1.83914 0.45821,-0.68797 0.99293,-1.28149 1.70843,-1.71826 0.81566,-0.47945 1.72485,-0.67612 2.66185,-0.77412 0.22483,-0.0321 0.37948,-0.16275 0.47542,-0.33898 z m 31.80581,1.53789 c -0.0544,0 -0.11064,0.01 -0.16846,0.0265 -1.12843,0.37227 -2.18226,0.92324 -3.11454,1.65728 -0.77835,0.70027 -1.2579,1.61189 -1.56011,2.59982 -0.23298,0.88508 -0.25337,1.78022 -0.12041,2.67996 0.0755,0.97798 0.4209,1.82777 0.9462,2.64531 0.61757,0.95787 1.50573,1.52135 2.57865,1.83554 0.88881,0.20984 1.7857,0.21085 2.68201,0.0682 0.99984,-0.19298 1.80843,-0.68461 2.52284,-1.39216 0.63896,-0.74763 1.00666,-1.62216 1.21905,-2.57143 0.1424,-0.85294 0.1888,-1.72209 0.1049,-2.58225 -0.10693,-0.95253 -0.37539,-1.84116 -0.85989,-2.66547 -0.68569,-0.94512 -1.68234,-1.35742 -2.79157,-1.56218 -0.22462,-0.0331 -0.45028,-0.0522 -0.67644,-0.0661 -0.12541,-0.3697 -0.40225,-0.68043 -0.76223,-0.67284 z m 7.60212,0.92294 c -0.003,-0.0346 0.005,-0.007 0.009,0.0491 -10e-4,-0.009 -0.008,-0.0435 -0.009,-0.0491 z m -8.35659,1.38388 c 0.11538,0.13258 0.27133,0.22013 0.47283,0.22273 0.46459,0.006 0.93009,0.01 1.39165,0.0703 0.57404,0.0942 1.12558,0.24024 1.51774,0.70331 0.38953,0.54176 0.47389,1.23309 0.58497,1.87637 0.0936,0.65022 0.002,1.32117 -0.0744,1.96938 -0.12437,0.60542 -0.34355,1.15522 -0.72347,1.65055 -0.4084,0.4455 -0.8828,0.71339 -1.47484,0.84801 -0.6249,0.10441 -1.24658,0.11054 -1.87121,-0.0238 -0.64099,-0.16264 -1.14011,-0.47826 -1.5043,-1.04902 -0.39492,-0.58886 -0.61339,-1.17835 -0.65939,-1.89497 -0.098,-0.62402 -0.0894,-1.24124 0.0641,-1.85984 0.17362,-0.61896 0.46579,-1.20044 0.92553,-1.6583 0.41695,-0.33774 0.87256,-0.61762 1.35082,-0.85474 z"
       id="path1381" />
    <path
       style="fill:#6969f0;fill-opacity:1;stroke:#160808;stroke-width:0.26458332;stroke-miterlimit:4;stroke-dasharray:none;stroke-opacity:1"
       d="m -235.79885,333.53144 c -0.52667,-0.0309 -1.10656,0.24712 -1.06867,0.78703 0.01,0.13483 0.0188,0.26979 0.0284,0.40462 0.0757,0.75012 0.20027,1.49159 0.38965,2.22208 0.0869,0.67527 0.2303,1.3358 0.45836,1.97869 0.10695,0.70675 0.27528,1.40536 0.2217,2.12545 0.002,0.78671 0.005,1.57371 -0.0238,2.36005 -0.0447,0.95346 -0.11988,1.90905 -0.33952,2.84068 -0.0718,0.2558 -0.14734,0.51406 -0.22944,0.76893 -0.22514,-0.38854 -0.48516,-0.7534 -0.73794,-1.13274 -0.40679,-0.69543 -0.92253,-1.31773 -1.2914,-2.0376 -0.4858,-0.77444 -1.0502,-1.48995 -1.65881,-2.17197 -0.64103,-0.67707 -1.21564,-1.42055 -1.72444,-2.20141 -0.49804,-0.89175 -0.92557,-1.84179 -1.14567,-2.84271 -0.0561,-0.3928 -0.40792,-0.57579 -0.79168,-0.59119 -1.1e-4,-0.0106 1.1e-4,-0.0209 0,-0.0315 0,-0.96214 -1.88981,-0.96214 -1.88981,0 0.006,1.12567 0.0329,2.24636 -0.10128,3.36518 -0.0695,0.84182 -0.22968,1.66227 -0.40308,2.48666 -0.1058,0.79502 -0.32623,1.56493 -0.45734,2.35542 -0.2235,0.74973 -0.38205,1.51125 -0.47335,2.28772 -0.0671,0.46649 -0.0193,0.94232 -0.10904,1.40457 -0.1512,0.9502 1.71535,1.24735 1.86655,0.29713 0.0704,-0.49408 0.084,-0.98761 0.11989,-1.48519 0.0846,-0.74885 0.26427,-1.47373 0.46147,-2.20038 0.12122,-0.76239 0.34507,-1.50355 0.44132,-2.27065 0.18315,-0.87217 0.34901,-1.74207 0.42788,-2.63136 0.12801,0.26035 0.26134,0.51821 0.40049,0.77152 0.57999,0.9226 1.25746,1.78782 2.00298,2.58226 0.51746,0.59372 1.01635,1.20089 1.42834,1.87327 0.34759,0.70567 0.87749,1.29823 1.25832,1.98128 0.27034,0.51269 0.72072,0.9194 0.9157,1.46915 0.31079,0.72896 0.98592,1.41881 1.85932,1.14102 0.17153,-0.0546 0.31863,-0.16743 0.47801,-0.25114 0.68242,-0.64519 0.91997,-1.54604 1.17099,-2.41949 0.26477,-1.07026 0.35677,-2.17008 0.40927,-3.26802 0.0305,-0.81727 0.0274,-1.63539 0.0258,-2.45309 0.0547,-0.81259 -0.12284,-1.60559 -0.24288,-2.40345 -0.18716,-0.63957 -0.37134,-1.27058 -0.45217,-1.93323 -0.16877,-0.71868 -0.3115,-1.43851 -0.38343,-2.1735 -0.008,-0.11652 -0.0163,-0.2328 -0.0243,-0.34933 -0.0295,-0.41992 -0.40685,-0.63074 -0.81649,-0.65473 z m -15.3541,0.0816 c -0.85446,0.005 -1.70926,0.0154 -2.56212,0.0729 -1.03561,0.0752 -2.06685,0.19068 -3.09852,0.30697 -0.96217,0 -0.96217,1.88981 0,1.88981 1.07905,-0.0995 2.15383,-0.23413 3.23495,-0.31213 0.81113,-0.0541 1.62445,-0.0627 2.43706,-0.0677 0.62837,-0.003 1.25678,0 1.88515,0 0.96203,0 0.96424,-1.88981 0.002,-1.88981 -0.63279,5e-5 -1.2658,-0.003 -1.89859,0 z m 22.90506,0.014 c -0.48112,0 -0.96268,0.0312 -1.44642,0.0765 -1.40187,0.12636 -2.79821,0.31546 -4.17752,0.59946 -0.93926,0.20873 -0.52895,2.05357 0.41031,1.84484 0.64966,-0.13264 1.30296,-0.24392 1.95905,-0.33642 0.004,0.0268 0.005,0.0526 0.0124,0.0801 0.30315,1.05161 0.44591,2.13741 0.54829,3.22408 0.0724,0.85143 0.0818,1.70616 0.0858,2.56005 -0.0565,0.8142 0.11629,1.60973 0.23461,2.40967 0.1436,0.67238 7.9e-4,1.33318 -0.0863,2.00194 -0.13218,0.74568 -0.0626,1.51374 -0.1819,2.25827 -0.0516,0.52123 -0.21931,1.0096 -0.36897,1.50688 -0.27591,0.92176 1.53431,1.46389 1.81022,0.54208 0.17498,-0.58872 0.36341,-1.17181 0.42995,-1.78644 0.0976,-0.75612 0.0811,-1.5204 0.185,-2.27687 0.10911,-0.83936 0.2555,-1.67944 0.0816,-2.52283 -0.10593,-0.71231 -0.27027,-1.41621 -0.21394,-2.14148 -0.004,-0.91049 -0.016,-1.82184 -0.0946,-2.72955 -0.10738,-1.12551 -0.25799,-2.24909 -0.55242,-3.34243 0.0291,-0.003 0.0582,-0.006 0.0873,-0.009 0.81434,-0.0695 1.62225,-0.11872 2.43034,0.01 0.65026,0.12184 1.30702,0.19166 1.96629,0.23926 0.95972,0.0685 1.0946,-1.81665 0.13487,-1.88515 -0.60747,-0.0428 -1.21282,-0.10867 -1.81177,-0.2217 -0.48075,-0.0731 -0.96116,-0.10199 -1.44229,-0.10128 z m -54.69227,0.98547 c -0.44004,0.0225 -0.87688,0.12428 -1.30173,0.33486 -1.04454,0.56298 -1.93971,1.32064 -2.81275,2.11976 -0.21912,0.21913 -0.22676,0.50612 -0.11678,0.77205 -0.002,0.0206 -0.008,0.0393 -0.008,0.061 -0.004,1.10305 0.18341,2.19541 0.27751,3.29282 0.096,1.14451 0.0602,2.29362 0.14779,3.43802 0.12752,1.11324 0.23164,2.22867 0.29094,3.34762 0.015,0.9049 0.2126,1.79183 0.46044,2.65771 0.18507,0.62238 0.20401,1.26717 0.46095,1.86449 0.58458,-0.21931 1.16932,-0.43852 1.7539,-0.65786 0.0125,-0.16322 -0.0345,-0.30083 -0.11679,-0.41547 -0.004,-0.0257 -0.009,-0.0514 -0.0129,-0.077 -0.0703,-0.41571 -0.1474,-0.8305 -0.26872,-1.23507 -0.20924,-0.72906 -0.38364,-1.47402 -0.38964,-2.23706 -0.048,-0.89828 -0.12795,-1.79427 -0.22169,-2.68872 1.00045,-0.23855 1.89697,-0.67035 2.65513,-1.38237 0.84468,-0.70405 1.6268,-1.47854 2.29599,-2.35436 0.67323,-0.96838 1.12411,-1.9879 0.90382,-3.19567 -0.20844,-1.30659 -0.5958,-2.53026 -1.81539,-3.23083 -0.70727,-0.26844 -1.4489,-0.4514 -2.1823,-0.41391 z m -9.24801,1.12189 c -0.032,0.003 -0.0638,0.005 -0.0956,0.0114 -1.05,0.20484 -1.21832,1.27011 -1.42317,2.1203 -0.12518,0.67873 -0.35742,1.3118 -0.68833,1.91926 -0.21775,0.34941 -0.4637,0.67836 -0.78497,0.93842 -0.34518,0.28395 -0.87866,-0.96292 -1.00407,-1.10585 -0.46689,-0.71157 -0.88557,-1.45976 -1.22473,-2.24071 -0.053,-0.10919 -0.10786,-0.21706 -0.15916,-0.3271 -0.0577,-0.12382 -0.0311,-0.36613 -0.16744,-0.37415 -2.18251,-0.12776 -1.92364,-0.14322 -1.87223,1.0387 0.0535,0.7728 0.14623,1.54041 0.29197,2.30167 0.1059,0.73281 -0.005,1.48471 0.0439,2.2226 0.0221,1.11954 0.0765,2.23838 0.19586,3.35225 0.16436,1.53445 0.39775,3.06038 0.51986,4.5992 h -5.3e-4 c 0.11935,0.95472 1.99468,0.72014 1.87534,-0.23461 -0.12036,-1.5277 -0.35291,-3.04226 -0.51573,-4.5656 -0.11334,-1.05936 -0.16482,-2.1237 -0.18552,-3.18844 -0.007,-0.31094 -0.004,-0.62156 -0.003,-0.93223 0.3398,0.51731 0.74416,0.99187 1.35134,1.20354 0.19646,0.0685 0.4075,0.0833 0.61134,0.12504 1.22597,-0.018 1.98284,-0.83357 2.61379,-1.78541 0.46758,-0.81092 0.77842,-1.67561 0.95808,-2.59106 0.0158,-0.0415 0.025,-0.0862 0.0367,-0.1297 0.0191,0.0397 0.0184,0.0346 0.0455,0.092 0.18268,0.38748 0.30821,0.81383 0.43304,1.22216 0.24448,0.98946 0.4209,1.99459 0.66611,2.98379 0.26175,0.80854 0.32941,1.65565 0.48835,2.48462 0.17838,0.70892 0.27182,1.43163 0.32142,2.15955 0.039,0.73271 0.038,1.46691 0.0388,2.20038 -0.0103,0.5337 -0.01,1.06045 0.0517,1.5906 0.12799,0.95361 2.00126,0.70247 1.87327,-0.25114 -0.078,-0.44236 -0.0161,-0.89477 -0.0351,-1.34205 -0.001,-0.77629 -5.3e-4,-1.55318 -0.0434,-2.32854 -0.0567,-0.80717 -0.1573,-1.60952 -0.35295,-2.39623 -0.17785,-0.85627 -0.22708,-1.74093 -0.5085,-2.57712 -0.25997,-1.02161 -0.42557,-2.06595 -0.69504,-3.0856 -0.37732,-1.19586 -0.80141,-2.38088 -1.98025,-3.00085 -0.22524,-0.0283 -0.45252,-0.11993 -0.67644,-0.10903 z m -28.41119,0.20619 c -0.42443,-0.005 -0.84916,0.0629 -1.27951,0.2 -0.7857,0.40724 -1.48797,0.9608 -2.21485,1.46552 -0.61946,0.48228 -1.09533,1.10239 -1.60197,1.69397 -0.65229,0.772 -1.12596,1.60555 -1.31981,2.59882 -0.0534,1.16924 0.65877,2.06306 1.29862,2.96518 0.61209,0.8014 1.27703,1.56324 1.95183,2.31201 0.44052,0.58616 0.96954,1.06812 1.53478,1.52651 0.66325,0.53266 1.47343,0.67543 2.29547,0.74983 0.96183,0.11219 1.8866,-0.0293 2.79415,-0.34417 0.46091,-0.20097 0.86929,-0.4931 1.29966,-0.74776 0.8265,-0.4926 -0.14088,-2.11577 -0.96738,-1.62314 -0.32126,0.19254 -0.6346,0.39579 -0.95654,0.58703 -0.65528,0.23201 -1.30964,0.33655 -2.00866,0.24495 -0.44297,-0.0349 -0.90438,-0.0612 -1.27175,-0.33901 -0.49058,-0.39251 -0.94036,-0.81203 -1.31879,-1.32292 -0.6284,-0.69013 -1.23837,-1.4016 -1.81229,-2.13783 -0.35421,-0.498 -0.76976,-0.9942 -0.97203,-1.57615 0.0273,-0.64577 0.5418,-1.15977 0.88831,-1.66396 0.40332,-0.47133 0.77713,-0.96835 1.24902,-1.37459 0.58465,-0.41225 1.17559,-0.81555 1.757,-1.23095 0.42358,-0.19137 0.85525,-0.10179 1.2883,0.0305 0.86162,0.30842 1.62957,0.76102 2.31975,1.36837 0.80057,0.53372 1.84909,-1.03881 1.04852,-1.5725 -0.80112,-0.70805 -1.72615,-1.20706 -2.72387,-1.57252 -0.42946,-0.15412 -0.85353,-0.23212 -1.27796,-0.2372 z m 14.34848,0.0196 c -0.57882,-0.003 -1.15165,0.11967 -1.72702,0.29096 -0.51593,0.14668 -0.248,0.0573 -0.80047,0.27646 -0.5432,0.22368 -0.4851,0.96057 -0.15607,1.41851 -0.9432,0.64709 -1.80654,1.40298 -2.65306,2.17041 -0.87139,0.77917 -1.35734,1.75651 -1.58699,2.88406 -0.0921,0.86363 0.14453,1.65468 0.53279,2.41329 0.4457,0.71186 0.90201,1.41766 1.40714,2.08875 0.57562,0.76743 1.33811,1.32729 2.13166,1.84642 0.89086,0.57862 1.89302,0.79632 2.94039,0.80873 0.9927,-0.0312 1.92013,-0.36296 2.75694,-0.88006 0.62611,-0.48739 1.0464,-1.13863 1.45004,-1.80763 0.54544,-0.7294 0.85295,-1.56184 1.03611,-2.4448 0.13478,-0.81042 0.13811,-1.63388 0.14211,-2.45309 -0.0415,-0.86484 -0.29965,-1.68687 -0.51883,-2.51663 -0.25857,-1.00338 -0.89226,-1.7857 -1.56166,-2.54405 -0.64234,-0.68459 -1.45794,-1.11533 -2.34301,-1.39319 -0.35324,-0.10922 -0.70278,-0.15627 -1.05007,-0.15814 z m 49.37942,0.0775 c -0.41031,-0.006 -0.80192,0.17809 -0.86145,0.59481 -0.15254,1.07815 -0.24047,2.16352 -0.29817,3.25043 -0.0403,0.84841 -0.0445,1.69794 -0.0465,2.54715 -0.0578,0.81531 0.11931,1.6112 0.23978,2.41173 0.0652,0.89056 0.39777,1.66018 0.95343,2.34767 0.69148,0.73962 1.61591,0.98875 2.58433,1.11464 0.93135,0.14083 1.80209,0.0285 2.68873,-0.26612 0.65274,-0.20767 1.24062,-0.54973 1.91254,-0.69816 0.57871,-0.21381 0.28053,-0.0579 0.86403,-0.52038 0.65706,-0.70006 -0.71342,-1.98856 -1.37356,-1.29707 -0.69564,0.17786 -1.33231,0.47652 -2.00349,0.72398 -0.61862,0.20942 -1.19619,0.29522 -1.85467,0.18294 -0.48369,-0.0568 -0.98697,-0.1188 -1.36787,-0.45165 -0.35894,-0.40132 -0.49814,-0.87937 -0.53434,-1.41801 -0.10696,-0.70678 -0.27531,-1.4048 -0.21911,-2.12494 5.3e-4,-0.19291 0.003,-0.38585 0.004,-0.57878 0.0802,0.0222 0.16532,0.0331 0.25942,0.0196 1.03118,-0.0906 2.04355,-0.26003 3.05562,-0.47181 0.94177,-0.19708 0.55472,-2.0471 -0.38705,-1.85002 -0.95723,0.20035 -1.91356,0.35846 -2.88871,0.44546 2.5e-4,-0.006 2.5e-4,-0.0111 5.2e-4,-0.0164 0.0543,-1.03089 0.13782,-2.06036 0.28216,-3.08303 0.0765,-0.53578 -0.48223,-0.85495 -1.00976,-0.86196 z m -25.78086,0.44442 c 0.40638,0.003 0.82278,0.12195 1.17719,0.293 0.47819,0.46336 0.57207,1.14064 0.66508,1.77043 0.14376,0.72456 -0.17114,1.25204 -0.57981,1.81695 -0.57619,0.73911 -1.24178,1.39438 -1.96113,1.99162 -0.46251,0.44284 -0.98151,0.74417 -1.57561,0.9188 -0.0186,-0.7478 -0.0218,-1.49659 -0.0925,-2.24224 -0.0867,-1.00185 -0.25055,-1.9998 -0.26717,-3.00551 0.60192,-0.52684 1.21249,-1.03828 1.92857,-1.40766 0.22134,-0.0967 0.46155,-0.1369 0.70538,-0.13539 z m -8.89713,0.8015 c 0.0105,0.003 0.019,0.009 0.0145,0.0146 -0.0348,0.0402 -0.0711,0.0795 -0.108,0.11833 0.0189,-0.0447 0.0402,-0.0882 0.0667,-0.1297 0.004,-0.006 0.0164,-0.006 0.0269,-0.003 z m -14.84199,0.55965 c 0.20962,-0.008 0.42242,0.0145 0.64286,0.0837 0.55296,0.15748 1.06559,0.42371 1.47381,0.83561 0.47372,0.5366 0.96391,1.0627 1.15187,1.77665 0.17793,0.66979 0.39118,1.32919 0.45578,2.02364 -0.003,0.69755 -0.002,1.39872 -0.1049,2.09031 -0.12939,0.67668 -0.37889,1.28831 -0.8015,1.84071 -0.25544,0.42339 -0.50418,0.84698 -0.85783,1.19631 -0.50452,0.36063 -1.13139,0.53155 -1.74356,0.57775 -0.67268,0.0287 -1.32026,-0.14608 -1.89395,-0.50075 -0.61369,-0.40103 -1.2161,-0.81323 -1.66191,-1.4087 -0.4498,-0.58205 -0.83415,-1.21189 -1.2392,-1.8252 -0.20583,-0.3711 -0.33403,-0.74361 -0.34933,-1.17255 0.13083,-0.7325 0.43316,-1.34107 1.00149,-1.84433 0.8544,-0.77539 1.72583,-1.53927 2.6913,-2.17557 0.44519,-0.25439 0.3845,-0.83767 0.10646,-1.25627 0.039,-0.0106 0.0282,-0.007 0.0842,-0.0233 0.35392,-0.10681 0.69501,-0.20473 1.04438,-0.21809 z m 46.07988,0.9648 c -0.52749,0.0103 -1.08437,0.33234 -1.0046,0.86765 0.0556,0.37219 0.11499,0.74369 0.17829,1.11466 0.1102,0.79611 -0.002,1.61108 0.0393,2.41226 0,0.92393 1.4e-4,1.84798 0.004,2.77194 0.002,0.35306 7.9e-4,0.70625 0.002,1.05936 -0.0442,-0.0387 -0.0857,-0.08 -0.13333,-0.11525 -0.62878,-0.51864 -1.31788,-0.9498 -2.00194,-1.39166 -0.67989,-0.52022 -1.3496,-1.0541 -1.97766,-1.63658 -0.61763,-0.57914 -1.14483,-1.23052 -1.50843,-2.00247 -0.13335,-0.27361 -0.26435,-0.54729 -0.39533,-0.82113 -0.0821,-0.41011 -0.20188,-0.80979 -0.40514,-1.18391 -0.58171,0.15121 -1.24513,0.12018 -1.74511,0.45374 -0.15341,0.10231 0.0631,0.69453 0.31729,1.26968 0.1197,0.50226 0.23489,1.03613 0.12195,0.86249 0.12389,0.86288 0.21415,1.71825 0.16175,2.5926 v 3.16671 0 c 0,0.96216 1.88981,0.96216 1.88981,0 v -3.16674 c 10e-4,-0.019 1.5e-4,-0.0378 10e-4,-0.0568 0.0866,0.0877 0.17441,0.17473 0.26406,0.25992 0.67559,0.62722 1.39585,1.2033 2.12752,1.76321 0.65007,0.44575 1.33745,0.83537 1.94149,1.34358 0.64071,0.63402 0.94465,1.10096 1.83348,1.40404 1.12755,0.0539 1.36609,-0.89191 1.39939,-1.78747 0.008,-0.67419 -10e-5,-1.34842 -0.003,-2.02261 -0.003,-0.9213 -0.004,-1.84237 -0.004,-2.76368 -0.0124,-0.8773 0.0384,-1.7558 -0.0517,-2.62929 -0.0629,-0.39182 -0.12825,-0.78312 -0.18655,-1.17563 -0.062,-0.41634 -0.45428,-0.59706 -0.86454,-0.58912 z m -15.00994,1.52964 c -0.15574,-0.0109 -0.31099,0.0323 -0.44959,0.14779 -0.1143,0.1042 -0.2239,0.21291 -0.33589,0.31936 -0.06,-0.003 -0.1199,-0.007 -0.17984,-0.01 -0.49746,-0.0228 -0.75841,0.47193 -0.76326,0.96065 -0.43547,0.47233 -0.84796,0.96517 -1.2299,1.48415 -0.60915,0.85992 -0.84368,1.85076 -0.94257,2.88044 -0.11592,0.92448 0.002,1.78705 0.2992,2.6634 0.25129,0.99732 0.87818,1.70439 1.70791,2.26758 0.89185,0.49396 1.8939,0.62421 2.89388,0.69091 1.21577,0.009 2.15257,-0.56727 2.84324,-1.53014 0.46955,-0.82502 0.53185,-1.76143 0.56275,-2.68769 0.0628,-0.79277 -0.033,-1.56046 -0.19482,-2.3337 -0.2282,-0.82698 -0.5734,-1.61282 -0.99839,-2.35593 -0.56202,-0.87723 -1.35073,-1.43076 -2.3089,-1.77252 -0.16345,-0.37241 -0.53466,-0.69898 -0.90382,-0.72449 z m -0.077,2.42517 c 0.0954,0.0151 0.19043,0.0323 0.28474,0.0548 0.57408,0.16557 1.02388,0.46416 1.36942,0.96427 0.33318,0.56523 0.58703,1.17015 0.78394,1.79578 0.13135,0.62783 0.21846,1.23915 0.15606,1.88566 -0.0176,0.57026 -0.0256,1.15922 -0.2434,1.6955 -0.24049,0.43858 -0.64925,0.67223 -1.15135,0.69713 -0.68167,-0.043 -1.3747,-0.10316 -2.00143,-0.39844 -0.5135,-0.27596 -0.79315,-0.72274 -0.93431,-1.28363 -0.2149,-0.62481 -0.30269,-1.21263 -0.20619,-1.87999 0.0603,-0.68943 0.18359,-1.35686 0.58705,-1.9389 0.41029,-0.56673 0.8704,-1.09079 1.35547,-1.59215 z m 25.38708,2.67734 c 0.014,-0.005 -0.0251,0.0132 -0.11524,0.0584 -0.0232,0.006 -0.0451,0.0138 -0.0682,0.0196 0.10088,-0.0428 0.17072,-0.0731 0.18345,-0.078 z"
       id="path1409" />
    <rect
       style="fill:#ffffff;fill-opacity:0.00392157;stroke:none;stroke-width:0.25623;stroke-miterlimit:4;stroke-dasharray:none;stroke-opacity:1"
       id="rect6090"
       width="308.52701"
       height="177.04065"
       x="-518.01575"
       y="-6.4197845" />
  </g>
</svg>
