<?xml version="1.0" encoding="UTF-8" standalone="no"?>
<svg
   xmlns:dc="http://purl.org/dc/elements/1.1/"
   xmlns:cc="http://creativecommons.org/ns#"
   xmlns:rdf="http://www.w3.org/1999/02/22-rdf-syntax-ns#"
   xmlns:svg="http://www.w3.org/2000/svg"
   xmlns="http://www.w3.org/2000/svg"
   id="svg1411"
   version="1.1"
   viewBox="0 0 110.59261 49.177589"
   height="49.177589mm"
   width="110.59261mm">
  <defs
     id="defs1405" />
  <metadata
     id="metadata1408">
    <rdf:RDF>
      <cc:Work
         rdf:about="">
        <dc:format>image/svg+xml</dc:format>
        <dc:type
           rdf:resource="http://purl.org/dc/dcmitype/StillImage" />
        <dc:title></dc:title>
      </cc:Work>
    </rdf:RDF>
  </metadata>
  <g
     transform="translate(477.93674,-10.129329)"
     id="layer1">
    <g
       id="g2310">
      <rect
         style="fill:#ffffff;fill-opacity:0.00392157;stroke:none;stroke-width:3.08243275;stroke-linecap:butt;stroke-miterlimit:4;stroke-dasharray:none;stroke-opacity:1;paint-order:markers stroke fill"
         id="rect2139"
         width="110.59261"
         height="49.177589"
         x="-477.93674"
         y="10.129329" />
      <path
         style="fill:#e7e7e7;fill-opacity:1;stroke:none;stroke-width:1.76127732;stroke-linecap:butt;stroke-miterlimit:4;stroke-dasharray:none;stroke-opacity:1;paint-order:markers stroke fill"
         d="m -390.2968,43.420369 c -0.44807,-0.348295 -0.59516,-0.376874 -2.16706,-0.421094 -0.92748,-0.02608 -2.08632,0.02223 -2.57518,0.107343 -1.19502,0.208106 -1.81009,0.0036 -2.42756,-0.807223 -0.65572,-0.861015 -1.03839,-2.215918 -1.12503,-3.983334 -0.0779,-1.588896 -0.0486,-1.742197 0.93108,-4.871866 0.2431,-0.776674 0.54089,-1.983907 0.66176,-2.682738 0.25778,-1.490618 0.54229,-2.390692 0.92731,-2.933717 0.30008,-0.423236 2.67435,-2.362638 3.40612,-2.782285 0.24676,-0.141502 0.82884,-0.365111 1.29351,-0.496909 0.46468,-0.131798 1.25899,-0.434065 1.76516,-0.671705 0.91856,-0.431254 0.92574,-0.432158 3.79301,-0.477586 2.4082,-0.03815 2.94264,-0.0093 3.3054,0.178255 0.88225,0.456227 1.87042,1.592496 3.42038,3.932981 0.87539,1.321852 1.84391,2.689323 2.1523,3.038825 0.97464,1.104629 1.90489,2.551022 2.39951,3.73081 0.55113,1.314608 0.81349,3.256725 0.81654,6.044527 0.003,2.382763 0.16666,2.272775 -3.56733,2.391391 -1.60967,0.05113 -3.08123,0.09855 -3.27009,0.105368 -0.18886,0.0068 0.35516,1.53526 0.16839,1.958459 2.4673,10.681785 -14.15236,5.920706 -9.2863,-1.094961 -0.0777,0.06001 -0.35751,-0.05903 -0.62192,-0.264541 z"
         id="path2210" />
      <g
         id="g2106"
         transform="translate(-1.5328557,0.26726583)">
        <g
           transform="translate(0.80180859,-53.186636)"
           id="g2086">
          <path
             style="fill:#000000;fill-opacity:1;stroke:none;stroke-width:3.29999995;stroke-linecap:butt;stroke-miterlimit:4;stroke-dasharray:none;stroke-opacity:1;paint-order:markers stroke fill"
             id="path2082"
             d="m -475.33885,76.19189 c 0.10797,1.256707 0.1701,2.516456 0.21833,3.776657 0.037,1.068974 0.0459,2.138653 0.05,3.208176 0.003,0.625692 0,1.251389 -2.6e-4,1.877081 v 2.229408 c 0.0484,0.776153 -0.0771,1.540664 -0.16544,2.308233 -0.0668,0.603964 -0.0873,1.211416 -0.0984,1.81851 -0.007,0.612199 -0.006,1.22445 -0.005,1.836674 0.0374,0.59481 -0.0312,1.176256 -0.12888,1.761207 -0.0865,0.500243 -0.11258,1.007377 -0.12846,1.513877 0.0349,0.522558 -0.0926,1.026266 -0.18124,1.53592 -0.0719,0.462632 -0.0823,0.93155 -0.0914,1.398725 0.0985,0.140721 0.097,0.0114 0.10936,0.0016 0.0654,-0.05159 0.16642,-0.007 0.24971,-0.0079 0.65347,-0.142428 1.31469,-0.232032 1.98014,-0.293164 0.89509,-0.06534 1.79324,-0.06678 2.69021,-0.07148 0.69852,0.0077 1.39821,-0.02923 2.09428,0.03569 0.83444,0.119573 1.6764,0.166857 2.51783,0.203507 0.74012,0.07271 1.46957,-0.019 2.20501,-0.08694 1.17909,-0.09309 2.36217,-0.120398 3.54438,-0.141332 0.88879,-0.0136 1.77771,-0.01148 2.66655,-0.01125 0.82299,-0.0504 1.64121,-0.153887 2.46335,-0.215511 0.91022,-0.05112 1.82232,-0.04854 2.73362,-0.05114 1.1102,-0.0013 2.21838,0.0296 3.32473,-0.07302 0.68972,-0.08019 1.38068,-0.143854 2.07434,-0.175225 0.54543,-0.02003 1.09132,-0.01955 1.63703,-0.01982 0.75141,0.107659 1.50455,0.17992 2.26263,0.221332 0.76401,0.0533 1.53226,0.009 2.29413,0.08477 0.76652,0.121489 1.54106,0.167693 2.31547,0.201734 0.64368,0.02537 1.28789,0.02901 1.93196,0.0304 0.53901,2.57e-4 1.07802,-7.93e-4 1.61705,-0.0013 0.74364,-5.29e-4 1.48731,-5.29e-4 2.23095,-5.29e-4 0.61528,0.05005 1.22171,0.165595 1.83652,0.221623 0.36502,-0.09226 0.25342,0.03059 0.108,-0.03218 0.0306,-0.220348 0.023,-0.4444 0.0212,-0.666314 0.01,-0.378896 -0.004,-0.747043 -0.074,-1.118828 -0.11332,-0.5471 -0.15872,-1.103704 -0.18571,-1.660675 -0.10647,-0.446067 -0.18685,-0.895247 -0.23514,-1.351254 -0.0465,-0.538819 -0.0487,-1.080087 -0.0516,-1.620507 -0.0153,-0.577231 -0.008,-1.146548 0.0858,-1.716878 0.099,-0.503833 0.14214,-1.014881 0.1664,-1.526937 0.019,-0.523737 0.0183,-1.047933 0.0185,-1.57194 0.0601,-0.557448 0.16862,-1.106726 0.22021,-1.665433 0.0402,-0.514101 0.0432,-1.030078 0.0463,-1.545439 -0.0453,-0.528354 0.0812,-1.03817 0.17063,-1.553554 0.0721,-0.462841 0.0829,-0.931971 0.0921,-1.399384 0.0699,-0.550495 0.17571,-1.093996 0.22651,-1.647084 0.0521,-1.424055 0.1543,-2.653956 -0.12094,-3.54653 -0.28522,-0.900868 0.9888,-1.304228 1.27399,-0.40336 v 0 c 0.48054,1.285758 0.27367,2.826589 0.17761,4.073522 -0.0489,0.52052 -0.12996,1.035526 -0.22103,1.550188 -0.0109,0.535438 -0.0259,1.072637 -0.11176,1.602386 -0.0779,0.443931 -0.19625,0.875837 -0.15079,1.331698 -0.003,0.554196 -0.007,1.109049 -0.052,1.661792 -0.0488,0.517366 -0.12996,1.029245 -0.21444,1.541783 -2.4e-4,0.545158 0,1.09052 -0.0199,1.635381 -0.0273,0.563902 -0.0752,1.1268 -0.18293,1.681859 -0.0836,0.494903 -0.0774,0.989269 -0.0678,1.490903 0.003,0.496554 0.004,0.993876 0.0444,1.489112 0.0491,0.48161 0.16144,0.948944 0.24079,1.425734 0.0236,0.496951 0.0627,0.993648 0.16497,1.481616 0.082,0.448686 0.10866,0.895056 0.0962,1.35096 0.003,0.370319 0.0122,0.746239 -0.0918,1.105731 -0.28673,0.713179 -0.73856,0.951599 -1.49614,0.934359 -0.57409,-0.0532 -1.14189,-0.14767 -1.71405,-0.216 -0.74329,5e-5 -1.48656,1e-4 -2.22983,5.2e-4 -0.54038,5.3e-4 -1.0808,0.002 -1.62118,0.001 -0.66276,-0.001 -1.32562,-0.005 -1.98795,-0.0317 -0.80258,-0.0355 -1.60554,-0.083 -2.40006,-0.20816 -0.73559,-0.0892 -1.48566,-0.008 -2.22393,-0.0791 -0.73266,-0.0404 -1.46497,-0.0929 -2.18874,-0.219318 -0.52594,2.35e-4 -1.05201,-2.65e-4 -1.57768,0.01847 -0.67284,0.02999 -1.34284,0.0938 -2.01189,0.170958 -1.14602,0.10461 -2.29338,0.0806 -3.44332,0.0786 -0.87937,0.002 -1.75945,-1.7e-4 -2.63781,0.0474 -0.85537,0.0638 -1.70643,0.17608 -2.56334,0.21923 -0.88085,-2.5e-4 -1.76178,-0.002 -2.64255,0.011 -1.14911,0.0203 -2.2991,0.0465 -3.44525,0.13589 -0.79507,0.0732 -1.58628,0.16554 -2.38609,0.0913 -0.8672,-0.038 -1.73508,-0.0865 -2.59519,-0.20913 -0.6463,-0.0747 -1.30236,-0.006 -1.95162,-0.0288 -0.85876,0.004 -1.71865,0.005 -2.57572,0.066 -0.71369,0.0647 -1.41457,0.19348 -2.12238,0.29853 -0.93999,-0.0274 -1.53363,-0.36281 -1.67439,-1.356208 0.0106,-0.53562 0.0254,-1.073033 0.11112,-1.602973 0.0791,-0.449066 0.19881,-0.886544 0.1619,-1.347753 0.018,-0.566044 0.0494,-1.132599 0.14603,-1.691603 0.0856,-0.512807 0.14978,-1.017378 0.11062,-1.539843 0,-0.620882 -0.003,-1.241795 0.005,-1.862645 0.0122,-0.650087 0.035,-1.300507 0.10702,-1.947175 0.083,-0.716994 0.20529,-1.429782 0.15661,-2.155071 8e-5,-0.743516 1.6e-4,-1.487032 0,-2.230548 0,-0.62352 0.003,-1.247042 0,-1.870562 -0.004,-1.054232 -0.0127,-2.108618 -0.0491,-3.162313 -0.0488,-1.277309 -0.11655,-2.553536 -0.21934,-3.827753 0,-0.944941 1.33636,-0.944941 1.33636,0 z" />
          <path
             style="fill:#000000;fill-opacity:1;stroke:none;stroke-width:3.29999995;stroke-linecap:butt;stroke-miterlimit:4;stroke-dasharray:none;stroke-opacity:1;paint-order:markers stroke fill"
             id="path2084"
             d="m -475.96553,75.500379 c 2.52466,-0.284785 4.83346,-0.412198 7.39445,-0.459896 0.71914,-9.79e-4 1.44016,-0.09644 2.14707,-0.225562 1.20216,-0.214562 2.4261,-0.249199 3.64374,-0.286231 0.98105,-0.02601 1.96244,-0.03248 2.94375,-0.03344 0.9362,-0.03065 1.86759,0.06131 2.80043,0.124794 1.29905,0.132012 2.59773,0.267134 3.90051,0.356938 0.67713,0.06051 1.35906,0.0216 2.03431,0.0953 0.80875,0.1026 1.60202,0.293582 2.40167,0.447903 1.11411,0.178318 2.22544,0.368902 3.3473,0.493003 1.006,0.09022 2.01708,0.08734 3.02617,0.09197 0.85164,0.0023 1.70328,-1.06e-4 2.5549,-0.0018 0.56001,-0.0011 1.12006,-0.0014 1.68007,-0.0016 0.5088,-0.0856 1.01704,-0.166951 1.53086,-0.215948 0.60603,-0.04885 1.21454,-0.04932 1.82213,-0.05248 0.5702,-0.0016 1.14038,-3.44e-4 1.71056,2.91e-4 0.53602,5.55e-4 1.07204,7.14e-4 1.60803,7.93e-4 0.35597,4.5e-5 0.71197,4.6e-5 1.06794,4.8e-5 0.94493,7e-6 0.94493,1.336354 -3e-5,1.336348 v 0 c -0.35602,-2e-6 -0.71207,-4e-6 -1.06812,-4.8e-5 -0.53642,-8.7e-5 -1.07284,-2.26e-4 -1.60925,-7.94e-4 -0.5674,-6.08e-4 -1.1348,-0.0019 -1.70222,-2.91e-4 -0.56796,0.0029 -1.13679,0.0027 -1.70342,0.04658 -0.55568,0.05187 -1.10167,0.161443 -1.65605,0.221865 -0.55931,1.72e-4 -1.11861,5.03e-4 -1.67791,0.0016 -0.85455,0.0017 -1.7091,0.0041 -2.56365,0.0017 -1.05622,-0.0049 -2.11455,-0.0028 -3.16733,-0.100104 -1.15745,-0.128677 -2.30439,-0.323648 -3.45374,-0.509175 -0.76851,-0.148952 -1.53093,-0.332181 -2.30785,-0.433195 -0.6485,-0.09084 -1.3153,-0.0068 -1.96639,-0.08887 -1.30233,-0.09002 -2.6008,-0.223164 -3.89927,-0.356854 -0.90231,-0.06147 -1.80274,-0.152605 -2.70833,-0.121708 -0.96827,9.53e-4 -1.93659,0.0073 -2.90454,0.03283 -1.15221,0.03485 -2.31079,0.0645 -3.4486,0.265901 -0.77775,0.137143 -1.56779,0.246862 -2.35861,0.246289 -2.58432,-0.02693 -5.48317,0.306272 -7.41858,0.460113 -0.94496,0 -0.94496,-1.336348 0,-1.336348 z" />
        </g>
        <path
           d="m -443.77484,30.398646 c 0.63312,0.006 1.26635,-0.02358 1.89717,0.03548 0.55777,0.09053 1.11654,0.165537 1.68042,0.20324 0.60995,0.0049 1.18687,0.0163 1.76594,0.225803 0.6433,0.304612 0.90934,0.888762 1.01856,1.553623 0,0.474477 -0.13576,0.931474 -0.18862,1.401546 -0.11753,0.510299 -0.22249,1.020064 -0.27509,1.541399 -0.12803,0.555773 -0.19531,1.123156 -0.31284,1.680358 -0.13504,0.494675 -0.20328,1.000839 -0.24008,1.511048 -0.0366,0.538364 -0.003,1.077799 -0.0671,1.613641 -0.0183,0.08337 -0.0365,0.166741 -0.0548,0.250111 -0.21185,0.920882 -1.51418,0.621263 -1.30231,-0.299622 v 0 c 0.0111,-0.04407 0.022,-0.08815 0.0332,-0.132218 0.0887,-0.500782 -0.01,-1.024673 0.0583,-1.529704 0.0426,-0.572868 0.11758,-1.142204 0.26723,-1.698194 0.11599,-0.50578 0.15552,-1.028509 0.28908,-1.531803 0.0547,-0.5257 0.14301,-1.045307 0.27681,-1.557125 0.0404,-0.347234 0.0733,-0.723358 0.19481,-1.0506 -0.0209,-0.170212 -0.0363,-0.384971 -0.17021,-0.502669 -0.0908,-0.03741 -0.17549,-0.09879 -0.27294,-0.11122 -0.36465,-0.04649 -0.7447,0.0236 -1.11003,-0.03107 -0.57925,-0.03954 -1.15446,-0.110778 -1.72707,-0.207216 -0.58309,-0.0685 -1.17438,-0.0087 -1.76038,-0.02846 -0.94493,0 -0.94493,-1.336347 0,-1.336347 z"
           id="path2088"
           style="fill:#000000;fill-opacity:1;stroke:none;stroke-width:3.29999995;stroke-linecap:butt;stroke-miterlimit:4;stroke-dasharray:none;stroke-opacity:1;paint-order:markers stroke fill" />
        <path
           d="m -441.10212,34.407689 c 0.58465,0.03681 1.15641,-0.03072 1.7331,-0.114154 0.58893,-0.09066 1.18372,-0.125275 1.7786,-0.143963 0.27406,-0.0072 0.5482,-0.0086 0.82233,-0.01027 0.94493,-0.0056 0.95287,1.330709 0.008,1.336326 v 0 c -0.26292,0.0016 -0.52584,0.0029 -0.7887,0.0096 -0.54478,0.0168 -1.08955,0.04745 -1.62888,0.130847 -0.63944,0.09246 -1.27675,0.163327 -1.92439,0.127915 -0.94496,0 -0.94496,-1.336347 0,-1.336347 z"
           id="path2090"
           style="fill:#000000;fill-opacity:1;stroke:none;stroke-width:3.29999995;stroke-linecap:butt;stroke-miterlimit:4;stroke-dasharray:none;stroke-opacity:1;paint-order:markers stroke fill" />
        <path
           d="m -429.4785,33.918093 c 1.02531,0.153446 2.06647,0.166262 3.10107,0.192472 1.12626,0.03327 2.25288,-0.01783 3.37352,0.112273 0.58925,0.08619 1.18144,0.141877 1.77615,0.168844 0.55877,0.02209 1.11702,-5.29e-4 1.67373,0.05372 0.72247,0.06536 1.41658,0.264321 2.1105,0.462748 0.63354,0.164177 1.24769,0.384469 1.89624,0.484246 0.57883,0.07445 1.16316,0.08248 1.74588,0.08783 0.54155,0.0021 1.08307,-5.3e-4 1.62462,-0.0019 0.53435,-0.0013 1.06871,-0.0013 1.60306,-0.0016 0.53443,-1.11e-4 1.06884,-8.5e-5 1.60327,-7.4e-5 0.94493,1.6e-5 0.9449,1.336365 -3e-5,1.336347 v 0 c -0.53427,-8e-6 -1.06855,-3.5e-5 -1.60285,7.4e-5 -0.53342,1.64e-4 -1.06685,5.29e-4 -1.60027,0.0016 -0.54674,0.0013 -1.09347,0.004 -1.64021,0.0019 -0.64873,-0.0061 -1.29924,-0.01707 -1.94315,-0.104325 -0.7011,-0.114096 -1.37049,-0.332502 -2.0542,-0.519263 -0.62045,-0.17767 -1.23931,-0.361625 -1.8859,-0.418854 -0.5271,-0.06529 -1.06206,-0.0097 -1.59181,-0.04744 -0.62622,-0.02893 -1.25008,-0.08583 -1.87058,-0.17653 -1.07958,-0.127892 -2.16686,-0.06414 -3.25189,-0.103619 -1.11101,-0.02829 -2.22948,-0.04302 -3.32925,-0.21799 -0.92657,-0.185317 -0.6645,-1.495714 0.2621,-1.310397 z"
           id="path2092"
           style="fill:#000000;fill-opacity:1;stroke:none;stroke-width:3.29999995;stroke-linecap:butt;stroke-miterlimit:4;stroke-dasharray:none;stroke-opacity:1;paint-order:markers stroke fill" />
        <path
           d="m -411.35872,34.064278 c 0.58097,0.367983 1.17408,0.715164 1.75958,1.075815 0.46358,0.255063 0.94676,0.47072 1.41841,0.709729 0.10686,0.106989 0.24614,0.189338 0.32059,0.320971 0.42087,0.744347 -0.30673,1.367467 -0.81423,1.792245 -0.45487,0.347954 -0.94083,0.657262 -1.42854,0.9574 -0.80563,0.493842 -1.50402,-0.645483 -0.69842,-1.139325 v 0 c 0.43657,-0.26635 0.86934,-0.544642 1.27873,-0.850717 0.27962,-0.222986 0.10613,-0.07332 0.36539,-0.326147 0.0279,-0.02722 0.0627,-0.111479 0.0855,-0.07985 0.0741,0.102894 -0.0712,0.40458 0.28464,0.516298 -0.50284,-0.257522 -1.02198,-0.482992 -1.51342,-0.763098 -0.5806,-0.358283 -1.16943,-0.702173 -1.74577,-1.067417 -0.81026,-0.486166 -0.12271,-1.632074 0.68755,-1.145908 z"
           id="path2094"
           style="fill:#000000;fill-opacity:1;stroke:none;stroke-width:3.29999995;stroke-linecap:butt;stroke-miterlimit:4;stroke-dasharray:none;stroke-opacity:1;paint-order:markers stroke fill" />
        <path
           style="fill:#000000;fill-opacity:1;stroke:none;stroke-width:3.29999995;stroke-linecap:butt;stroke-miterlimit:4;stroke-dasharray:none;stroke-opacity:1;paint-order:markers stroke fill"
           id="path2118"
           d="m -463.07066,31.734992 c -0.50469,0 -1.00936,0 -1.51405,0 -0.36566,0.07887 -0.72681,0.161928 -1.08548,0.267669 -0.44559,0.171384 -0.84527,0.4353 -1.2387,0.701794 -0.24934,0.234423 -0.46395,0.530537 -0.57774,0.855623 -0.0907,0.344821 -0.0996,0.702971 -0.10642,1.057283 -0.0411,0.390019 0.0379,0.755824 0.11128,1.135067 0.074,0.330163 0.0923,0.665057 0.19619,0.985057 0.16508,0.281541 0.40929,0.515406 0.62209,0.764657 0.17883,0.332851 0.4309,0.497599 0.748,0.663903 0.39204,0.198236 0.79071,0.351372 1.22182,0.435594 0.40286,0.07673 0.81405,0.08026 1.22262,0.08566 0.34787,0.03988 0.66476,-0.06808 0.99917,-0.145413 0.38015,-0.03504 0.63214,-0.302064 0.94176,-0.496972 0.33795,-0.15285 0.48278,-0.405029 0.65706,-0.701151 0.14798,-0.261001 0.18918,-0.560848 0.21596,-0.85507 0.0257,-0.391051 0.0225,-0.783185 0.022,-1.17485 -0.0345,-0.463003 0.0548,-0.942581 -0.0288,-1.40049 -0.0596,-0.354653 -0.30464,-0.639485 -0.49586,-0.934262 -0.25111,-0.30865 -0.59962,-0.526346 -0.91316,-0.76843 -0.15367,-0.08114 -0.29239,-0.174876 -0.43415,-0.275902 -0.75369,-0.569949 0.0523,-1.635847 0.80603,-1.065898 v 0 c 0.12782,0.124725 0.3166,0.15607 0.44487,0.284078 0.43341,0.334669 0.90445,0.641488 1.21854,1.100445 0.29789,0.462356 0.6279,0.912579 0.69741,1.476345 0.0627,0.525373 0.0344,1.053862 0.0415,1.582402 0,0.435475 0.004,0.871548 -0.0281,1.306163 -0.0499,0.48958 -0.14335,0.977715 -0.39687,1.407623 -0.28557,0.475234 -0.59235,0.893149 -1.10202,1.154766 -0.43183,0.261419 -0.81484,0.618585 -1.3449,0.663199 -0.43466,0.100489 -0.86662,0.222063 -1.31816,0.179645 -0.49175,-0.0067 -0.98602,-0.01648 -1.47026,-0.112197 -0.55327,-0.115099 -1.07386,-0.304345 -1.57718,-0.561962 -0.45625,-0.239538 -0.87437,-0.524491 -1.14342,-0.979564 -0.3265,-0.382487 -0.69848,-0.742791 -0.87808,-1.223682 -0.11901,-0.373555 -0.16261,-0.755772 -0.23587,-1.139875 -0.0908,-0.469268 -0.17521,-0.934837 -0.13534,-1.41559 0.0106,-0.51158 0.0351,-1.027872 0.19815,-1.51779 0.23437,-0.570336 0.58338,-1.093436 1.07429,-1.475917 0.50726,-0.341604 1.02692,-0.675145 1.60866,-0.876104 0.47932,-0.141269 0.96629,-0.263314 1.46333,-0.322199 0.5047,0 1.00936,0 1.51406,0 0.94493,0 0.94493,1.336346 0,1.336346 z" />
      </g>
      <path
         style="fill:#000000;fill-opacity:1;stroke:none;stroke-width:3.29999995;stroke-linecap:butt;stroke-miterlimit:4;stroke-dasharray:none;stroke-opacity:1;paint-order:markers stroke fill"
         id="path2174"
         d="m -385.9608,24.206501 c -0.46408,-0.100034 -0.93575,-0.158605 -1.40872,-0.194193 -0.5021,-0.03815 -0.98904,0.141537 -1.46939,0.264102 -0.4554,0.223221 -0.91461,0.432338 -1.3847,0.626585 -0.53774,0.196867 -1.09315,0.349343 -1.64814,0.491354 -0.41659,0.162069 -0.78901,0.417725 -1.14017,0.690918 -0.5194,0.411748 -1.03325,0.833182 -1.56406,1.230382 -0.39544,0.295907 -0.75824,0.583904 -1.04388,0.986422 -0.25324,0.389874 -0.42964,0.801267 -0.52541,1.254694 -0.12952,0.454906 -0.25599,0.908611 -0.3107,1.379075 -0.0336,0.449889 -0.17839,0.879498 -0.24205,1.325612 -0.12922,0.467919 -0.24741,0.937684 -0.38721,1.402594 -0.12425,0.545621 -0.36717,1.051734 -0.547,1.578909 -0.11819,0.505243 -0.26845,1.002792 -0.36484,1.513183 -0.0773,0.468017 -0.0912,0.9431 -0.10075,1.416402 0.0977,0.445641 0.16727,0.895411 0.21357,1.349066 0.0154,0.430024 0.15428,0.841084 0.28977,1.245589 0.0859,0.418074 0.33624,0.758751 0.52586,1.131189 0.16479,0.346443 0.47459,0.588873 0.77251,0.818584 0.25326,0.175313 0.5321,0.209733 0.83031,0.233347 0.40444,0.05835 0.78515,-0.06259 1.17888,-0.134869 0.53104,-0.09003 1.07024,-0.106495 1.60758,-0.118176 0.55846,-5.29e-4 1.11776,-0.03304 1.67307,0.03243 0.64254,0.141869 1.11276,0.515868 1.46089,1.060296 0.22136,0.391634 0.25742,0.83666 0.27292,1.276263 0.007,0.40604 0.0127,0.809606 -0.0439,1.211839 -0.0844,0.37274 -0.17918,0.735248 -0.1274,1.114989 0.10501,0.393149 0.0164,0.842661 0.20479,1.209476 0.22016,0.281583 0.48987,0.515287 0.78229,0.722075 0.32689,0.197032 0.70382,0.265705 1.0782,0.302545 0.46527,0.02956 0.93197,0.02244 1.39793,0.02064 0.53202,-0.0028 1.06407,-0.0043 1.5961,-0.0051 0.44582,0.0041 0.87963,-0.125865 1.3203,-0.187994 0.4528,-0.08689 0.86637,-0.290965 1.30357,-0.429168 0.33084,-0.129434 0.66879,-0.221662 0.94274,-0.452686 0.0656,-0.18003 0.0788,-0.383143 0.0914,-0.574297 0.0518,-0.323596 -0.0159,-0.598871 -0.0941,-0.905428 -0.10451,-0.435744 -0.10986,-0.881168 -0.21918,-1.314748 -0.12716,-0.478859 -0.1736,-0.972611 -0.20352,-1.46552 -0.0284,-0.630351 0.0771,-1.047048 0.49689,-1.520452 0.33237,-0.28145 0.73091,-0.353192 1.15133,-0.371636 0.31885,-0.0062 0.63781,-7.94e-4 0.95666,0.0019 0.3326,0.0021 0.66521,0.0028 0.99782,0.0031 0.34121,2.33e-4 0.68244,1.82e-4 1.02367,1.66e-4 0.33208,-2.3e-5 0.66416,-3.4e-5 0.99624,-3.9e-5 0.3026,0.0053 0.44815,0.04514 0.6958,-0.10894 0.25747,-0.109138 0.337,-0.254537 0.46096,-0.41661 0.0954,-0.130178 0.11916,-0.272169 0.13435,-0.428707 0.0272,-0.339574 0.0217,-0.680911 0.0217,-1.021316 0,-0.447182 -0.003,-0.894365 -0.003,-1.341551 0.035,-0.425423 -0.0835,-0.83254 -0.15264,-1.248632 -0.0736,-0.419037 -0.10004,-0.843325 -0.11144,-1.267897 0.0342,-0.405307 -0.0335,-0.783264 -0.11298,-1.176332 -0.14951,-0.371753 -0.34059,-0.723029 -0.48561,-1.097148 -0.0554,-0.355163 -0.21347,-0.645604 -0.37219,-0.959971 -0.22654,-0.305396 -0.44863,-0.61495 -0.65815,-0.932405 -0.23035,-0.400458 -0.49088,-0.769289 -0.8037,-1.108708 -0.42685,-0.438565 -0.79206,-0.932211 -1.14417,-1.431311 -0.42648,-0.498086 -0.74115,-1.068639 -1.08749,-1.621102 -0.4037,-0.521023 -0.75763,-1.07039 -1.0601,-1.655966 -0.20328,-0.34946 -0.48795,-0.62626 -0.71435,-0.962041 -0.31623,-0.239946 -0.54933,-0.565082 -0.82471,-0.848271 -0.3235,-0.219321 -0.62417,-0.475316 -0.98107,-0.638922 -0.34274,-0.12756 -0.70755,-0.157027 -1.06955,-0.173419 -0.47755,-0.01255 -0.95536,-0.0079 -1.43301,-0.006 -0.3016,0.0014 -0.6032,0.0022 -0.9048,0.0028 -0.94493,0.0019 -0.94758,-1.33448 -0.003,-1.336345 v 0 c 0.30064,-5.82e-4 0.60126,-0.0013 0.90191,-0.0028 0.50059,-0.0021 1.00139,-0.007 1.50185,0.0074 0.54229,0.02666 1.08506,0.08882 1.58914,0.305739 0.49422,0.24679 0.94591,0.570823 1.36996,0.924146 0.13452,0.145045 0.25141,0.31764 0.38965,0.45785 0.12052,0.122239 0.2716,0.212177 0.38712,0.339632 0.0675,0.06849 0.12308,0.147792 0.18462,0.221688 0.25358,0.377187 0.59246,0.685187 0.79515,1.098964 0.28152,0.554913 0.62998,1.060656 1.00394,1.557022 0.33224,0.532636 0.63352,1.081048 1.04637,1.559203 0.31933,0.452716 0.64818,0.902383 1.0372,1.298536 0.35983,0.394094 0.66976,0.819015 0.93741,1.280874 0.23326,0.362233 0.50343,0.699045 0.73346,1.063292 0.17489,0.350144 0.36393,0.693033 0.42735,1.085326 0.16333,0.443859 0.42834,0.844986 0.54626,1.306951 0.0943,0.466315 0.1692,0.927809 0.13904,1.406091 0.009,0.363382 0.0305,0.726594 0.094,1.08521 0.0798,0.486132 0.20825,0.967597 0.17052,1.464858 0,0.447656 0.003,0.895315 0.003,1.342972 6e-5,0.393597 0.006,0.7884 -0.0313,1.180684 -0.0524,0.3999 -0.1629,0.776709 -0.41465,1.100537 -0.25588,0.284234 -0.46731,0.596464 -0.84392,0.74553 -0.43389,0.239279 -0.86683,0.326223 -1.35935,0.28534 -0.33208,5e-6 -0.66413,1.6e-5 -0.99621,3.7e-5 -0.34171,1.9e-5 -0.68342,6.9e-5 -1.02515,-1.67e-4 -0.33552,-2.64e-4 -0.67104,-0.0011 -1.00656,-0.0032 -0.29821,-0.0024 -0.59647,-0.0071 -0.89466,-0.0027 -0.10234,0.0031 -0.20304,0.0039 -0.29477,0.01643 0.095,-0.27291 -0.1582,0.376529 -0.0713,0.46059 0.0241,0.41085 0.0595,0.822957 0.16621,1.222007 0.10695,0.432908 0.13706,0.870532 0.21741,1.307758 0.1125,0.441571 0.18865,0.875742 0.1319,1.333924 -0.0445,0.563245 -0.15338,1.115091 -0.58717,1.51784 -0.41566,0.325821 -0.88505,0.519105 -1.38295,0.686983 -0.50718,0.153855 -0.98427,0.403616 -1.51585,0.476626 -0.50091,0.06878 -0.9933,0.219236 -1.50259,0.200779 -0.53105,7.93e-4 -1.06209,0.0024 -1.59311,0.0051 -0.51425,0.0019 -1.02947,0.0099 -1.54271,-0.02795 -0.60761,-0.06665 -1.20621,-0.205272 -1.72275,-0.549537 -0.48742,-0.358889 -0.9434,-0.756026 -1.23463,-1.297358 -0.19023,-0.505307 -0.2259,-1.025023 -0.29511,-1.557407 -0.0563,-0.510836 0.006,-1.001527 0.13684,-1.498031 0.0814,-0.300476 -0.003,-0.6346 0.0257,-0.942546 -0.007,-0.213125 -0.003,-0.440209 -0.0864,-0.639159 -0.0903,-0.216022 -0.28498,-0.331317 -0.49299,-0.418476 -0.47853,-0.08582 -0.97957,0.0073 -1.4631,-0.0204 -0.46648,0.0099 -0.9348,0.02156 -1.39628,0.09674 -0.5084,0.09227 -1.01137,0.227187 -1.53337,0.151701 -0.55803,-0.05057 -1.08384,-0.173143 -1.54273,-0.514953 -0.44855,-0.358167 -0.89474,-0.740146 -1.14147,-1.271844 -0.20756,-0.430771 -0.50252,-0.822542 -0.59724,-1.303399 -0.16682,-0.498168 -0.32565,-1.00744 -0.35216,-1.535887 -0.0505,-0.507889 -0.16267,-1.00393 -0.22005,-1.510475 0.0114,-0.548423 0.0305,-1.098706 0.1243,-1.640374 0.11075,-0.572111 0.27207,-1.132401 0.41383,-1.697019 0.17688,-0.509733 0.4082,-1.000993 0.53078,-1.528572 0.12105,-0.402519 0.21614,-0.81063 0.34465,-1.210985 0.0647,-0.43517 0.19672,-0.855408 0.23759,-1.292137 0.0634,-0.513046 0.18347,-1.012778 0.33259,-1.507718 0.14276,-0.627279 0.38359,-1.208421 0.74384,-1.744477 0.36997,-0.512924 0.82479,-0.905955 1.3321,-1.28002 0.52639,-0.389799 1.03119,-0.810699 1.54538,-1.216228 0.49694,-0.381659 1.02701,-0.733431 1.62772,-0.928442 0.49442,-0.124796 0.98832,-0.262235 1.46873,-0.431942 0.52845,-0.216888 1.03359,-0.475083 1.56331,-0.685799 0.62241,-0.158539 1.24984,-0.363824 1.90125,-0.301645 0.52675,0.04071 1.05211,0.105133 1.56908,0.216267 0.9266,0.185318 0.6645,1.495715 -0.26207,1.310397 z" />
      <path
         style="fill:#000000;fill-opacity:1;stroke:none;stroke-width:3.29999995;stroke-linecap:butt;stroke-miterlimit:4;stroke-dasharray:none;stroke-opacity:1;paint-order:markers stroke fill"
         id="path2178"
         d="m -393.64883,36.28813 c 0.2177,0.244793 0.49221,0.419833 0.75298,0.61418 0.2825,0.120311 0.57864,0.225211 0.87434,0.315915 0.38833,0.106413 0.75457,0.260332 1.15332,0.328703 0.46802,0.06316 0.94144,0.06517 1.41288,0.06974 0.18089,-0.006 0.5589,0.03545 0.63473,-0.167931 0.2059,-0.184129 0.3741,-0.425416 0.51107,-0.66665 0.0755,-0.30984 0.20413,-0.602271 0.27697,-0.913153 0.0788,-0.426734 0.0828,-0.862592 0.0903,-1.295115 -0.0182,-0.41665 -0.21114,-0.768477 -0.38756,-1.134798 -0.24754,-0.397824 -0.52462,-0.788 -0.81748,-1.155517 -0.29509,-0.369279 -0.51396,-0.79497 -0.82365,-1.152223 -0.18084,-0.252164 -0.42431,-0.470173 -0.70977,-0.598625 -0.22651,-0.07099 -0.48191,0.0413 -0.70446,0.108899 -1.11586,0.294836 -2.67229,0.993069 -2.92952,2.160972 -0.14737,0.405159 -0.2278,0.822142 -0.27053,1.249576 -0.0784,0.457896 0.0312,0.876168 0.16621,1.308524 0.12131,0.509362 0.38537,0.965512 0.69202,1.384853 0.26305,0.295161 0.58536,0.443336 0.96239,0.529291 0.19712,0.04125 0.38915,0.05843 0.58846,0.03562 0.94332,-0.05558 1.0219,1.278451 0.0786,1.334034 v 0 c -0.33525,0.01191 -0.65945,0.01106 -0.98787,-0.07238 -0.6844,-0.177024 -1.27953,-0.488899 -1.72972,-1.050824 -0.37891,-0.540472 -0.72279,-1.115439 -0.87984,-1.763448 -0.18696,-0.602589 -0.31401,-1.208019 -0.21961,-1.842164 0.0502,-0.479092 0.12806,-0.954617 0.29657,-1.408372 0.12486,-0.533911 0.33224,-1.021765 0.77216,-1.374272 0.43008,-0.446209 0.89935,-0.867299 1.44233,-1.171522 0.52228,-0.26102 1.05672,-0.484836 1.63187,-0.599128 0.56774,-0.170754 1.13821,-0.282104 1.70108,-0.0186 0.43151,0.232502 0.83937,0.530606 1.12745,0.933503 0.30659,0.377587 0.56128,0.790636 0.84833,1.18283 0.34594,0.447715 0.6899,0.907375 0.96901,1.399215 0.26678,0.554262 0.5161,1.107942 0.51967,1.737995 -0.01,0.531206 -0.0188,1.066437 -0.12817,1.588502 -0.11088,0.442886 -0.26117,0.881298 -0.43931,1.30029 -0.21397,0.333708 -0.43722,0.678677 -0.73631,0.940683 -0.44995,0.381852 -0.95859,0.571522 -1.55853,0.526209 -0.54589,-0.0054 -1.09416,-0.0099 -1.63523,-0.09059 -0.45426,-0.08367 -0.87823,-0.241149 -1.31889,-0.369401 -0.43487,-0.139155 -0.88279,-0.278712 -1.27188,-0.519184 -0.29065,-0.216659 -0.59698,-0.417041 -0.84238,-0.687009 -0.3116,-0.334936 -0.46697,-0.698902 -0.51028,-1.155454 -0.17006,0.151173 0.56704,-0.381042 1.39825,0.156826 z" />
      <path
         style="fill:#000000;fill-opacity:1;stroke:none;stroke-width:3.29999995;stroke-linecap:butt;stroke-miterlimit:4;stroke-dasharray:none;stroke-opacity:1;paint-order:markers stroke fill"
         id="path2182"
         d="m -379.88591,32.141652 c -0.29038,-0.37057 -0.56661,-0.749229 -0.92922,-1.052039 -0.0326,-0.01797 -0.0614,-0.04652 -0.0979,-0.05391 -0.0116,-0.0024 0.0138,0.02674 0.006,0.0352 -0.0114,0.01169 -0.0322,0.0066 -0.0485,0.0085 -0.12329,0.015 -0.19873,0.05323 -0.3243,0.0933 -0.25008,0.226484 -0.52689,0.44163 -0.7816,0.670579 -0.2829,0.220361 -0.55153,0.456033 -0.78058,0.7327 -0.17412,0.288687 -0.41156,0.55795 -0.65421,0.799893 -0.13044,0.2256 -0.22098,0.483164 -0.32263,0.727835 -0.0812,0.362998 -0.15896,0.726972 -0.25045,1.088816 -0.0958,0.389175 -0.10957,0.790956 -0.12401,1.189532 -0.0394,0.402415 -0.0222,0.606094 0.13282,0.956344 0.19105,0.391944 0.49344,0.695558 0.7915,1.003684 0.23905,0.227055 0.49808,0.401963 0.8046,0.518795 0.30667,0.08249 0.62812,0.08679 0.94374,0.09358 0.4083,0.0042 0.81666,5.29e-4 1.22497,-7.94e-4 0.40804,0.0085 0.80623,0.01119 1.20644,-0.0665 0.31409,-0.05365 0.6726,-0.181993 0.87368,-0.44442 0.22344,-0.249478 0.33766,-0.546481 0.39074,-0.871339 0.0427,-0.323562 0.0669,-0.639032 -0.0119,-0.954688 -0.11829,-0.391967 -0.10676,-0.80676 -0.24003,-1.192938 -0.086,-0.39357 -0.26511,-0.741574 -0.45894,-1.091491 -0.26808,-0.445381 -0.46448,-0.927089 -0.70149,-1.386813 -0.11105,-0.234675 -0.0515,-0.142211 -0.15947,-0.288862 -0.51572,-0.791797 0.60405,-1.52114 1.11977,-0.729342 v 0 c 0.18706,0.301077 0.11121,0.158054 0.2367,0.424093 0.21833,0.449926 0.42217,0.904615 0.6759,1.33778 0.22985,0.421516 0.44704,0.849014 0.55761,1.319062 0.13552,0.426995 0.1682,0.866346 0.27043,1.30093 0.11417,0.498959 0.10555,0.996225 0.0262,1.501508 -0.11232,0.583409 -0.33417,1.117981 -0.74393,1.560113 -0.43881,0.425534 -0.97044,0.739605 -1.58488,0.82909 -0.48215,0.0907 -0.96203,0.104711 -1.45196,0.09016 -0.41994,0.0016 -0.83989,0.0053 -1.25981,5.3e-4 -0.47244,-0.01098 -0.95163,-0.02994 -1.40266,-0.185873 -0.48244,-0.193238 -0.90509,-0.46936 -1.27717,-0.834379 -0.40733,-0.422961 -0.80426,-0.85385 -1.05378,-1.394894 -0.21924,-0.503198 -0.30131,-0.994307 -0.24453,-1.542114 0.0182,-0.492627 0.0426,-0.988062 0.16391,-1.46827 0.10752,-0.425215 0.18296,-0.856234 0.31218,-1.274538 0.16891,-0.405503 0.31607,-0.83693 0.61709,-1.164989 0.21688,-0.2115 0.4123,-0.445924 0.56782,-0.705938 0.27411,-0.326318 0.58531,-0.616892 0.92191,-0.878006 0.39463,-0.344234 0.78547,-0.72517 1.26474,-0.943436 0.60357,-0.188084 1.19718,-0.241514 1.73074,0.172233 0.435,0.372608 0.78928,0.813623 1.13409,1.269532 0.56697,0.755954 -0.5021,1.557764 -1.06908,0.801809 z" />
      <path
         style="fill:#000000;fill-opacity:1;stroke:none;stroke-width:3.80971813;stroke-linecap:butt;stroke-miterlimit:4;stroke-dasharray:none;stroke-opacity:1;paint-order:markers stroke fill"
         d="m -383.61252,38.429581 c -0.96919,-0.969194 -1.13496,-2.085182 -0.59128,-3.980872 0.29065,-1.013478 2.58252,-3.678897 3.1633,-3.678897 0.96668,0 3.15668,3.778991 3.45616,5.963769 0.28411,2.072885 -0.31799,2.588856 -3.02103,2.588856 -1.92959,0 -2.19229,-0.078 -3.00715,-0.892856 z"
         id="path2184" />
      <path
         style="fill:#000000;fill-opacity:1;stroke:none;stroke-width:1.987306;stroke-linecap:butt;stroke-miterlimit:4;stroke-dasharray:none;stroke-opacity:1;paint-order:markers stroke fill"
         d="m -390.49903,38.158342 c -0.92991,-0.123491 -2.55665,-0.726727 -3.10705,-1.152168 -0.30673,-0.237084 -0.68015,-0.47662 -0.82987,-0.5323 -0.1608,-0.05981 -0.38153,-0.477358 -0.53939,-1.020412 -0.21938,-0.754639 -0.23682,-1.082632 -0.0974,-1.832309 0.3496,-1.879789 1.12162,-2.700049 3.20431,-3.404504 0.90527,-0.306197 1.1066,-0.326753 1.45428,-0.148465 0.39396,0.202051 2.24557,2.676746 2.76256,3.692236 0.54485,1.070184 0.0897,3.685644 -0.74277,4.268769 -0.325,0.227626 -1.03502,0.271199 -2.10465,0.129153 z"
         id="path2186" />
      <path
         style="fill:#000000;fill-opacity:1;stroke:none;stroke-width:3.29999995;stroke-linecap:butt;stroke-miterlimit:4;stroke-dasharray:none;stroke-opacity:1;paint-order:markers stroke fill"
         id="path2194"
         d="m -388.98456,43.227582 c 0.6849,0.02249 1.36374,-0.08888 2.04361,-0.157607 0.74028,-0.111411 1.47317,-0.06879 2.21168,0.01969 0.53713,0.0419 1.08434,0.160004 1.62351,0.09806 0.46228,-0.03959 0.88522,-0.124806 1.29963,-0.326419 0.33052,-0.146439 0.15952,-0.07713 0.51359,-0.206497 0.88942,-0.31909 1.34069,0.938761 0.45124,1.257851 v 0 c -0.2518,0.08786 -0.12364,0.03781 -0.38375,0.152056 -0.56388,0.270647 -1.14535,0.401256 -1.76821,0.454615 -0.63389,0.04356 -1.2655,-0.02619 -1.89524,-0.102844 -0.64201,-0.0772 -1.27394,-0.120687 -1.91815,-0.01693 -0.72432,0.07312 -1.44806,0.18809 -2.17791,0.164378 -0.94496,0 -0.94496,-1.33635 0,-1.33635 z" />
      <path
         style="fill:#000000;fill-opacity:1;stroke:none;stroke-width:3.29999995;stroke-linecap:butt;stroke-miterlimit:4;stroke-dasharray:none;stroke-opacity:1;paint-order:markers stroke fill"
         id="path2202"
         d="m -386.3381,43.788337 c 0,0.504683 0,1.009365 0,1.514044 0,0.570688 0,1.141373 0,1.712061 0,0.547941 0,1.095883 0,1.643827 0.0177,0.417425 -0.0507,0.840488 0.0565,1.246566 0.22735,0.917183 -1.06974,1.23871 -1.2971,0.321529 v 0 c -0.12361,-0.5174 -0.10112,-1.03895 -0.0957,-1.568095 0,-0.547944 0,-1.095886 0,-1.643827 0,-0.570688 0,-1.141373 0,-1.712061 0,-0.504679 0,-1.009361 0,-1.514044 0,-0.94494 1.33635,-0.94494 1.33635,0 z" />
      <path
         style="fill:#000000;fill-opacity:1;stroke:none;stroke-width:3.29999995;stroke-linecap:butt;stroke-miterlimit:4;stroke-dasharray:none;stroke-opacity:1;paint-order:markers stroke fill"
         id="path2204"
         d="m -383.39813,44.322878 c -0.0368,0.584647 0.0307,1.156411 0.11415,1.733118 0.0437,0.570252 0.19431,1.121074 0.29493,1.682158 0.16036,0.525571 0.26641,1.062077 0.337,1.606298 0.12075,0.937194 -1.20465,1.107967 -1.32541,0.170776 v 0 c -0.0669,-0.523645 -0.18073,-1.03523 -0.32723,-1.542624 -0.10179,-0.575363 -0.25673,-1.140738 -0.30187,-1.725322 -0.0925,-0.639445 -0.16332,-1.276747 -0.12792,-1.924404 0,-0.944941 1.33635,-0.944941 1.33635,0 z" />
      <path
         style="fill:#000000;fill-opacity:1;stroke:none;stroke-width:3.29999995;stroke-linecap:butt;stroke-miterlimit:4;stroke-dasharray:none;stroke-opacity:1;paint-order:markers stroke fill"
         id="path2206"
         d="m -389.00369,46.279278 c 0.53297,0.20347 1.09495,0.301572 1.65907,0.367292 0.56626,0.05589 1.1358,0.05671 1.70418,0.05907 0.51504,0.01754 1.01756,-0.118954 1.5249,-0.189762 0.48318,-0.04553 0.95263,-0.180072 1.41531,-0.321265 0.43934,-0.133665 0.88508,-0.230237 1.34188,-0.274685 0.24305,-0.0149 0.12634,-0.0091 0.3501,-0.01797 0.94424,-0.03659 0.996,1.29875 0.0517,1.335344 v 0 c -0.18076,0.0068 -0.0891,0.0026 -0.27493,0.01294 -0.36777,0.03417 -0.72493,0.115964 -1.07883,0.222554 -0.53004,0.161698 -1.06919,0.310179 -1.62203,0.366814 -0.56992,0.07813 -1.13411,0.229967 -1.71376,0.202374 -0.61894,-0.0026 -1.2391,-0.0049 -1.8555,-0.06831 -0.68019,-0.08144 -1.35702,-0.204602 -1.99845,-0.453628 -0.87736,-0.350941 -0.38105,-1.591709 0.49631,-1.240766 z" />
    </g>
  </g>
</svg>
