<?xml version="1.0" encoding="UTF-8" standalone="no"?>
<svg
   xmlns:dc="http://purl.org/dc/elements/1.1/"
   xmlns:cc="http://creativecommons.org/ns#"
   xmlns:rdf="http://www.w3.org/1999/02/22-rdf-syntax-ns#"
   xmlns:svg="http://www.w3.org/2000/svg"
   xmlns="http://www.w3.org/2000/svg"
   id="svg8"
   version="1.1"
   viewBox="0 0 625.92859 160.2619">
  <defs
     id="defs2" />
  <metadata
     id="metadata5">
    <rdf:RDF>
      <cc:Work
         rdf:about="">
        <dc:format>image/svg+xml</dc:format>
        <dc:type
           rdf:resource="http://purl.org/dc/dcmitype/StillImage" />
        <dc:title></dc:title>
      </cc:Work>
    </rdf:RDF>
  </metadata>
  <g
     transform="translate(1245.0031,-1463.7289)"
     id="layer1">
    <g
       transform="translate(-13.607143,160.51078)"
       id="g2622">
      <rect
         style="fill:#ffffff;fill-opacity:0.00392157;stroke:none;stroke-width:3.29999995;stroke-linecap:butt;stroke-miterlimit:4;stroke-dasharray:none;stroke-opacity:1;paint-order:markers stroke fill"
         id="rect2728-7-5"
         width="625.92859"
         height="160.2619"
         x="-1231.396"
         y="1303.2181" />
      <g
         id="g3796-2"
         transform="translate(15.119047,18.127788)">
        <path
           d="m -1131.5419,1340.6142 c 3.2076,0.1759 6.4206,0.1705 9.6279,0.3308 2.8042,0.3702 5.6046,0.5266 8.4248,0.4363 3.0477,-0.1426 6.1004,-0.095 9.1471,0.059 2.1695,0.1759 4.3394,0.2162 6.5128,0.2187 2.1845,0.013 4.3421,0.4405 6.52,0.5741 2.6653,0.047 5.3132,0.3764 7.9798,0.3701 2.6986,0.057 5.3941,-0.1717 8.077,-0.4848 2.5984,-0.2628 5.1872,-0.6374 7.7779,-0.9877 1.5322,-0.3428 3.0729,-0.3753 4.626,-0.3161 1.9096,0.1431 3.8203,0.2405 5.7341,0.2499 2.76,-7e-4 5.5174,0.1591 8.2772,0.145 2.8956,-0.075 5.7788,-0.3495 8.6753,-0.3901 2.8455,0.075 5.6889,0.1505 8.5355,0.1158 3.4296,0.083 6.8582,-0.013 10.2842,-0.1905 2.3852,-0.1553 4.773,-0.1431 7.1604,-0.2026 4.0244,0.1211 8.0363,-0.2204 12.0453,-0.5782 4.80047,-0.2739 9.5963,-0.6672 14.39926,-0.8807 4.92847,-0.1823 9.85701,-0.3518 14.78533,-0.5396 5.05798,-0.2566 10.11986,-0.3128 15.17917,-0.5169 3.796,-0.207 7.60007,-0.247 11.40019,-0.2607 4.14255,-0.1035 8.27938,0.01 12.41885,0.1758 4.04535,0.1055 8.09147,0.221 12.1381,0.2336 4.60018,0.089 9.20066,-0.048 13.80045,-0.1192 4.45795,-0.084 8.92451,-0.1187 13.37891,0.1347 3.79686,0.3303 7.60214,0.5029 11.40722,0.6422 3.65746,0.056 7.31842,0.2539 10.95563,0.7111 2.51356,0.4941 4.9824,1.2159 7.50676,1.636 3.14273,0.3509 6.28389,0.6935 9.43888,0.8515 3.21912,0.013 6.41389,0.3637 9.6088,0.7737 3.22302,0.369 6.45506,0.6494 9.69031,0.8265 4.07676,0.055 8.15413,0.1032 12.23132,0.1534 3.83192,0.089 7.6626,0.2891 11.49234,0.4705 3.6569,0.1918 7.31236,0.4114 10.96918,0.5981 2.78983,0.1921 5.58263,0.2963 8.37622,0.3867 3.39032,0.2866 6.78672,0.3372 10.18422,0.3666 3.4639,-0.1382 6.93063,-0.046 10.39193,-0.2667 3.98476,-0.3222 7.9272,-1.0739 11.90608,-1.4708 3.88588,-0.4168 7.78091,-0.3389 11.67361,-0.1596 3.9773,0.2317 7.95345,0.3225 11.93543,0.3107 3.90044,0.2078 7.79064,0.1309 11.68343,-0.1819 3.62132,-0.16 7.24243,-0.3196 10.85719,-0.6212 3.37206,-0.3256 6.75819,-0.096 10.13502,-0.01 2.91657,0.011 5.82703,-0.1892 8.74306,-0.1923 3.19038,0.094 6.38237,-0.06 9.57304,-0.1105 3.42239,0.1149 6.83458,0.4198 10.25885,0.4741 4.41439,0.1617 8.82784,-0.058 13.24244,-0.078 3.22359,0.039 6.44341,-0.2386 9.6652,-0.2473 0.33439,0 0.66879,0.01 1.00319,0.01 1.17656,0.012 1.15628,2.6892 -0.0203,2.6772 v 0 c -0.32636,0 -0.65272,-0.01 -0.97908,-0.01 -3.21989,0 -6.43827,0.2919 -9.66008,0.2473 -4.42827,0.02 -8.85539,0.2402 -13.28348,0.077 -3.40311,-0.055 -6.7945,-0.348 -10.1954,-0.4741 -3.20053,0.05 -6.40243,0.2048 -9.60267,0.1108 -2.93374,0 -5.86198,0.2088 -8.79636,0.1915 -3.30426,-0.086 -6.6179,-0.3139 -9.91751,0 -3.61683,0.3014 -7.2399,0.4644 -10.86336,0.6218 -3.9439,0.3162 -7.8857,0.3994 -11.83728,0.1883 -4.01458,0.012 -8.02338,-0.08 -12.03327,-0.3128 -3.79612,-0.1753 -7.59426,-0.2555 -11.38385,0.1519 -4.00296,0.3974 -7.9686,1.1622 -11.97823,1.4766 -3.50912,0.2193 -7.02311,0.1362 -10.53483,0.2706 -3.41322,-0.029 -6.82558,-0.079 -10.23156,-0.3675 -2.80605,-0.091 -5.61131,-0.1957 -8.41364,-0.3883 -3.65426,-0.1874 -7.30727,-0.4054 -10.96163,-0.5978 -3.80647,-0.1805 -7.6139,-0.3797 -11.4225,-0.4683 -4.10543,-0.051 -8.21108,-0.098 -12.31605,-0.1563 -3.28368,-0.1805 -6.56422,-0.4641 -9.83548,-0.8398 -3.14372,-0.4035 -6.28688,-0.7498 -9.45464,-0.7599 -3.23164,-0.1636 -6.4497,-0.5105 -9.66841,-0.8764 -2.49761,-0.4187 -4.94402,-1.1095 -7.42709,-1.6243 -3.578,-0.4532 -7.18044,-0.6393 -10.7784,-0.6968 -3.81881,-0.1398 -7.63785,-0.3126 -11.44838,-0.644 -4.40589,-0.2542 -8.82442,-0.2121 -13.23385,-0.1317 -4.61221,0.072 -9.22511,0.208 -13.83773,0.1194 -4.07158,-0.013 -8.14273,-0.1285 -12.21304,-0.2353 -4.11008,-0.1676 -8.21742,-0.2778 -12.33057,-0.1741 -3.77561,0.013 -7.5552,0.053 -11.32672,0.259 -5.06081,0.2042 -10.12416,0.2606 -15.18366,0.5171 -4.92415,0.1876 -9.84854,0.3571 -14.77286,0.5391 -4.77328,0.2113 -9.53936,0.6045 -14.3102,0.8748 -4.0514,0.3614 -8.1062,0.7063 -12.1731,0.5855 -2.3695,0.059 -4.7394,0.046 -7.1067,0.2005 -3.4524,0.179 -6.9075,0.277 -10.3635,0.193 -2.8452,0.034 -5.6874,-0.037 -8.5317,-0.1158 -2.9026,0.04 -5.7918,0.3215 -8.6938,0.3903 -2.7662,0.012 -5.5302,-0.1427 -8.2965,-0.1451 -1.9366,-0.01 -3.8699,-0.1064 -5.802,-0.2514 -1.4394,-0.058 -2.8605,-0.026 -4.2802,0.2997 -2.6031,0.3518 -5.2042,0.7279 -7.8149,0.9923 -2.7589,0.32 -5.5304,0.5563 -8.3051,0.4982 -2.7095,10e-4 -5.4,-0.319 -8.108,-0.3741 -2.137,-0.1372 -4.2546,-0.5378 -6.3972,-0.5701 -2.2063,0 -4.4092,-0.044 -6.6114,-0.2212 -2.9919,-0.1526 -5.9898,-0.1974 -8.9827,-0.057 -2.8744,0.09 -5.7309,-0.056 -8.5887,-0.438 -3.177,-0.1619 -6.3602,-0.1492 -9.5375,-0.3282 -1.1767,-0.01 -1.1664,-2.6834 0.01,-2.6773 z"
           id="path2028-1"
           style="fill:#000000;fill-opacity:1;stroke:#160808;stroke-width:0.24624668;stroke-miterlimit:4;stroke-dasharray:none;stroke-opacity:1" />
        <path
           d="m -1134.3683,1385.9841 c 1.5324,0.1274 3.0731,0.09 4.6093,0.087 1.9716,-0.2795 3.9288,-0.6375 5.9111,-0.8531 1.7501,-0.1768 3.5098,-0.1977 5.2672,-0.1981 1.5024,-0.059 2.9909,0.1416 4.4825,0.2809 1.4367,0.126 2.8792,0.1619 4.3205,0.1925 1.5169,0.027 3.0341,0.042 4.5512,0.057 1.5253,0.016 3.0508,0.032 4.5763,0.049 1.5247,0.016 3.0494,0.034 4.574,0.05 1.5247,0.017 3.0492,0.034 4.5739,0.05 1.4665,0 2.9213,0.2152 4.3819,0.3256 1.417,0.069 2.8394,0.1775 4.2578,0.1046 1.2723,-0.068 2.5422,-0.067 3.8153,-0.1423 1.487,-0.04 2.9648,-0.2111 4.4479,-0.3156 1.599,-0.1036 3.2019,-0.1104 4.8037,-0.1081 1.4513,0.082 2.896,-0.055 4.3444,-0.083 1.3717,0.01 2.7395,0.145 4.1109,0.099 1.8151,-0.098 3.631,-0.1682 5.4485,-0.2008 1.5523,-0.1212 3.0899,0.1592 4.6362,0.1888 1.7449,0.02 3.4818,-0.1238 5.22,-0.253 1.8012,-0.1411 3.6077,-0.1707 5.4134,-0.177 1.8308,0.087 3.6559,0.2573 5.486,0.3565 1.5448,0.076 3.0915,0.1007 4.6377,0.1228 1.5194,0.035 3.0356,-0.114 4.5388,-0.3177 1.5197,-0.2226 3.0544,-0.2848 4.588,-0.3142 1.6192,0.083 3.2134,-0.1647 4.8135,-0.3642 1.5618,-0.2007 3.1243,-0.399 4.6858,-0.6036 1.6331,-0.238 3.2805,-0.3291 4.9286,-0.3737 1.4816,-0.02 2.9587,0.019 4.4366,-0.098 1.3944,-0.117 2.79094,-0.1517 4.18249,-0.3003 1.47546,-0.1518 2.95686,-0.2026 4.43404,-0.3341 1.63126,-0.179 3.24739,-0.4545 4.87048,-0.6897 1.32832,-0.2312 2.64869,-0.5059 3.97933,-0.7231 1.28839,-0.1321 2.54088,-0.4583 3.82896,-0.585 1.16365,-0.1206 2.29714,-0.4111 3.44021,-0.6472 1.51227,-0.291 3.05287,-0.3508 4.58027,-0.5261 1.29363,-0.068 2.58407,-0.1685 3.87918,-0.2093 1.47581,-0.035 2.95217,-0.021 4.42819,-0.01 1.24193,0.1228 2.48347,0.1118 3.72196,-0.022 1.3064,-0.1677 2.59861,-0.4002 3.913,-0.5132 1.48327,-0.1648 2.96289,0.015 4.4402,0.1412 1.25618,0.022 2.50399,0.1099 3.75654,0.2026 1.40184,-0.021 2.77865,0.1268 4.16124,0.3431 1.82837,0.4882 3.68929,0.8088 5.54641,1.1596 1.39384,0.2244 2.76928,0.5441 4.16833,0.7361 1.32522,0.296 2.67887,0.3978 4.02002,0.5861 1.38601,0.2499 2.79423,0.305 4.19224,0.4491 1.47477,0.1129 2.91832,0.4388 4.39652,0.4962 1.46467,-0.012 2.92184,-0.011 4.38285,0.1 1.65985,0.039 3.32028,-0.015 4.98013,-0.034 1.32307,0.025 2.63858,-0.1539 3.95936,-0.1725 1.08882,0 2.15967,-0.1953 3.24267,-0.2611 1.30791,-0.033 2.6133,0.1134 3.92019,0.058 1.20397,-0.06 2.40435,-0.01 3.60793,0.043 2.13163,0.075 4.26459,0.1059 6.39722,0.138 1.4968,-0.058 2.94441,0.2779 4.41407,0.4535 1.14878,0.2561 2.31223,0.2652 3.4808,0.2921 1.74089,-0.056 3.47348,-0.1519 5.21404,-0.055 1.72648,0.1125 3.45177,0.2067 5.17526,0.3594 2.04274,0.1877 4.09286,0.2744 6.14273,0.3375 1.49221,0.021 2.97705,0.1317 4.46962,0.1316 1.53565,0.097 3.06784,0.2322 4.60485,0.3101 1.56158,0.082 3.12631,0.055 4.68631,0.1599 2.03193,0.3134 4.04412,0.6447 6.1041,0.6771 2.06058,0 4.11821,-0.1735 6.17825,-0.1119 1.36301,0.01 2.72585,-0.022 4.08888,-0.029 1.49593,-0.02 2.98625,-0.01 4.47538,0.1373 1.50697,0.1228 3.00689,0.3 4.50912,0.4687 1.54944,0.1889 3.1129,0.1805 4.66575,0.3163 1.33508,-0.01 2.64847,0.1674 3.96175,0.3849 1.75528,0.3928 3.55282,0.4686 5.34501,0.4995 1.69771,0.011 3.39547,0 5.0932,0.01 1.6607,0.034 3.31258,-0.2398 4.94971,-0.4897 1.59649,-0.2345 3.18627,-0.4829 4.78967,-0.6605 1.35303,-0.1641 2.71631,-0.194 4.07764,-0.2088 1.5198,0.01 3.04202,-0.03 4.55865,0.078 1.41098,0.1626 2.82591,0.2722 4.24457,0.3383 1.56219,0.054 3.12385,-0.1054 4.68428,-0.1759 1.54629,-0.1282 3.08508,0.046 4.62372,0.1753 1.44511,0.1178 2.89493,0.1557 4.34403,0.1869 1.51666,0.028 3.03352,0.043 4.55032,0.059 1.52525,0.016 3.05049,0.032 4.57578,0.049 1.59403,0.014 3.184,-0.1461 4.77593,-0.2198 1.58773,-0.048 3.1725,-0.046 4.75743,-0.1567 1.71774,-0.1189 3.42698,-0.3416 5.13369,-0.565 1.65448,-0.1352 3.32265,-0.1109 4.97602,0.025 1.64847,0.1926 3.31449,0.1274 4.9708,0.1109 1.58083,-0.018 3.16181,-0.013 4.74268,0 1.52701,0.012 3.05398,0.029 4.58095,0.046 1.52385,0.017 3.04768,0.034 4.57152,0.051 1.56756,0.056 3.135,-0.044 4.69292,-0.2121 2.122,-0.1855 4.23871,-0.3606 6.35069,-0.641 1.92829,-0.2932 3.86945,-0.3223 5.81007,-0.177 2.17225,0.2034 4.34728,0.3695 6.52659,0.4749 1.61608,0.071 3.23377,0.093 4.85112,0.1131 1.49036,-0.1587 2.97535,-0.1594 4.47064,-0.091 1.55277,0.085 3.10691,0.1375 4.66151,0.1741 1.51393,0.012 3.02938,0.094 4.54229,0.022 1.70626,-0.1291 3.39922,-0.377 5.10632,-0.5068 1.4801,-0.2054 2.9651,-0.3452 4.45777,-0.4128 1.52529,-0.052 3.0518,-0.036 4.5776,-0.022 1.38327,0.1098 2.77579,0.1199 4.16074,0.042 1.53336,-0.081 3.04598,-0.3727 4.57895,-0.4458 1.6763,0.027 3.35289,-0.069 5.02041,-0.2317 1.34825,-0.194 2.71368,-0.1803 4.06669,-0.307 0.78051,-0.1905 0.0491,-0.3809 0.003,0.7686 -0.008,0.1987 0.14806,0.3696 0.22209,0.5545 -0.90923,-1.0209 1.10938,-2.7949 2.01865,-1.7741 v 0 c 0.13891,0.2577 0.38928,0.4821 0.41676,0.7731 0.14234,1.5071 -1.17671,2.135 -2.41695,2.3438 -1.3488,0.118 -2.70689,0.1201 -4.05064,0.3055 -1.71745,0.1627 -3.44327,0.2731 -5.1695,0.2419 -1.52056,0.047 -3.02034,0.3983 -4.54328,0.4442 -1.44194,0.075 -2.89188,0.082 -4.33185,-0.038 -1.477,-0.013 -2.9547,-0.029 -4.43125,0.02 -1.4652,0.065 -2.92121,0.2119 -4.37459,0.4078 -1.73493,0.1306 -3.45465,0.3915 -5.18977,0.5118 -1.57523,0.067 -3.15154,7e-4 -4.72756,-0.02 -1.57485,-0.037 -3.14928,-0.09 -4.72225,-0.1762 -1.46665,-0.068 -2.91723,-0.049 -4.38003,0.094 -1.64979,-0.021 -3.2999,-0.043 -4.94839,-0.1161 -2.20473,-0.1069 -4.40532,-0.2734 -6.60292,-0.4796 -1.75223,-0.1382 -3.50422,-0.1039 -5.24533,0.1613 -2.13508,0.2834 -4.27482,0.4634 -6.42007,0.6493 -1.66374,0.1754 -3.3369,0.2864 -5.01074,0.2273 -1.52383,-0.017 -3.04765,-0.034 -4.57151,-0.051 -1.52286,-0.017 -3.04572,-0.034 -4.56865,-0.046 -1.56591,-0.01 -3.13191,-0.015 -4.69779,0 -1.74168,0.017 -3.49292,0.08 -5.22653,-0.1204 -1.45937,-0.128 -2.93351,-0.137 -4.39514,-0.038 -1.76123,0.2306 -3.52519,0.4588 -5.29781,0.5815 -1.60598,0.1113 -3.21151,0.1158 -4.82033,0.1603 -1.64341,0.076 -3.28468,0.2422 -4.93055,0.2225 -1.52505,-0.016 -3.05012,-0.033 -4.57518,-0.049 -1.52664,-0.016 -3.05333,-0.031 -4.57983,-0.059 -1.5056,-0.033 -3.01194,-0.073 -4.51337,-0.1958 -1.42254,-0.1198 -2.84402,-0.2911 -4.27385,-0.1685 -1.64325,0.074 -3.28766,0.2414 -4.9331,0.1757 -1.44375,-0.068 -2.88423,-0.1757 -4.32008,-0.3429 -1.43843,-0.1138 -2.88555,-0.05 -4.32739,-0.071 -1.27155,0.014 -2.54512,0.039 -3.80893,0.1926 -1.56651,0.1725 -3.11938,0.4182 -4.67944,0.6461 -1.77466,0.2691 -3.5644,0.5578 -5.36445,0.5204 -1.71138,0 -3.42276,0 -5.13409,-0.01 -1.92442,-0.034 -3.85484,-0.1216 -5.74084,-0.5355 -1.24787,-0.2068 -2.49246,-0.3693 -3.76147,-0.3593 -1.57164,-0.1462 -3.15753,-0.1187 -4.72564,-0.3223 -1.491,-0.1677 -2.97948,-0.3442 -4.47532,-0.4652 -1.39458,-0.1401 -2.7905,-0.1397 -4.1917,-0.1239 -1.39724,0.01 -2.79434,0.041 -4.19161,0.028 -2.04653,-0.073 -4.09273,0.137 -6.14024,0.1128 -2.10453,-0.044 -4.16927,-0.3309 -6.24196,-0.6831 -1.5424,-0.1112 -3.09169,-0.066 -4.63579,-0.1569 -1.49126,-0.076 -2.97859,-0.1982 -4.4676,-0.3066 -1.5204,-5e-4 -3.03295,-0.1095 -4.55282,-0.133 -2.10188,-0.065 -4.20398,-0.1543 -6.29855,-0.3468 -1.69498,-0.1501 -3.39167,-0.2422 -5.08963,-0.3531 -1.71026,-0.099 -3.41278,0.02 -5.12393,0.058 -1.2627,-0.03 -2.52291,-0.044 -3.76437,-0.3136 -1.36831,-0.1853 -2.71222,-0.4789 -4.10773,-0.4316 -2.15699,-0.032 -4.31425,-0.064 -6.47021,-0.14 -1.13267,-0.048 -2.26165,-0.1039 -3.39476,-0.042 -1.29252,0.042 -2.58123,-0.061 -3.87409,-0.06 -1.12402,0.048 -2.23741,0.2859 -3.3686,0.265 -1.31545,0 -2.62872,0.2216 -3.94738,0.1724 -1.73937,0.02 -3.47957,0.08 -5.21874,0.026 -1.42959,-0.1101 -2.85533,-0.097 -4.2887,-0.094 -1.53508,-0.068 -3.03528,-0.3738 -4.56495,-0.5086 -1.43129,-0.1513 -2.87425,-0.2027 -4.29342,-0.4615 -1.3365,-0.1936 -2.68889,-0.2838 -4.00952,-0.5847 -1.4432,-0.2014 -2.86365,-0.522 -4.30116,-0.7579 -1.82813,-0.3474 -3.66404,-0.6507 -5.46117,-1.1448 -1.31362,-0.206 -2.61711,-0.3374 -3.94958,-0.3184 -1.25982,-0.1 -2.51511,-0.1755 -3.77938,-0.2045 -1.32424,-0.1131 -2.64947,-0.2889 -3.97942,-0.1411 -1.29517,0.1088 -2.56639,0.3509 -3.85493,0.5076 -1.3414,0.1421 -2.6886,0.1723 -4.03345,0.037 -1.43983,-0.012 -2.88003,-0.026 -4.31973,0.01 -1.22022,0.038 -2.4359,0.1348 -3.65491,0.1929 -1.44762,0.1661 -2.90684,0.226 -4.34186,0.488 -1.23948,0.255 -2.46938,0.567 -3.73205,0.6909 -1.22859,0.1103 -2.41966,0.4539 -3.65027,0.5621 -1.34638,0.217 -2.68105,0.5015 -4.02562,0.7302 -1.6722,0.2413 -3.33724,0.5262 -5.01822,0.707 -1.46164,0.13 -2.92691,0.1828 -4.38704,0.3294 -1.41697,0.1507 -2.83808,0.192 -4.25808,0.3074 -1.5244,0.1186 -3.0475,0.092 -4.5756,0.1052 -1.5551,0.042 -3.1097,0.1261 -4.6503,0.3519 -1.567,0.2037 -3.1344,0.404 -4.7012,0.6054 -1.6939,0.2112 -3.3841,0.4647 -5.0976,0.3846 -1.4292,0.027 -2.8596,0.082 -4.2756,0.2901 -1.6368,0.2213 -3.2877,0.3788 -4.9415,0.3421 -1.5826,-0.023 -3.1653,-0.048 -4.7462,-0.1265 -1.7781,-0.097 -3.5516,-0.2558 -5.3294,-0.3526 -1.7418,0.01 -3.4843,0.033 -5.2217,0.1695 -1.827,0.1359 -3.6536,0.2832 -5.4878,0.2597 -1.5089,-0.043 -3.0072,-0.2899 -4.5212,-0.1884 -1.807,0.032 -3.6125,0.1037 -5.4171,0.2001 -1.3841,0.036 -2.7631,-0.067 -4.1467,-0.098 -1.4636,0.017 -2.9255,0.1736 -4.3925,0.084 -1.5369,0 -3.075,0 -4.6093,0.1014 -1.4933,0.1047 -2.9813,0.2777 -4.4787,0.3175 -1.2842,0.076 -2.5658,0.075 -3.8489,0.1442 -1.5297,0.065 -3.061,-0.022 -4.5888,-0.1095 -1.4023,-0.1066 -2.7994,-0.3103 -4.2068,-0.318 -1.5245,-0.017 -3.0491,-0.034 -4.5737,-0.051 -1.5246,-0.017 -3.0492,-0.034 -4.5738,-0.05 -1.5249,-0.016 -3.05,-0.033 -4.5751,-0.049 -1.5268,-0.016 -3.0537,-0.03 -4.5805,-0.058 -1.5064,-0.032 -3.0139,-0.071 -4.5153,-0.2037 -1.4078,-0.1317 -2.8115,-0.3273 -4.2295,-0.2691 -1.6599,2e-4 -3.3221,0.017 -4.9752,0.1822 -2.0775,0.2243 -4.1233,0.6375 -6.1976,0.869 -1.548,0 -3.1012,0.042 -4.6451,-0.087 -1.3722,-0.015 -1.3423,-2.6922 0.03,-2.6771 z"
           id="path2030-2"
           style="fill:#000000;fill-opacity:1;stroke:#160808;stroke-width:0.26592484;stroke-miterlimit:4;stroke-dasharray:none;stroke-opacity:1" />
        <path
           d="m -1130.9891,1341.7436 c -0.029,2.2015 0.068,4.4063 -0.067,6.6045 -0.1465,1.5027 -0.2776,3.0038 -0.59,4.4807 -0.2875,1.3355 -0.3395,2.7009 -0.3814,4.0622 0.03,2.0484 -0.3864,4.0557 -0.6789,6.0707 -0.3115,2.3792 -0.6155,4.7542 -0.7931,7.1486 -0.1161,1.752 -0.1527,3.5079 -0.1658,5.2634 0,1.2013 -1e-4,2.4026 0,3.6039 0,1.3555 0,2.711 0,4.0666 -0.01,1.0942 0.2481,2.1696 0.3776,3.2538 0.1641,1.3823 -2.4876,1.7123 -2.6517,0.33 v 0 c -0.1407,-1.1933 -0.4221,-2.3762 -0.3971,-3.5832 0,-1.3542 0,-2.7084 0,-4.0626 0,-1.2099 -0.01,-2.4197 0,-3.6296 0.014,-1.8178 0.052,-3.6359 0.1735,-5.45 0.1833,-2.4596 0.494,-4.8998 0.8144,-7.3437 0.2783,-1.9103 0.6805,-3.8126 0.6512,-5.7547 0.048,-1.5276 0.1169,-3.0586 0.441,-4.5565 0.2867,-1.3438 0.394,-2.7117 0.5347,-4.0788 0.144,-2.1372 0.02,-4.2844 0.061,-6.4253 0,-1.3924 2.6712,-1.3924 2.6712,0 z"
           id="path2032-7"
           style="fill:#000000;fill-opacity:1;stroke:#160808;stroke-width:0.26757461;stroke-miterlimit:4;stroke-dasharray:none;stroke-opacity:1" />
        <path
           d="m -1053.11,1343.6931 c 0.076,2.8039 0.2806,5.6043 0.3863,8.4088 0.1509,2.3852 0.013,4.7853 0.1305,7.1705 0.036,0.7315 0.2149,1.9933 0.3089,2.7161 0.4584,2.1219 0.9061,4.2369 1.1402,6.4016 0.1666,1.9443 0.174,3.8987 0.1822,5.8494 0,1.3205 0,2.641 -0.01,3.9615 0,1.1329 0,2.2658 0,3.3987 0.028,1.2181 0.015,2.4191 -0.1702,3.6229 -0.063,0.2424 -0.1254,0.4849 -0.1881,0.7274 -0.3764,1.3865 -2.9448,0.6026 -2.5683,-0.7839 v 0 c 0.04,-0.1352 0.08,-0.2704 0.1195,-0.4055 0.1663,-1.0497 0.1507,-2.0979 0.1344,-3.1616 0,-1.135 0,-2.27 0,-3.4049 0,-1.314 0.01,-2.628 0.01,-3.942 -0.01,-1.8482 -0.013,-3.6997 -0.1652,-5.5422 -0.2271,-2.1442 -0.7033,-4.2303 -1.1325,-6.3365 -0.1297,-1.0078 -0.2831,-2.0541 -0.3334,-3.0705 -0.1167,-2.3576 0.021,-4.7302 -0.1286,-7.0879 -0.1069,-2.8422 -0.3163,-5.68 -0.3884,-8.5219 0,-1.4428 2.6727,-1.4428 2.6727,0 z"
           id="path2034-0"
           style="fill:#000000;fill-opacity:1;stroke:#160808;stroke-width:0.272448;stroke-miterlimit:4;stroke-dasharray:none;stroke-opacity:1" />
        <path
           d="m -968.0681,1341.3373 c 0.17077,1.8008 0.50459,3.5788 0.73593,5.372 0.35855,1.6801 0.48827,3.3957 0.76568,5.087 0.30375,1.2468 0.33403,2.5405 0.57703,3.7945 0.17551,1.2267 0.54071,2.411 0.78798,3.6233 0.22067,1.1568 0.26582,2.3346 0.29105,3.5085 0.0151,1.1723 0.008,2.3448 0.007,3.5172 -0.003,1.5123 -0.003,3.0246 -0.004,4.5369 0,1.2133 0,2.4265 0,3.6398 3e-5,1.0666 6e-5,2.1332 6e-5,3.1998 0,0.8828 0,1.7655 0,2.6483 0,1.3511 -2.67575,1.3511 -2.67575,0 v 0 c 0,-0.8828 0,-1.7655 0,-2.6483 -3e-5,-1.0666 -3e-5,-2.1332 -6e-5,-3.1998 0,-1.2136 0,-2.4271 0,-3.6406 0,-1.5135 0.003,-3.027 0.004,-4.5404 0.003,-1.1523 0.008,-2.3047 -0.006,-3.457 -0.0214,-1.0171 -0.0536,-2.0382 -0.23919,-3.0415 -0.24708,-1.229 -0.62343,-2.4287 -0.79749,-3.6725 -0.22438,-1.278 -0.29905,-2.58 -0.58645,-3.8494 -0.27305,-1.7205 -0.42338,-3.4603 -0.77763,-5.1695 -0.22881,-1.7802 -0.56246,-3.5452 -0.7306,-5.333 -0.19266,-1.3376 2.4562,-1.7129 2.64885,-0.3753 z"
           id="path2036-9"
           style="fill:#000000;fill-opacity:1;stroke:#160808;stroke-width:0.26380491;stroke-miterlimit:4;stroke-dasharray:none;stroke-opacity:1" />
        <path
           d="m -885.7993,1340.5698 c 0.0708,2.4288 -0.065,4.8494 -0.24516,7.2713 -0.14095,1.6681 -0.22908,3.3389 -0.2721,5.0113 -0.0241,1.2896 -0.0214,2.5795 -0.0206,3.8692 -0.0114,1.1802 0.05,2.3606 -0.0676,3.5367 -0.14324,1.3388 -0.39883,2.658 -0.66791,3.9791 -0.20981,1.003 -0.28003,2.0218 -0.31671,3.0402 -0.0246,0.9639 -0.0196,1.9282 -0.018,2.8923 0.003,0.9754 0.003,1.9508 0.004,2.9262 0,0.9766 0,1.9531 0,2.9297 -0.006,1.041 0.0381,2.0806 -0.0715,3.1174 -0.186,1.0794 -0.32957,2.1624 -0.40566,3.2528 -0.0838,0.7083 0.11893,1.6633 -0.46686,2.2482 -0.25471,0.2544 -0.6228,0.3895 -0.93422,0.5843 -1.30172,0.3619 -2.08004,-1.9734 -0.77829,-2.3353 v 0 c -0.19053,0.1612 -0.4118,0.2965 -0.57161,0.4834 -0.0471,0.055 -0.0511,0.273 -0.0201,0.2091 0.19865,-0.4112 -0.01,-0.9216 0.10401,-1.3463 0.0798,-1.1245 0.21958,-2.2427 0.41529,-3.3555 0.12798,-0.9464 0.022,-1.9064 0.0564,-2.8581 -3e-5,-0.976 -3e-5,-1.9521 0,-2.9281 0,-0.9747 -0.003,-1.9493 -0.004,-2.924 -0.003,-0.9925 -0.007,-1.9851 0.0196,-2.9774 0.0421,-1.1409 0.12539,-2.282 0.36034,-3.4055 0.25556,-1.254 0.50223,-2.5046 0.63608,-3.7758 0.13576,-1.091 0.0156,-2.1961 0.0544,-3.2922 0,-1.3093 -0.003,-2.6188 0.0214,-3.9279 0.0442,-1.7085 0.13369,-3.4153 0.27752,-5.1193 0.17613,-2.3669 0.31035,-4.732 0.23897,-7.1058 0,-1.2428 2.67271,-1.2428 2.67271,0 z"
           id="path2038-3"
           style="fill:#000000;fill-opacity:1;stroke:#160808;stroke-width:0.25285888;stroke-miterlimit:4;stroke-dasharray:none;stroke-opacity:1" />
        <path
           d="m -799.73574,1347.2061 c -0.2002,2.9524 -0.3465,5.9071 -0.43879,8.8645 -0.073,2.8737 -0.0901,5.7484 -0.0986,8.6229 0.10979,1.8274 -0.1378,3.6161 -0.49938,5.402 -0.3239,1.617 -0.45346,3.2608 -0.52837,4.9038 -0.0475,1.2434 -0.0477,2.4877 -0.047,3.7316 -0.14244,1.3049 -0.33726,2.6006 -0.43624,3.9101 -0.0764,1.1282 -0.0879,2.259 -0.0945,3.3891 0,0.1757 0,0.3515 0,0.5272 -0.003,1.3246 -2.67907,1.3184 -2.67579,-0.01 v 0 c 0,-0.1786 0,-0.3572 0.003,-0.5357 0.007,-1.1892 0.0201,-2.3791 0.10174,-3.5661 0.0951,-1.2448 0.2521,-2.4807 0.42896,-3.7168 0,-1.2831 -8e-5,-2.5666 0.0496,-3.8491 0.0819,-1.7729 0.22543,-3.5461 0.57616,-5.2906 0.32899,-1.6237 0.56112,-3.2436 0.44896,-4.9067 0.008,-2.8983 0.0259,-5.7969 0.0998,-8.6944 0.0916,-2.931 0.22976,-5.86 0.43756,-8.7855 0,-1.3246 2.67579,-1.3246 2.67579,0 z"
           id="path2040-6"
           style="fill:#000000;fill-opacity:1;stroke:#160808;stroke-width:0.26119959;stroke-miterlimit:4;stroke-dasharray:none;stroke-opacity:1" />
        <path
           d="m -721.11114,1345.9078 c 0.23524,1.5135 0.51919,3.0264 0.84329,4.5239 0.49013,1.8363 0.82932,3.6954 1.02981,5.587 0.1866,2.1503 0.26107,4.3041 0.0598,6.4539 -0.15799,1.2711 -0.28471,2.5446 -0.34513,3.8245 -0.0512,1.1208 0.004,2.2416 -0.11373,3.3575 -0.12088,1.1554 -0.51082,2.2491 -0.74959,3.3793 -0.20015,1.2457 -0.21578,2.512 -0.23768,3.7711 -0.0143,1.1823 -0.01,2.3646 -0.007,3.5469 -0.003,1.1638 0.0419,2.326 -0.0677,3.4851 -0.0895,1.1241 -0.4448,2.2621 -0.34013,3.3951 0.0728,1.3827 -2.59283,1.5284 -2.66563,0.1457 v 0 c -0.0442,-1.288 0.16831,-2.5571 0.35133,-3.8291 0.12812,-1.0568 0.0198,-2.1289 0.0526,-3.1915 -0.003,-1.2002 -0.007,-2.4005 0.008,-3.6007 0.0254,-1.437 0.0486,-2.8825 0.29832,-4.3011 0.22585,-1.0472 0.5775,-2.0611 0.70792,-3.1281 0.1495,-1.0427 0.004,-2.1123 0.0975,-3.162 0.0634,-1.3231 0.18937,-2.6404 0.35437,-3.9544 0.18945,-1.9662 0.10623,-3.9361 -0.057,-5.9033 -0.18586,-1.7944 -0.51912,-3.5531 -0.98322,-5.2944 -0.33371,-1.5638 -0.63498,-3.1408 -0.87817,-4.7208 -0.19221,-1.3707 2.45044,-1.7554 2.64264,-0.3846 z"
           id="path2042-0"
           style="fill:#000000;fill-opacity:1;stroke:#160808;stroke-width:0.26674113;stroke-miterlimit:4;stroke-dasharray:none;stroke-opacity:1" />
        <path
           d="m -650.60227,1345.4427 c -0.12404,2.7242 0.16143,5.4109 0.60938,8.093 0.41757,2.9012 0.85659,5.7971 1.37333,8.6832 0.40739,2.1687 0.50118,4.3722 0.80069,6.5542 0.21413,1.3689 0.34313,2.7466 0.39849,4.1297 0.11131,1.4578 -0.13387,2.9017 -0.29848,4.3459 -0.10489,1.2216 -0.43282,2.4086 -0.6014,3.6222 -0.12095,0.9909 -0.13414,1.9898 -0.14473,2.9864 -0.003,0.6845 -0.003,0.3418 -0.003,1.0283 -0.003,1.3275 -2.67599,1.3239 -2.67411,0 v 0 c 0,-0.7004 -1.1e-4,-0.3497 0.003,-1.052 0.0119,-1.1056 0.0302,-2.2137 0.16926,-3.3125 0.16868,-1.1919 0.47923,-2.359 0.59311,-3.557 0.15013,-1.3156 0.38645,-2.6294 0.28406,-3.9574 -0.0505,-1.3012 -0.17526,-2.5969 -0.37689,-3.8847 -0.2939,-2.1478 -0.39132,-4.3156 -0.78441,-6.451 -0.51852,-2.896 -0.96036,-5.8017 -1.37847,-8.713 -0.47021,-2.8204 -0.76794,-5.6478 -0.64408,-8.5117 0,-1.3275 2.67411,-1.3275 2.67411,0 z"
           id="path2044-6"
           style="fill:#000000;fill-opacity:1;stroke:#160808;stroke-width:0.26140478;stroke-miterlimit:4;stroke-dasharray:none;stroke-opacity:1" />
        <path
           d="m -1114.0387,1359.5801 c -1.1781,0.1151 -2.3727,0.3716 -3.2264,1.2402 -0.6375,0.6268 -0.8588,1.425 -0.9871,2.2801 0.024,0.9215 0.3123,1.7878 0.546,2.6694 0.4155,0.8996 0.47,1.9328 0.9454,2.8009 0.4255,0.5414 0.8924,0.9992 1.5192,1.2968 0.7902,0.2952 1.6429,0.3205 2.4762,0.3518 0.3034,0.017 1.1064,0.051 1.1908,-0.4121 0.2946,-0.6234 0.4603,-1.1907 0.44,-1.8781 -0.2793,-0.9491 -0.4086,-1.9343 -0.6591,-2.8888 -0.1948,-0.9885 -0.7043,-1.8536 -1.1089,-2.7615 -0.3252,-0.7412 -0.825,-1.2783 -1.4013,-1.8258 -0.3916,-0.2891 -0.7507,-0.6149 -1.1387,-0.9087 -1.0806,-0.827 0.5438,-2.9494 1.6244,-2.1225 v 0 c 0.4619,0.3563 0.9014,0.7348 1.3588,1.097 0.8237,0.7881 1.5314,1.6304 2.0018,2.6807 0.4561,1.0468 1.0366,2.0457 1.2545,3.1836 0.2879,1.1627 0.5225,2.3443 0.7411,3.5209 0,1.2939 -0.3239,2.4669 -1.0207,3.5667 -0.8935,1.008 -2.0087,1.5408 -3.3861,1.4193 -1.2269,-0.049 -2.4687,-0.1325 -3.6031,-0.6498 -1.1045,-0.5965 -2.0108,-1.3949 -2.6776,-2.4705 -0.5107,-1.0628 -0.7277,-2.2131 -1.1404,-3.316 -0.3277,-1.24 -0.7089,-2.4739 -0.6012,-3.7766 0.2426,-1.45 0.7295,-2.7865 1.8201,-3.8271 1.3265,-1.1588 2.8886,-1.7842 4.6543,-1.9158 1.347,-0.1924 1.725,2.4534 0.378,2.6459 z"
           id="path2046-2"
           style="fill:#000000;fill-opacity:1;stroke:#160808;stroke-width:0.26458332;stroke-miterlimit:4;stroke-dasharray:none;stroke-opacity:1" />
        <path
           d="m -989.2012,1354.6178 c -0.149,2.8611 -0.3737,5.7228 -0.4218,8.5868 -0.056,2.8542 -0.1872,5.7019 -0.6831,8.5287 -0.118,0.9557 -0.065,0.4958 -0.1606,1.3795 -0.1223,1.1314 -2.7993,0.9318 -2.6769,-0.1996 v 0 c 0.1026,-0.9455 0.044,-0.4445 0.1781,-1.5028 0.4831,-2.7301 0.5965,-5.4813 0.6552,-8.238 0.052,-2.8865 0.2724,-5.7705 0.4241,-8.654 0.061,-1.1348 2.746,-1.0354 2.685,0.099 z"
           id="path2048-6"
           style="fill:#000000;fill-opacity:1;stroke:#160808;stroke-width:0.24242097;stroke-miterlimit:4;stroke-dasharray:none;stroke-opacity:1" />
        <path
           d="m -1070.3329,1359.8728 c -1.1089,-0.4143 -2.2947,-0.7089 -3.4432,-0.3039 -0.8481,0.2828 -1.3977,0.9026 -1.8888,1.6143 -0.3834,0.8383 -0.5051,1.7431 -0.6827,2.6377 -0.022,0.9907 -0.4272,1.9428 -0.3817,2.9315 0.1442,0.6733 0.3624,1.2897 0.7947,1.8325 0.5801,0.6124 1.3349,1.0099 2.0696,1.4042 0.2651,0.1486 0.9715,0.5319 1.2508,0.1532 0.5386,-0.4306 0.9367,-0.8673 1.2206,-1.4936 0.1662,-0.9753 0.4831,-1.9171 0.6775,-2.8846 0.2595,-0.9735 0.182,-1.9745 0.2176,-2.9678 0.034,-0.8087 -0.1793,-1.5108 -0.4563,-2.2559 -0.2247,-0.4318 -0.4041,-0.8822 -0.6235,-1.3167 -0.6072,-1.2177 1.7847,-2.4103 2.3919,-1.1926 v 0 c 0.2584,0.523 0.4868,1.0562 0.7385,1.5826 0.3935,1.0698 0.659,2.1374 0.62,3.2876 -0.05,1.1408 0.032,2.2931 -0.2723,3.4111 -0.2524,1.1709 -0.561,2.3353 -0.8817,3.4883 -0.5687,1.1623 -1.3752,2.0736 -2.4844,2.7551 -1.2456,0.5129 -2.4815,0.5013 -3.6653,-0.2132 -1.0806,-0.583 -2.1593,-1.204 -2.9509,-2.1672 -0.73,-1.0212 -1.1932,-2.1367 -1.3194,-3.3959 0.01,-1.1791 0.319,-2.3077 0.4329,-3.4797 0.2507,-1.2579 0.4505,-2.5338 1.1198,-3.6565 0.8552,-1.1959 1.8799,-2.1825 3.3168,-2.6378 1.7008,-0.458 3.3789,-0.3332 5.0227,0.3246 1.2945,0.4191 0.4713,2.9619 -0.8232,2.5427 z"
           id="path2050-1"
           style="fill:#000000;fill-opacity:1;stroke:#160808;stroke-width:0.26458332;stroke-miterlimit:4;stroke-dasharray:none;stroke-opacity:1" />
        <path
           d="m -945.12447,1354.2347 c -1.28105,0.3036 -2.56248,0.7132 -3.70316,1.3815 -0.79459,0.5532 -1.32709,1.3932 -1.86057,2.1841 -0.51766,0.9517 -0.86257,1.9832 -1.30683,2.9736 -0.31711,0.8222 -0.60476,1.7197 -0.51964,2.6107 0.0545,0.9674 0.65812,1.7081 1.24031,2.4331 0.58894,0.821 1.21192,1.5866 2.03536,2.1719 0.68178,0.4303 1.47857,0.5188 2.26327,0.5882 0.89244,0.088 1.71524,0.1179 2.52529,-0.2886 0.90533,-0.475 1.48884,-1.2329 1.98115,-2.103 0.5317,-0.9378 1.04317,-1.8913 1.34747,-2.9291 0.17219,-0.823 0.0469,-1.7273 -0.1492,-2.5409 -0.15886,-0.9537 -0.64175,-1.7353 -1.15507,-2.527 -0.59671,-0.8206 -1.10056,-1.7012 -1.66237,-2.5433 -0.16272,-0.2684 -0.37444,-0.4325 -0.63876,-0.5837 -1.12358,-0.7675 0.38399,-2.9744 1.5076,-2.2069 v 0 c 0.52615,0.3813 1.02428,0.7651 1.36985,1.3306 0.54906,0.8543 1.07685,1.7203 1.66642,2.5495 0.68633,1.0591 1.28905,2.1437 1.52207,3.4042 0.26647,1.2735 0.43995,2.6165 0.0975,3.8919 -0.38092,1.2317 -0.94657,2.3851 -1.59509,3.4983 -0.79124,1.3364 -1.76239,2.4935 -3.18553,3.1925 -1.26151,0.5448 -2.51243,0.6855 -3.87713,0.5168 -1.26126,-0.1203 -2.50729,-0.3485 -3.57605,-1.0783 -1.01955,-0.7372 -1.84103,-1.6525 -2.56834,-2.6792 -0.93125,-1.1791 -1.7554,-2.4295 -1.81904,-3.9832 -0.0262,-1.3179 0.21813,-2.6063 0.75147,-3.8187 0.50663,-1.1286 0.88411,-2.3151 1.52988,-3.3745 0.76684,-1.1358 1.57221,-2.2802 2.75944,-3.0149 1.44809,-0.8016 3.01818,-1.3731 4.64172,-1.7015 1.34705,-0.1924 1.72503,2.4534 0.37798,2.6459 z"
           id="path2052-8"
           style="fill:#000000;fill-opacity:1;stroke:#160808;stroke-width:0.26458332;stroke-miterlimit:4;stroke-dasharray:none;stroke-opacity:1" />
        <path
           d="m -913.22603,1353.1924 c 1.50902,0.1088 2.96023,0.4638 4.38996,0.9398 1.55324,0.5129 2.64554,1.4827 3.34566,2.9423 0.5602,1.3628 0.34988,2.7079 -0.0597,4.0699 -0.38701,1.0887 -0.95983,2.0919 -1.48368,3.1178 -0.46091,0.9233 -0.85162,1.875 -1.28889,2.8092 -0.47017,0.9854 -1.03079,1.9025 -1.76358,2.7126 -0.91628,1.1275 -0.16399,0.643 -0.58365,-0.3136 -0.52273,-0.4485 -0.35975,-0.2662 0.14259,-0.4099 0.95395,-0.2737 1.94479,-0.3501 2.93087,-0.4039 0.93247,-0.041 1.86594,-0.043 2.79913,-0.044 0.62087,3e-4 1.24174,0 1.86259,0 1.36072,0 1.35649,2.6749 -0.004,2.6727 v 0 c -0.61865,0 -1.2373,0 -1.85592,0 -0.88617,0 -1.7726,0 -2.65813,0.04 -0.79891,0.042 -1.60383,0.093 -2.37694,0.3152 -1.05987,0.2773 -2.0002,0.2641 -2.88555,-0.4501 -0.11922,-0.2039 -0.29847,-0.3831 -0.35769,-0.6118 -0.27567,-1.0644 0.37494,-1.8599 1.01886,-2.6031 0.56287,-0.5972 0.94755,-1.3055 1.31122,-2.0378 0.45077,-0.9621 0.85413,-1.9427 1.33025,-2.8936 0.45371,-0.8838 0.94271,-1.7484 1.30476,-2.6744 0.22514,-0.7374 0.45609,-1.439 0.17981,-2.2 -0.30546,-0.8108 -0.94355,-1.2214 -1.75273,-1.502 -1.27854,-0.4266 -2.57095,-0.7415 -3.92295,-0.8296 -1.34704,-0.1924 -0.96906,-2.8383 0.37799,-2.6458 z"
           id="path2054-7"
           style="fill:#000000;fill-opacity:1;stroke:#160808;stroke-width:0.26458332;stroke-miterlimit:4;stroke-dasharray:none;stroke-opacity:1" />
        <path
           d="m -1201.0892,1358.6669 c 1.6296,-0.7524 3.3207,-1.335 5.0717,-1.7231 1.8794,-0.2675 3.2306,0.2875 4.4536,1.7012 0.8662,1.1967 0.8699,2.5215 0.5229,3.8966 -0.3046,1.1573 -0.7586,2.2426 -1.4487,3.2201 0.3652,-0.5143 -1.5188,1.7358 -1.2679,1.2395 0.4647,-0.9195 0.3534,-0.4322 -0.1,-1.6687 -0.074,-0.055 -0.1895,-0.078 -0.2207,-0.1642 -0.018,-0.051 0.1091,0 0.1636,0.01 0.1112,0 0.223,0 0.3337,0.016 0.7357,0.083 1.3109,0.3024 1.9707,0.6295 1.2934,0.6195 1.9617,1.7034 2.3189,3.0438 0.3544,1.2769 0.01,2.446 -0.5903,3.5798 -0.7313,1.1937 -1.9292,1.8669 -3.1902,2.3767 -1.0394,0.385 -2.1512,0.3878 -3.219,0.6407 -1.0768,0.2668 -2.1745,0.3865 -3.2802,0.322 -1.2883,-0.1275 -2.4612,-0.7373 -3.6233,-1.2701 -1.2358,-0.5693 -0.1176,-2.9968 1.1183,-2.4275 v 0 c 0.8735,0.4047 1.7597,0.8871 2.7162,1.0333 0.8198,0.104 1.6566,-0.1 2.458,-0.2596 0.9467,-0.2208 1.9144,-0.2667 2.8513,-0.5259 0.6818,-0.2566 1.3954,-0.5828 1.8323,-1.1872 0.339,-0.5387 0.5013,-1.0103 0.3333,-1.637 -0.1366,-0.6446 -0.3393,-1.0483 -0.9837,-1.3311 -0.8028,-0.5203 -1.7949,-0.1789 -2.6073,-0.7183 -0.2184,-0.4225 -0.581,-0.7978 -0.6551,-1.2677 -0.148,-0.9377 1.0132,-1.447 1.493,-2.0201 0.5506,-0.6651 0.7606,-1.5354 1.0205,-2.3403 0.1657,-0.5018 0.2549,-0.9879 0,-1.476 -0.47,-0.6146 -1.0195,-0.9179 -1.8271,-0.801 -1.6294,0.3531 -3.1898,0.9229 -4.7061,1.615 -1.2741,0.4778 -2.2125,-2.0247 -0.9385,-2.5025 z"
           id="path2056-9"
           style="fill:#000000;fill-opacity:1;stroke:#160808;stroke-width:0.26458332;stroke-miterlimit:4;stroke-dasharray:none;stroke-opacity:1" />
        <path
           d="m -786.17045,1361.6777 c -1.2378,1.0702 -2.39731,2.2474 -3.45448,3.497 -0.81195,1.0257 -1.50661,2.1059 -1.87306,3.3665 -0.22961,0.7312 0.0698,1.2834 0.47236,1.8823 0.58793,0.7952 1.41909,1.372 2.22202,1.9333 0.6145,0.3962 1.25976,0.4484 1.96001,0.3686 0.65384,-0.2396 1.09564,-0.8071 1.47492,-1.3641 0.55036,-0.8998 1.14342,-1.7779 1.65928,-2.6993 0.3583,-0.5834 0.976,-1.2444 0.88919,-1.9868 -1.6e-4,-0.8356 -0.17934,-1.5648 -0.53803,-2.304 -0.31864,-0.412 -0.82124,-0.6544 -1.28643,-0.8729 -0.0731,-0.023 -0.14624,-0.047 -0.21934,-0.07 -1.28268,-0.4542 -0.39042,-2.9736 0.89222,-2.5193 v 0 c 0.15984,0.059 0.31967,0.1184 0.47953,0.1777 1.01997,0.4931 1.97679,1.1069 2.5426,2.1258 0.54647,1.1441 0.81087,2.3188 0.79899,3.5921 -0.10592,1.1804 -0.48784,2.2344 -1.23225,3.1728 -0.56811,0.9971 -1.19893,1.9587 -1.8066,2.9311 -0.86254,1.1855 -1.88762,2.2065 -3.39071,2.4764 -1.3488,0.1213 -2.61464,-0.081 -3.76418,-0.8444 -1.0818,-0.7686 -2.17815,-1.5634 -2.93259,-2.6768 -0.78856,-1.2675 -1.23769,-2.606 -0.77888,-4.0976 0.49935,-1.6045 1.33162,-3.022 2.39551,-4.3238 1.16298,-1.36 2.41938,-2.654 3.77892,-3.8181 1.04531,-0.8711 2.75632,1.1822 1.711,2.0533 z"
           id="path2058-2"
           style="fill:#000000;fill-opacity:1;stroke:#160808;stroke-width:0.26458332;stroke-miterlimit:4;stroke-dasharray:none;stroke-opacity:1" />
        <path
           d="m -743.02688,1361.1245 c 0.2355,1.6328 0.34406,3.2795 0.42241,4.9261 0.0546,1.2661 0.0621,2.5334 0.0652,3.8005 0,1.0741 -0.003,2.1483 -0.003,3.2224 0,0.3675 0,0.735 0,1.1024 -0.003,1.3608 -2.67436,1.3575 -2.67269,0 v 0 c 0,-0.3672 0,-0.7344 0,-1.1016 0,-1.0712 0.003,-2.1424 0.003,-3.2136 -0.003,-1.2269 -0.01,-2.4542 -0.0622,-3.6802 -0.0739,-1.5626 -0.17539,-3.1253 -0.39854,-4.6747 -0.19244,-1.3471 2.4534,-1.7251 2.64583,-0.378 z"
           id="path2060-0"
           style="fill:#000000;fill-opacity:1;stroke:#160808;stroke-width:0.26458332;stroke-miterlimit:4;stroke-dasharray:none;stroke-opacity:1" />
        <path
           d="m -745.92666,1359.9924 c -0.83291,0.9426 -1.72233,1.8397 -2.45422,2.8666 -0.61659,0.7487 -1.15965,1.5535 -1.69799,2.359 -0.55163,0.5973 -0.92271,1.3078 -1.2523,2.0435 0.0273,0.1856 0.0312,0.2645 0.0807,-0.3478 0.005,-0.061 -0.0331,-0.1226 -0.0212,-0.1828 0.0265,-0.1318 0.52631,0.04 0.94184,0.1117 1.19576,0.1666 2.40525,0.1765 3.61024,0.1839 1.01097,-0.079 1.96966,-0.3866 2.9428,-0.6448 1.14223,-0.296 2.31995,-0.376 3.49398,-0.4213 0.18492,0 0.36981,-0.01 0.5547,-0.013 1.36038,-0.031 1.42034,2.6415 0.06,2.6721 v 0 c -0.17108,0 -0.34219,0.01 -0.51327,0.011 -0.97734,0.037 -1.95921,0.092 -2.91139,0.3342 -1.2006,0.3169 -2.39128,0.6832 -3.64342,0.7337 -1.36263,-0.01 -2.73061,-0.025 -4.08096,-0.2287 -1.78311,-0.3455 -3.64548,-1.0546 -2.95056,-3.3075 0.39201,-0.8651 0.82765,-1.7279 1.47106,-2.4367 0.55959,-0.8278 1.11255,-1.6634 1.75056,-2.4342 0.82831,-1.1321 1.78668,-2.1536 2.7295,-3.1895 0.96215,-0.9622 2.85205,0.9277 1.88986,1.8898 z"
           id="path2062-2"
           style="fill:#000000;fill-opacity:1;stroke:#160808;stroke-width:0.26458332;stroke-miterlimit:4;stroke-dasharray:none;stroke-opacity:1" />
        <path
           d="m -1214.5408,1344.7428 c -0.031,2.0863 -0.2596,4.1659 -0.3899,6.2485 -0.071,1.6488 -0.386,3.2708 -0.5367,4.9131 -0.1287,1.7377 -0.1334,3.4815 -0.1437,5.2231 0.101,1.5641 -0.1655,3.1021 -0.3308,4.6494 -0.1547,1.6126 -0.1756,3.234 -0.1956,4.8527 -0.013,1.3344 -0.011,2.6689 -0.01,4.0034 0,1.0841 0,2.1684 0,3.2526 0,1.0659 0,2.1318 0,3.1978 0.028,1.151 0.015,2.2861 -0.17,3.4236 -0.1971,1.0076 -0.2831,2.0295 -0.3315,3.0534 -0.031,0.2236 -0.058,0.4477 -0.094,0.6706 -0.059,0.3698 -0.139,0.7361 -0.2009,1.1055 -0.033,0.1962 -0.089,0.7802 -0.012,0.5966 0.039,-0.092 0.014,-0.1997 0.02,-0.2996 0.9409,0.2196 1.9001,0.3143 2.8655,0.3635 1.0889,0.1115 2.141,-0.026 3.2095,-0.2087 1.2043,-0.2351 2.4015,-0.298 3.6168,-0.1423 1.0235,0.175 2.0564,0.2659 3.0926,0.3157 1.0003,0.028 1.9893,-0.2168 2.9812,-0.3378 1.1129,-0.1238 2.2333,-0.1446 3.3519,-0.1583 1.075,-0.01 2.15,-0.01 3.225,0 1.1978,0 2.3957,0 3.5935,0 1.1177,2e-4 2.2354,2e-4 3.3531,2e-4 1.0701,0 2.1403,0 3.2104,0 1.0684,0 2.1368,0 3.2052,0 1.069,0 2.138,0 3.207,0 1.0691,0 2.1382,0 3.2073,0 0.584,-0.024 1.1722,0.031 1.7558,0 0.1659,-0.01 0.6097,-0.022 0.4818,-0.1282 -0.038,-0.031 -0.098,0.01 -0.1462,0.012 -0.037,0.013 -0.076,0.058 -0.1115,0.04 -0.01,0 0.037,-1.2197 0.035,-1.6792 -0.2099,-0.9687 -0.2866,-1.965 -0.5105,-2.9292 -0.22,-1.0873 -0.5933,-2.1302 -0.8387,-3.2114 -0.3687,-1.0886 -0.5962,-2.2082 -0.7298,-3.3475 -0.097,-1.0734 -0.3543,-2.1226 -0.4906,-3.1928 -0.1159,-1.0757 -0.3846,-2.1254 -0.5281,-3.1992 -0.1313,-1.118 -0.1475,-2.2447 -0.159,-3.3689 -0.01,-1.0742 0,-2.1485 0,-3.2227 0,-1.0685 0,-2.1371 0,-3.2056 10e-5,-1.069 10e-5,-2.138 10e-5,-3.2069 0,-1.0691 0,-2.1382 0,-3.2073 0.1205,-1.1155 0.3395,-2.2144 0.4435,-3.3324 0.1488,-0.9766 -0.077,-1.9294 -0.2152,-2.8922 -0.2191,-1.0247 -0.068,-2.1012 -0.2668,-3.1226 -0.2401,-0.9554 -0.3627,-1.9297 -0.4352,-2.9103 0.1934,-0.1442 -0.2437,-1.2481 -0.2403,-0.8722 0.036,0.032 0.104,0.049 0.107,0.097 0.012,0.1924 -0.3606,0.1376 -0.5446,0.1953 -0.646,0.2024 -1.2811,0.435 -1.9291,0.6326 -1.2353,0.4949 -2.5118,0.831 -3.8269,1.0195 -1.1349,0.134 -2.2794,0.1364 -3.4205,0.1403 -1.07,-5e-4 -2.14,0 -3.21,-0.01 -1.0679,0 -2.1359,0 -3.2039,0 -1.069,-1e-4 -2.138,0 -3.207,0 -1.0691,0 -2.1381,0 -3.2072,0 -1.0691,0 -2.1382,0 -3.2073,0 -0.94,0.01 -1.8722,-0.062 -2.7957,0.1268 -1.0023,0.2334 -2.0269,0.3193 -3.0518,0.3715 -1.0778,0.042 -2.1568,0.04 -3.2353,0.04 -0.9899,0 -1.9799,0 -2.9699,0 -1.3607,0 -1.3584,-2.6739 0,-2.6727 v 0 c 0.9888,8e-4 1.9776,0 2.9664,0 1.0342,-5e-4 2.0688,0 3.1024,-0.037 0.896,-0.044 1.7918,-0.1161 2.6672,-0.324 1.0986,-0.2121 2.1987,-0.1969 3.3144,-0.1776 1.0691,0 2.1381,0 3.2072,0 1.0691,0 2.1382,0 3.2072,-1e-4 1.0692,0 2.1384,0 3.2075,1e-4 1.0697,2e-4 2.1394,5e-4 3.209,0 1.0652,0 2.1303,0.01 3.1955,0.01 1.0198,0 2.0425,0 3.0575,-0.1144 1.1803,-0.1617 2.3129,-0.4924 3.4215,-0.93 1.4081,-0.4266 2.8241,-1.1732 4.3169,-0.7696 1.2417,0.7184 1.7207,1.6387 1.7331,3.0797 0.065,0.9056 0.1899,1.8007 0.4088,2.6833 0.15,1.0494 0.1141,2.1137 0.2731,3.164 0.1676,1.1692 0.4062,2.3368 0.2306,3.5223 -0.098,1.0343 -0.2616,2.0575 -0.4318,3.082 0,1.0691 0,2.1382 0,3.2072 10e-5,1.0692 10e-5,2.1384 -10e-5,3.2076 0,1.0696 0,2.1392 0,3.2088 0,1.064 -0.01,2.1279 0,3.1918 0.01,1.0162 0.022,2.0346 0.1361,3.0456 0.1409,1.0792 0.4228,2.1325 0.5302,3.2152 0.1346,1.0798 0.404,2.1371 0.494,3.2214 0.118,1.0475 0.3525,2.066 0.6825,3.068 0.2401,1.0852 0.631,2.1285 0.841,3.2215 0.2453,1.1534 0.4018,2.3292 0.573,3.4952 0,1.2831 0.049,2.5859 -0.811,3.6372 -0.2284,0.1654 -0.4348,0.3667 -0.6854,0.496 -0.9748,0.5034 -2.1476,0.2434 -3.1915,0.3042 -1.0691,0 -2.1382,0 -3.2073,0 -1.069,0 -2.138,0 -3.2071,0 -1.0683,0 -2.1367,0 -3.2051,0 -1.0701,0 -2.1403,0 -3.2104,0 -1.1179,0 -2.2359,0 -3.3538,-2e-4 -1.1986,-2e-4 -2.3972,0 -3.5958,0 -1.0631,0 -2.1263,0 -3.1895,0 -1.0219,0.012 -2.0455,0.029 -3.0626,0.1391 -1.1414,0.1375 -2.2775,0.4189 -3.4325,0.3541 -1.1099,-0.054 -2.217,-0.1496 -3.3137,-0.3356 -0.9468,-0.1307 -1.8753,-0.054 -2.816,0.1272 -1.2614,0.2155 -2.5164,0.3594 -3.7993,0.2432 -1.6814,-0.09 -3.4359,-0.1917 -4.7813,-1.3241 -0.2051,-0.3548 -0.4795,-0.6777 -0.6153,-1.0643 -0.3179,-0.9049 0.2345,-1.9417 0.288,-2.8449 0.054,-1.1269 0.1498,-2.2518 0.3641,-3.3612 0.1666,-0.992 0.1507,-1.9828 0.1343,-2.9882 0,-1.0656 0,-2.1312 0,-3.1968 0,-1.0836 0,-2.1673 0,-3.251 0,-1.3464 0,-2.6928 0.01,-4.0392 0.021,-1.7032 0.045,-3.4092 0.2108,-5.1058 0.1583,-1.458 0.4163,-2.9046 0.3154,-4.379 0.011,-1.8181 0.017,-3.6387 0.1551,-5.4526 0.1497,-1.6162 0.4538,-3.213 0.5305,-4.8347 0.1271,-2.027 0.3483,-4.0513 0.3848,-6.0815 0,-1.3607 2.6727,-1.3607 2.6727,0 z"
           id="path2064-3"
           style="fill:#000000;fill-opacity:1;stroke:#160808;stroke-width:0.26458332;stroke-miterlimit:4;stroke-dasharray:none;stroke-opacity:1" />
        <path
           style="fill:#000000;fill-opacity:1;stroke:#160808;stroke-width:0.26458332;stroke-miterlimit:4;stroke-dasharray:none;stroke-opacity:1"
           id="path2066-7"
           d="m -700.48645,1359.7642 c -1.33483,-0.4446 -2.60819,-1.0507 -3.93163,-1.5247 -0.47287,-0.1054 -1.05011,-0.4152 -1.50175,-0.1028 -0.30684,0.4043 -0.9102,0.5121 -1.11083,1.0217 -0.44318,0.6553 -0.83471,1.335 -1.05717,2.0965 -0.12594,0.9013 -0.41883,1.7646 -0.59491,2.6555 -0.13788,0.8358 -0.165,1.6846 -0.18222,2.53 0.13494,0.4698 0.084,1.1368 0.48659,1.4877 0.41458,0.1083 0.85463,0.3113 1.28897,0.4312 0.77034,0.3615 1.55948,0.5906 2.40017,0.6995 0.84998,0.088 1.69193,0.1406 2.53058,-0.029 0.49858,-0.1969 0.87053,-0.4998 1.28344,-0.8296 0.45138,-0.566 1.03455,-0.9993 1.33676,-1.669 0.23426,-0.7393 0.31078,-1.5108 0.48223,-2.2668 0.20299,-0.8806 0.27313,-1.783 0.31993,-2.6832 0.0495,-0.4791 -0.0832,-0.8715 -0.40669,-1.2286 -0.2558,-0.1254 -0.49673,-0.244 -0.74946,-0.3859 -1.17919,-0.679 0.15457,-2.9951 1.33374,-2.3161 v 0 c 0.562,0.3412 1.16319,0.5758 1.57469,1.1265 0.60825,0.8864 1.03455,1.8391 0.91671,2.9449 -0.0562,1.0519 -0.14441,2.1054 -0.38257,3.1341 -0.22013,0.9686 -0.29011,1.9724 -0.70704,2.8882 -0.52496,0.9812 -1.26593,1.7686 -2.0538,2.547 -0.74256,0.5895 -1.50842,1.1125 -2.43981,1.3624 -1.12776,0.212 -2.25758,0.19 -3.39608,0.053 -0.96054,-0.1334 -1.90423,-0.3442 -2.77916,-0.7789 -1.00216,-0.2941 -2.00279,-0.64 -2.72132,-1.4384 -0.62381,-0.9419 -0.93578,-1.9715 -0.99001,-3.1052 0.0212,-1.0038 0.059,-2.0115 0.23428,-3.0023 0.19992,-0.9783 0.50067,-1.9294 0.66112,-2.9158 0.30596,-0.9603 0.74491,-1.8545 1.31982,-2.6845 0.61727,-0.9454 1.46441,-1.5652 2.42898,-2.1349 1.15112,-0.3955 2.23835,-0.3499 3.38238,0.078 1.37046,0.4979 2.69552,1.1124 4.07689,1.582 1.25068,0.536 0.19788,2.9926 -1.05283,2.4566 z" />
        <path
           style="fill:#000000;fill-opacity:1;stroke:#160808;stroke-width:0.26458332;stroke-miterlimit:4;stroke-dasharray:none;stroke-opacity:1"
           id="path2068-5"
           d="m -677.14878,1355.7878 c 1.56112,-0.07 3.10378,0.053 4.64987,0.2531 1.12869,0.1609 2.26626,0.2294 3.40482,0.2644 1.05407,-0.053 2.0742,0.084 3.1039,0.2879 1.33488,0.2639 0.81651,2.8859 -0.51837,2.6219 v 0 c -0.88918,-0.1758 -1.75424,-0.2978 -2.66829,-0.2384 -1.2255,-0.038 -2.44991,-0.113 -3.66488,-0.2852 -1.43306,-0.1855 -2.85935,-0.3026 -4.30705,-0.231 -1.36072,0 -1.36072,-2.6727 0,-2.6727 z" />
        <path
           style="fill:#000000;fill-opacity:1;stroke:#160808;stroke-width:0.26458332;stroke-miterlimit:4;stroke-dasharray:none;stroke-opacity:1"
           id="path2070-9"
           d="m -675.64901,1357.7391 c 0.37846,1.4869 0.73522,2.9828 1.19734,4.4467 -0.29665,-0.9049 0.94547,3.3088 0.77465,2.3792 0.40264,-0.2259 -0.48839,-0.1708 -0.38679,-0.2979 0.17478,-0.2188 1.61001,-0.5486 1.90394,-0.6274 1.14964,-0.2782 2.33344,-0.3309 3.5106,-0.3629 1.1394,-0.084 2.2544,0.091 3.32949,0.4591 1.18758,0.6798 2.1178,1.6566 2.91118,2.7558 0.79769,1.3301 1.14514,2.5097 0.82127,4.0414 -0.56785,1.5046 -2.06251,1.7156 -3.46766,1.8172 -1.11588,0.048 -2.23327,0.029 -3.34978,0.021 -1.07239,-0.01 -2.14482,-0.011 -3.21723,-0.012 -0.86913,0 -1.73823,0 -2.60736,0 -1.3607,-10e-5 -1.3606,-2.6727 1.3e-4,-2.6727 v 0 c 0.8704,0 1.74077,10e-5 2.61117,0 1.07723,0 2.15445,0 3.23165,0.012 1.04928,0.01 2.09928,0.025 3.14812,-0.015 0.0465,0 1.1253,-0.085 1.12471,-0.08 -0.01,0.084 -0.0776,0.152 -0.096,0.2344 -0.005,0.022 0.0355,-0.028 0.0533,-0.043 0.26336,0 -0.24744,-1.5942 -0.43246,-1.7582 -0.46549,-0.6749 -1.04963,-1.2732 -1.66048,-1.7959 -0.71974,-0.3296 -1.5568,-0.31 -2.32846,-0.2932 -0.97086,0.026 -1.94842,0.058 -2.89928,0.2751 -0.91498,0.2375 -1.97744,0.8751 -2.93769,0.7533 -0.3374,-0.043 -0.63963,-0.2315 -0.95944,-0.3472 -0.20325,-0.2067 -0.43637,-0.3878 -0.60976,-0.6201 -0.64754,-0.8676 -0.59552,-2.063 -1.01861,-3.0261 -0.46162,-1.4872 -0.84032,-2.9996 -1.21635,-4.5102 -0.37383,-1.3084 2.19604,-2.0426 2.56985,-0.7343 z" />
        <path
           style="fill:#000000;fill-opacity:1;stroke:#160808;stroke-width:0.26458332;stroke-miterlimit:4;stroke-dasharray:none;stroke-opacity:1"
           id="path2072-2"
           d="m -868.10903,1355.7791 c 0.21069,1.65 0.57208,3.2749 0.79888,4.9236 0.082,1.3111 -0.118,2.615 -0.21941,3.9194 -0.0741,1.0364 -0.0859,2.0758 -0.0943,3.1144 0.0741,1.1444 -0.1723,2.2622 -0.33917,3.3865 -0.14097,1.006 -0.17008,2.0222 -0.18979,3.0362 -0.008,0.6993 -0.005,0.3491 -0.009,1.0508 -0.008,1.3607 -2.68065,1.345 -2.67266,-0.016 v 0 c 0.004,-0.7237 0,-0.3612 0.01,-1.0874 0.0222,-1.1283 0.0588,-2.2586 0.21841,-3.3774 0.14968,-1.0027 0.38397,-1.9936 0.31012,-3.0146 0.009,-1.1008 0.0228,-2.2023 0.10229,-3.3007 0.0873,-1.1153 0.24416,-2.2284 0.23611,-3.3485 -0.22439,-1.6439 -0.59063,-3.263 -0.79679,-4.9086 -0.19243,-1.3471 2.4534,-1.725 2.64583,-0.378 z" />
        <path
           style="fill:#000000;fill-opacity:1;stroke:#160808;stroke-width:0.26458332;stroke-miterlimit:4;stroke-dasharray:none;stroke-opacity:1"
           id="path2074-2"
           d="m -1029.6676,1356.9879 c -0.184,1.8794 -0.4133,3.7518 -0.6496,5.6257 -0.3284,1.515 -0.5346,3.0561 -0.861,4.5703 -0.2779,1.0099 -0.4253,2.042 -0.5005,3.0843 -0.041,0.6793 -0.047,1.3599 -0.053,2.0402 -0.013,1.3607 -2.6852,1.336 -2.6726,-0.024 v 0 c 0.01,-0.7375 0.014,-1.4753 0.06,-2.2116 0.087,-1.1694 0.2479,-2.3297 0.556,-3.4637 0.325,-1.4302 0.4864,-2.899 0.8193,-4.3294 0.2382,-1.8884 0.4678,-3.7753 0.6554,-5.6692 0.1925,-1.347 2.8383,-0.969 2.6459,0.378 z" />
      </g>
      <path
         d="m -1176.1647,1419.5631 c -0.5909,1.6095 -0.9264,3.296 -1.1589,4.9901 -0.1491,1.1846 -0.1701,2.3791 -0.1785,3.5713 0,0.01 0,1.0562 3e-4,1.0681 8e-4,0 1.0569,0.6344 1.248,0.7479 1.9299,1.0134 4.0583,1.5329 6.1917,1.9036 1.5829,0.2324 3.1734,0.432 4.767,0.2379 1.8247,-0.4854 3.6813,-0.8015 5.5536,-1.0319 2.9905,-0.4055 5.997,-0.6759 9.0084,-0.8638 2.4273,-0.1225 4.8586,-0.1158 7.2883,-0.1195 1.8609,0.1056 3.6997,-0.1694 5.5492,-0.3121 3.4062,-0.2418 6.821,0 10.2277,0.1156 2.0986,0.2057 4.2029,-0.09 6.3018,-0.012 0.7957,0.029 1.4962,0.1287 2.2824,0.223 2.0804,0.4228 4.1953,0.6577 6.2551,1.1741 0.9844,0.2114 1.9463,0.6296 2.9547,0.7349 0.4766,0.05 0.9368,-0.028 1.4101,-0.076 2.4078,-0.4072 4.8035,-0.8752 7.2038,-1.3232 1.9013,-0.2964 3.8006,-0.5903 5.6788,-1.0125 2.0761,-0.5271 4.1376,-1.1066 6.2093,-1.6494 2.2696,-0.4756 4.6072,-0.4789 6.9168,-0.5227 2.6357,-0.027 5.2716,-0.016 7.9074,-0.012 2.4507,0 4.9013,0.01 7.3519,0.01 2.3304,8e-4 4.6607,5e-4 6.9911,5e-4 2.4063,0 4.8127,0 7.2191,-10e-5 3.0298,0 6.0596,0 9.0894,0 2.4178,-0.1541 4.7861,0.2422 7.158,0.6471 3.0757,0.4376 6.1554,0.8573 9.2433,1.2019 2.3561,0.2224 4.7243,0.265 7.0893,0.2921 2.2365,-0.1564 4.4717,-0.2988 6.6968,-0.5776 1.8722,-0.2903 3.7617,-0.4005 5.653,-0.4611 1.4629,-0.038 2.9265,-0.04 4.3898,-0.039 1.0979,0 2.1957,0 3.2936,0 1.53959,-0.062 3.0671,0.1287 4.59916,0.247 2.85563,0.192 5.7184,0.234 8.57937,0.2709 2.46709,5e-4 4.93683,0.084 7.40155,-0.041 2.0803,-0.094 4.1307,-0.4618 6.19264,-0.7262 1.72154,-0.2335 3.45884,-0.2605 5.19291,-0.2804 2.26026,0.047 4.50712,-0.025 6.75614,-0.2435 1.96323,-0.2376 3.94263,-0.211 5.9129,-0.3386 2.33156,-0.08 4.61161,-0.5392 6.88221,-1.0328 2.04624,-0.4009 4.10623,-0.6973 6.18165,-0.8938 1.55178,-0.1431 3.11012,-0.1638 4.66722,-0.1735 1.67085,0 3.34166,5e-4 5.01251,0 1.36996,-0.019 2.72028,0.2591 4.07984,0.397 1.50604,0.2194 2.96477,0.6464 4.43821,1.0108 1.69468,0.5158 3.42069,0.9077 5.17718,1.1343 1.20927,0.2574 2.41601,0.4857 3.64871,0.587 1.37035,0.082 2.74386,0.083 4.11615,0.086 1.15604,0.091 2.28134,-0.1462 3.41757,-0.3116 1.25245,-0.1705 2.51838,-0.1982 3.78042,-0.2208 1.33892,-0.016 2.67803,-0.011 4.01703,-0.01 1.20671,0 2.41342,0 3.62014,0 1.67256,0.092 3.29927,0.5066 4.94696,0.7778 1.64082,0.2681 3.30761,0.2654 4.9652,0.2869 1.68209,0.097 3.35222,0.3241 5.03193,0.4507 1.13972,0.096 2.26856,0.112 3.40034,-0.048 1.18663,-0.2026 2.38437,-0.3078 3.58595,-0.3603 1.46558,-0.1965 2.93362,-0.366 4.40836,-0.4752 1.19996,-0.081 2.40292,-0.093 3.60516,-0.1 1.31043,0 2.62088,2e-4 3.93134,0 1.48103,-0.1233 2.95301,-0.3258 4.43563,-0.4327 1.377,-0.1214 2.6943,-0.5437 4.03968,-0.8325 1.30675,-0.2124 2.61406,-0.4258 3.91129,-0.6925 1.5558,-0.2372 3.074,-0.6513 4.61772,-0.9488 1.20097,-0.2223 2.42197,-0.2732 3.64003,-0.2985 0.94736,-0.013 1.89484,-0.01 2.84223,0 1.10821,-0.069 2.18996,0.079 3.27832,0.2651 1.07963,0.3498 2.19747,0.5328 3.29727,0.7961 0.97535,0.2878 1.97897,0.4225 2.98995,0.4959 1.1022,0.052 2.17805,0.3205 3.27215,0.4539 1.0015,0.1162 2.01012,0.075 3.00807,0.2117 0.91001,0.1005 1.72969,0.5132 2.59226,0.7814 0.68675,0.1792 1.40039,0.1856 2.10545,0.2045 0.19177,-0.081 0.94292,0.178 1.0678,-0.039 0.0286,-0.05 -0.12258,-0.029 -0.17179,2e-4 -0.40119,0.2391 -0.39232,0.2662 -0.56205,0.5441 -0.13777,-0.8956 -0.22289,-1.7974 -0.28335,-2.7011 -0.0563,-1.0288 -0.30138,-2.0376 -0.44775,-3.0577 -0.11269,-0.8813 -0.37335,-1.7355 -0.52745,-2.6121 -0.26318,-0.7428 -0.46315,-1.4992 -0.58938,-2.2771 -0.10142,-0.4361 0,-1.2205 -0.35391,-1.5796 -0.0267,-0.035 -0.0534,-0.071 -0.0802,-0.1063 -1.04428,-1.5752 1.18332,-3.052 2.22761,-1.4769 v 0 c 0.0761,0.1197 0.15229,0.2394 0.22844,0.3591 0.35158,0.7558 0.59187,1.5475 0.6182,2.3881 0.11525,0.7677 0.37597,1.4899 0.58256,2.2357 0.15409,0.9028 0.43529,1.7799 0.5398,2.6902 0.15536,1.0868 0.41656,2.1615 0.46887,3.2595 0.066,1.0017 0.20455,1.994 0.28673,2.9938 -0.0436,0.2714 -0.0114,0.5667 -0.13076,0.8143 -0.59716,1.2371 -1.76152,1.2942 -2.94659,1.2365 -0.95554,-0.027 -1.91979,-0.058 -2.84368,-0.3297 -0.73113,-0.2367 -1.42611,-0.5808 -2.19345,-0.6873 -0.95285,-0.1914 -1.96295,-0.013 -2.92219,-0.1997 -1.05117,-0.1306 -2.08566,-0.3819 -3.14272,-0.4411 -1.15832,-0.087 -2.30984,-0.241 -3.42877,-0.5654 -1.03378,-0.2617 -2.09991,-0.3982 -3.11062,-0.7574 -0.94472,-0.1612 -1.87209,-0.3012 -2.8361,-0.227 -0.92675,0 -1.85356,-0.01 -2.78027,0 -1.0674,0.022 -2.13794,0.06 -3.19108,0.2512 -1.53382,0.2929 -3.04136,0.7092 -4.58714,0.9427 -1.28968,0.2613 -2.5872,0.4835 -3.88686,0.6874 -1.46661,0.3119 -2.90332,0.7736 -4.40753,0.8848 -1.54684,0.1098 -3.08102,0.3392 -4.62852,0.4394 -1.30519,-10e-4 -2.6104,0 -3.91559,0 -1.1412,0.01 -2.28312,0.016 -3.42226,0.093 -1.50219,0.1103 -2.99516,0.2976 -4.48995,0.48 -1.11699,0.047 -2.2298,0.1478 -3.33264,0.3372 -1.32149,0.1811 -2.6408,0.1817 -3.97018,0.066 -1.62425,-0.1232 -3.23985,-0.3345 -4.86521,-0.4434 -1.79173,-0.023 -3.59259,-0.028 -5.36554,-0.3222 -1.50489,-0.2489 -2.99029,-0.6169 -4.51278,-0.7422 -1.20714,-5e-4 -2.41427,0 -3.62141,0 -1.32241,0 -2.6449,-0.01 -3.96727,0.01 -1.14929,0.02 -2.30243,0.042 -3.44344,0.1934 -1.26458,0.1835 -2.52336,0.4297 -3.8091,0.3394 -1.44412,0 -2.88957,0 -4.33144,-0.095 -1.27286,-0.1077 -2.52527,-0.3188 -3.77151,-0.6002 -1.85621,-0.2436 -3.68464,-0.643 -5.47597,-1.1906 -1.35073,-0.3365 -2.68774,-0.725 -4.06511,-0.9458 -1.27106,-0.13 -2.53371,-0.389 -3.81286,-0.3833 -1.66404,0 -3.32809,-0.01 -4.99213,0 -1.47878,0.01 -2.95884,0.027 -4.43267,0.1617 -1.96916,0.1852 -3.92316,0.4666 -5.86497,0.8446 -2.40149,0.5221 -4.81489,0.9983 -7.2799,1.0884 -1.94114,0.1221 -3.89041,0.1026 -5.82465,0.3315 -2.3246,0.2255 -4.64793,0.3044 -6.98396,0.2558 -1.63069,0.018 -3.26471,0.039 -4.88373,0.2589 -2.13086,0.2728 -4.25013,0.6513 -6.40027,0.7446 -2.52064,0.1217 -5.04519,0.051 -7.56808,0.044 -2.91828,-0.038 -5.8384,-0.081 -8.75115,-0.2787 -1.46472,-0.1136 -2.92335,-0.301 -4.39528,-0.2389 -1.0976,0 -2.1952,0 -3.2928,0 -1.4344,-8e-4 -2.869,2e-4 -4.303,0.037 -1.809,0.057 -3.616,0.1618 -5.4064,0.4417 -2.345,0.2929 -4.7013,0.4495 -7.0593,0.5981 -2.4538,-0.028 -4.9109,-0.074 -7.3552,-0.3084 -3.1392,-0.3508 -6.2705,-0.7764 -9.397,-1.2236 -2.2247,-0.3806 -4.4388,-0.7644 -6.7077,-0.6088 -3.0298,0 -6.0596,0 -9.0894,0 -2.4064,0 -4.8127,0 -7.2191,0 -2.3307,0 -4.6613,10e-5 -6.992,-5e-4 -2.4517,-8e-4 -4.9034,0 -7.3551,-0.01 -2.6176,0 -5.2353,-0.015 -7.8528,0.012 -2.099,0.039 -4.2229,0.037 -6.2906,0.4361 -2.1027,0.5497 -4.1941,1.1399 -6.3017,1.6719 -1.91,0.4266 -3.8391,0.7352 -5.7729,1.0318 -2.4845,0.4634 -4.9636,0.9539 -7.4589,1.3582 -1.9612,0.1548 -3.4004,-0.1312 -5.2577,-0.7311 -1.9453,-0.5015 -3.9543,-0.6901 -5.9181,-1.1113 -2.8066,-0.3422 -5.5365,-0.056 -8.3554,-0.1936 -3.3078,-0.1138 -6.6235,-0.3504 -9.9311,-0.1218 -1.9158,0.1464 -3.8221,0.4269 -5.7498,0.3199 -2.3755,0 -4.7528,0 -7.1261,0.1144 -2.9587,0.1841 -5.9125,0.4505 -8.8507,0.8493 -1.8785,0.2274 -3.7292,0.5782 -5.5657,1.0333 -1.8538,0.2115 -3.7009,0.029 -5.5404,-0.2599 -2.4602,-0.4349 -4.9102,-1.0504 -7.1203,-2.2535 -1.7057,-1.0575 -2.7068,-1.9816 -2.5308,-4.1177 0.01,-1.3082 0.037,-2.6188 0.2037,-3.9182 0.263,-1.8891 0.6411,-3.7686 1.3038,-5.5625 0.6636,-1.7695 3.1661,-0.8311 2.5026,0.9385 z"
         id="path3961"
         style="fill:#000000;fill-opacity:1;stroke:none;stroke-width:3.29999995;stroke-linecap:butt;stroke-miterlimit:4;stroke-dasharray:none;stroke-opacity:1;paint-order:markers stroke fill" />
      <path
         d="m -824.79832,1418.5409 c 0.62614,-1.3548 1.52683,-2.5366 2.4502,-3.6966 0.47104,-0.5483 0.71432,-1.2151 1.04974,-1.8382 0.24365,-0.2002 0.43733,-0.4856 0.73093,-0.6007 1.1678,-0.4578 2.25396,0.3302 3.13627,0.9638 0.85786,0.7386 1.81539,1.3386 2.73246,1.9958 0.80809,0.5758 1.588,1.215 2.31317,1.8942 0.0754,0.064 0.15081,0.1282 0.22625,0.1923 1.43129,1.2341 -0.31399,3.2583 -1.7453,2.0242 v 0 c -0.11237,-0.098 -0.22471,-0.1956 -0.33708,-0.2934 -0.60029,-0.6186 -1.3353,-1.1365 -2.02301,-1.6514 -0.90767,-0.664 -1.8752,-1.2478 -2.72555,-1.9909 -0.24344,-0.1748 -0.47937,-0.3949 -0.74993,-0.5282 -0.0435,-0.021 -0.17595,-0.032 -0.13409,-0.056 0.99269,-0.5784 0.10869,0.3125 0.86733,-0.5741 -0.31877,0.7072 -0.73716,1.4853 -1.25064,2.1276 -0.83973,1.0533 -1.66023,2.1206 -2.22019,3.3574 -0.93766,1.6409 -3.25821,0.3149 -2.32056,-1.326 z"
         id="path3963"
         style="fill:#000000;fill-opacity:1;stroke:none;stroke-width:3.29999995;stroke-linecap:butt;stroke-miterlimit:4;stroke-dasharray:none;stroke-opacity:1;paint-order:markers stroke fill" />
    </g>
  </g>
</svg>
