<?xml version="1.0" encoding="UTF-8" standalone="no"?>
<svg
   xmlns:dc="http://purl.org/dc/elements/1.1/"
   xmlns:cc="http://creativecommons.org/ns#"
   xmlns:rdf="http://www.w3.org/1999/02/22-rdf-syntax-ns#"
   xmlns:svg="http://www.w3.org/2000/svg"
   xmlns="http://www.w3.org/2000/svg"
   id="svg8"
   version="1.1"
   viewBox="0 0 99.999558 59.99893">
  <defs
     id="defs2" />
  <metadata
     id="metadata5">
    <rdf:RDF>
      <cc:Work
         rdf:about="">
        <dc:format>image/svg+xml</dc:format>
        <dc:type
           rdf:resource="http://purl.org/dc/dcmitype/StillImage" />
        <dc:title></dc:title>
      </cc:Work>
    </rdf:RDF>
  </metadata>
  <g
     transform="translate(945.04587,-267.24364)"
     id="layer1">
    <g
       transform="matrix(0.95745942,0,0,0.94719842,-40.203488,17.278568)"
       style="fill:#cca43b;fill-opacity:1"
       id="g1506">
      <path
         id="path1327"
         d="m -879.02304,300.57837 c -0.10341,0.25164 -0.29629,0.88286 -0.4284,1.40268 -0.22944,0.90267 -1.00783,2.78535 -1.60228,3.87542 -0.43214,0.79242 -1.75519,1.67628 -4.62424,3.08925 -2.99114,1.47308 -3.68024,1.6915 -6.04655,1.91651 l -1.56926,0.14923 -2.32331,-0.30682 c -2.54368,-0.33592 -3.88823,-0.62251 -6.66078,-1.41976 -1.45563,-0.41857 -2.02284,-0.64928 -2.77617,-1.12923 -1.09849,-0.69984 -2.449,-2.00723 -2.83914,-2.74851 -0.14911,-0.28327 -0.42939,-0.7935 -0.62289,-1.13381 -0.1935,-0.34032 -0.48176,-1.00815 -0.64057,-1.48409 -0.15882,-0.47595 -0.52018,-1.31975 -0.80302,-1.87511 -0.69266,-1.36004 -0.86972,-2.14145 -0.91625,-4.04361 -0.0374,-1.52352 -0.33345,-3.11217 -0.74134,-3.97607 -0.10105,-0.21417 -0.22451,-0.85805 -0.27414,-1.43082 -0.10471,-1.2068 0.19358,-2.36376 0.93941,-3.64446 0.3165,-0.54346 0.51794,-1.11922 0.53591,-1.53168 0.0164,-0.36348 0.17635,-1.25243 0.35659,-1.97542 0.18036,-0.723 0.34135,-1.64646 0.35718,-2.05221 0.0176,-0.40576 0.2117,-1.16415 0.43497,-1.68539 0.2228,-0.52128 0.47059,-1.1341 0.55069,-1.3618 0.48353,-1.37449 2.24221,-2.62484 6.10044,-4.33723 3.68267,-1.63447 4.23862,-1.78922 7.25067,-2.01819 1.81537,-0.13803 3.21922,-0.0924 4.61458,0.14992 1.13101,0.19647 4.63216,1.21942 6.84074,1.99871 1.67446,0.59076 2.75217,1.42957 3.56269,2.77263 l 0.58198,0.9644 -0.12627,5.33093 c -0.0693,2.93201 -0.0497,5.76061 0.0438,6.28578 0.0934,0.52516 0.15157,1.51999 0.12911,2.21071 -0.0231,0.69076 0.0748,1.68122 0.2164,2.20111 0.14146,0.51991 0.24841,1.32691 0.23768,1.79334 -0.0107,0.46643 0.0558,1.11455 0.14776,1.44027 0.25907,0.91723 0.30094,2.06886 0.0935,2.57315 z"
         style="fill:#cca43b;fill-opacity:0.50196078;stroke:#000000;stroke-width:0.12539358;stroke-miterlimit:4;stroke-dasharray:none;stroke-opacity:1" />
      <path
         style="fill:#cca43b;fill-opacity:1;stroke:#000000;stroke-width:0.26458332;stroke-miterlimit:4;stroke-dasharray:none;stroke-opacity:1"
         d="m -894.64062,264.03479 c -0.25714,0.0145 -0.45228,0.48907 -0.18604,0.62218 0.28438,0.1345 0.57106,0.26326 0.86041,0.38654 0.15575,0.38146 0.28624,0.77303 0.41858,1.16324 0.15102,0.4617 0.27584,0.93037 0.41083,1.39681 0.0756,0.38377 0.15987,0.76474 0.25993,1.14309 0.0558,0.20204 0.0895,0.40834 0.11524,0.61598 0.0425,0.3375 0.70551,0.25433 0.66301,-0.0832 -0.0302,-0.23699 -0.0686,-0.47311 -0.13229,-0.70383 -0.10139,-0.38335 -0.18397,-0.76941 -0.26407,-1.15755 -0.13777,-0.47609 -0.26522,-0.95454 -0.41961,-1.42576 -0.0726,-0.2141 -0.14686,-0.42778 -0.22273,-0.64079 0.22701,0.0697 0.45534,0.13569 0.6842,0.19999 0.28218,0.10695 0.55453,0.23892 0.83251,0.35709 0.27093,0.0927 0.54542,0.152 0.81183,0.25786 0.18005,0.10342 0.35239,0.22338 0.48111,0.38809 0.10072,0.1865 0.17031,0.38805 0.21601,0.5948 0.0547,0.20325 0.0228,0.38548 -0.047,0.57722 -0.0781,0.20733 -0.2201,0.36021 -0.37052,0.51728 -0.22611,0.22445 -0.48387,0.41344 -0.72502,0.62167 -0.23992,0.21876 -0.48289,0.43398 -0.73535,0.63821 -0.12187,0.11758 -0.2459,0.23346 -0.38396,0.33176 -0.27466,0.20068 0.1196,0.74022 0.39429,0.5395 0.14475,-0.10752 0.28395,-0.22225 0.4098,-0.35192 0.25796,-0.20878 0.50678,-0.42795 0.75189,-0.65164 0.25718,-0.22233 0.53365,-0.42327 0.77204,-0.6661 0.21373,-0.22453 0.40693,-0.45884 0.51573,-0.75396 0.0219,-0.0621 0.0388,-0.12424 0.0548,-0.18656 0.10585,0.30428 0.27013,0.58323 0.45785,0.84388 0.24892,0.2976 0.55508,0.53746 0.87333,0.75603 0.28968,0.1974 0.59777,0.36782 0.91106,0.52451 0.28906,0.12221 0.59779,0.1994 0.90434,0.2651 0.36229,0.0845 0.72594,0.0636 1.0914,0.0217 0.30324,-0.0655 0.60687,-0.12876 0.90073,-0.22893 0.15463,-0.0552 0.0703,-0.0173 0.24598,-0.12506 0.27458,-0.20082 -0.11972,-0.74032 -0.3943,-0.5395 0.0572,-0.002 0.0325,-0.003 -0.0677,0.0326 -0.24868,0.0851 -0.50575,0.1355 -0.7612,0.1974 -0.2944,0.0341 -0.58499,0.0585 -0.87746,-0.0119 -0.25183,-0.052 -0.50417,-0.11739 -0.74414,-0.20929 -0.28657,-0.14195 -0.56717,-0.29848 -0.83199,-0.478 -0.25633,-0.17357 -0.5015,-0.3663 -0.70952,-0.59687 -0.0763,-0.10437 -0.14777,-0.212 -0.21136,-0.32452 0.36478,-0.0788 0.7355,-0.12717 1.10691,-0.16123 0.43016,-0.0528 0.84224,-0.19622 1.25264,-0.3297 0.37544,-0.14957 0.77597,-0.23385 1.13171,-0.42943 0.29532,-0.16883 -0.0364,-0.74866 -0.33176,-0.57981 -0.30404,0.1895 -0.68564,0.22016 -1.00666,0.37362 -0.36316,0.11835 -0.72782,0.24732 -1.10742,0.29972 -0.42451,0.0393 -0.84806,0.0958 -1.26401,0.19069 -0.0204,-0.12859 -0.0351,-0.2582 -0.0351,-0.38964 0.051,-0.31115 0.12458,-0.61874 0.13488,-0.93534 0.0239,-0.22943 0.0494,-0.45847 0.0667,-0.68834 0.31577,-0.0718 0.63277,-0.13675 0.95446,-0.17673 0.30184,-0.0706 0.61026,-0.10725 0.91313,-0.17105 0.2233,-0.0484 0.44479,-0.0937 0.66249,-0.16381 0.32374,-0.10451 0.11856,-0.74013 -0.20516,-0.63562 -0.19674,0.0638 -0.39757,0.10114 -0.59944,0.14624 -0.2821,0.0642 -0.57322,0.0887 -0.85421,0.16123 -0.28856,0.0364 -0.57365,0.0911 -0.85732,0.154 -0.0202,-0.32442 -0.66662,-0.31988 -0.66662,0.015 0.0206,0.43251 -0.034,0.86076 -0.0786,1.28984 -0.007,0.25426 -0.058,0.50241 -0.10336,0.75137 -0.0612,-0.17005 -0.13658,-0.33439 -0.23822,-0.48472 -0.2082,-0.24403 -0.45946,-0.44252 -0.74931,-0.58291 -0.26178,-0.10393 -0.52853,-0.17157 -0.79737,-0.25167 -0.30419,-0.12872 -0.60123,-0.2767 -0.91312,-0.3855 -0.33042,-0.0928 -0.66054,-0.18287 -0.98495,-0.29559 -0.069,-0.0256 -0.13581,-0.0564 -0.20413,-0.0837 -0.0179,-0.0401 -0.0341,-0.0811 -0.0527,-0.12092 -0.072,-0.16789 -0.28058,-0.16693 -0.43926,-0.0842 -0.19217,-0.0862 -0.38352,-0.17507 -0.57412,-0.26458 -0.0381,-0.019 -0.0759,-0.0264 -0.11265,-0.0243 z m 12.86743,0.004 c -0.0911,0.004 -0.18262,0.0136 -0.27441,0.0305 -0.34586,0.0943 -0.68193,0.22309 -1.00252,0.38396 -0.14736,0.0701 -0.29122,0.14692 -0.43408,0.22531 -0.15302,-0.002 -0.31881,0.081 -0.37207,0.20929 -0.14828,0.0854 -0.29613,0.17117 -0.44545,0.25476 -0.29536,0.16878 0.0359,0.74911 0.33124,0.58033 0.0792,-0.0437 0.15721,-0.0897 0.23565,-0.13488 0.0753,0.26944 0.16231,0.53578 0.25683,0.80047 0.16016,0.34565 0.2743,0.70311 0.3328,1.07901 0.0338,0.27011 0.0367,0.54251 0.0367,0.81442 0,0.20929 5.3e-4,0.41861 -0.003,0.62787 -0.004,0.33966 0.66366,0.3474 0.66766,0.007 0.003,-0.21238 0.003,-0.42477 0.003,-0.63717 -5.3e-4,-0.16387 -0.002,-0.32817 -0.009,-0.49196 0.17967,0.13124 0.39065,0.24673 0.51211,0.31161 0.33043,0.16611 0.64881,0.35534 0.98857,0.50229 0.28,0.10797 0.51244,0.29445 0.73691,0.48834 0.24845,0.24609 0.54182,0.43569 0.82527,0.63717 0.12766,0.076 0.24429,0.16747 0.36639,0.25167 0.28023,0.19281 0.65905,-0.35807 0.37879,-0.55087 -0.11955,-0.082 -0.23376,-0.17147 -0.35864,-0.24547 -0.26673,-0.18928 -0.5428,-0.36649 -0.77566,-0.59893 -0.27678,-0.23768 -0.56691,-0.46188 -0.91003,-0.59634 -0.32485,-0.13727 -0.62502,-0.32529 -0.94154,-0.48008 -0.0813,-0.0414 -0.15942,-0.0865 -0.23616,-0.13487 0.0514,-0.013 0.10289,-0.0252 0.15348,-0.0403 0.32602,-0.1116 0.62542,-0.27906 0.90072,-0.48679 0.30789,-0.23444 0.59918,-0.49655 0.76584,-0.85369 0.14661,-0.41325 0.10976,-0.73038 -0.11679,-1.10692 -0.21246,-0.29691 -0.47753,-0.55431 -0.80873,-0.71623 -0.26148,-0.0934 -0.53089,-0.14048 -0.80409,-0.12971 z m -24.99589,0.2129 c -0.31618,0.0265 -0.62987,0.0723 -0.94517,0.10646 -0.32248,0.002 -0.64646,0.002 -0.96583,0.0532 -0.38164,0.0694 -0.75312,0.18167 -1.11208,0.32918 v -10e-4 c -0.30602,0.13115 -0.0598,0.72072 0.24392,0.62012 0.10138,0.29556 0.202,0.59143 0.30437,0.88677 0.1075,0.27676 0.16649,0.56539 0.19379,0.8599 0.0113,0.15725 0.0136,0.31472 0.0145,0.47232 -0.0728,0.0232 -0.0362,0.1384 5.3e-4,0.47284 -0.001,0.20926 -0.003,0.41857 -0.003,0.62787 4e-5,0.26738 0,0.53462 0,0.80201 -10e-6,0.26731 0,0.53473 0,0.80202 v 0.53485 c 0,0.34018 0.66818,0.34018 0.66818,0 v -0.53485 c 0,-0.26726 0,-0.53422 0,-0.8015 v -0.8015 c 0,-0.0658 2.4e-4,-0.13161 5.3e-4,-0.19741 0.42278,0.15766 0.85413,0.291 1.28054,0.43926 0.39423,0.1183 0.76017,0.2829 1.11156,0.49454 0.29826,0.20908 0.60521,0.41475 0.87953,0.65526 0.16364,0.13539 0.0789,0.0721 0.25477,0.18861 0.28639,0.18354 0.6466,-0.37869 0.36018,-0.56224 -0.10772,-0.0642 -0.046,-0.0235 -0.17776,-0.13229 -0.30641,-0.26201 -0.63867,-0.49586 -0.97204,-0.72192 -0.39106,-0.23482 -0.79967,-0.41987 -1.23713,-0.55294 -0.22671,-0.0788 -0.45461,-0.15356 -0.68213,-0.22944 0.25369,-0.0913 0.49462,-0.21212 0.7245,-0.35812 0.33978,-0.22549 0.61671,-0.50918 0.81081,-0.87126 0.15121,-0.28527 0.30167,-0.57577 0.39377,-0.88625 0.0797,-0.36775 0.0424,-0.72634 -0.12092,-1.06919 -0.23074,-0.38394 -0.55551,-0.64618 -1.02578,-0.62528 z m 11.19363,0.0884 c -0.22691,-0.0102 -0.51347,0.24104 -0.37982,0.45837 0.12528,0.2037 0.22868,0.41484 0.33641,0.62838 0.16558,0.27268 0.32257,0.5507 0.49558,0.81856 0.15108,0.215 0.25079,0.43897 0.30179,0.69866 0.0669,0.23387 0.0978,0.47567 0.0879,0.71882 0.001,0.26262 0.005,0.5255 -0.003,0.78807 -0.008,0.16036 -0.0178,0.32251 -0.0734,0.47491 -0.0686,0.16022 -0.30742,0.0142 -0.39222,-0.0413 -0.29369,-0.16611 -0.56821,-0.36423 -0.81856,-0.59066 -0.29223,-0.24961 -0.58141,-0.50079 -0.84181,-0.78445 -0.28638,-0.29264 -0.57024,-0.5882 -0.83509,-0.90071 -0.30638,-0.36386 -0.59932,-0.73893 -0.91364,-1.09606 h 10e-4 c -0.0996,-0.1195 -0.25894,-0.092 -0.38396,-0.005 -0.21312,-0.092 -0.58329,0.0722 -0.51056,0.32659 0.0986,0.41367 0.24167,0.81437 0.3638,1.22112 0.0903,0.29173 0.11161,0.59462 0.12351,0.89762 0.008,0.32208 0.005,0.64419 0.005,0.96635 -0.005,0.28839 -0.0113,0.5732 0.0429,0.85731 0.008,0.0376 0.0142,0.0755 0.0222,0.11317 0.0671,0.33351 0.72236,0.20172 0.65526,-0.13178 -0.007,-0.0365 -0.0152,-0.073 -0.0222,-0.10955 -0.0485,-0.24003 -0.027,-0.48244 -0.03,-0.72657 0.001,-0.33178 0.003,-0.66407 -0.005,-0.99581 -0.0146,-0.35914 -0.044,-0.71798 -0.15089,-1.0635 -0.0291,-0.0964 -0.06,-0.19237 -0.0904,-0.28835 0.12713,0.15544 0.25359,0.31144 0.38293,0.46509 0.27549,0.32533 0.57065,0.63285 0.86868,0.93741 0.2745,0.29758 0.57794,0.56329 0.88521,0.82579 0.28124,0.25524 0.59276,0.47331 0.9214,0.66249 0.43286,0.25485 0.73372,0.27456 1.14618,-0.0212 0.25509,-0.26247 0.29741,-0.60742 0.31781,-0.9555 0.01,-0.2766 0.006,-0.55325 0.003,-0.82993 0.0128,-0.30101 -0.0354,-0.59806 -0.11111,-0.88831 -0.0681,-0.33231 -0.20669,-0.62571 -0.39687,-0.90434 -0.16446,-0.2576 -0.31587,-0.52394 -0.47439,-0.78548 -0.10398,-0.21643 -0.21251,-0.42662 -0.33848,-0.63149 -0.0445,-0.0724 -0.1135,-0.10511 -0.18914,-0.10852 z m 13.8715,0.36483 c 0.17012,-0.002 0.33987,0.0201 0.49765,0.0879 0.19659,0.12168 0.36982,0.28128 0.49764,0.47387 0.0945,0.16515 0.12478,0.31213 0.0424,0.48266 -0.1291,0.23177 -0.33405,0.40632 -0.54466,0.56223 -0.21874,0.16085 -0.45116,0.30334 -0.71056,0.38655 -0.17269,0.0827 -0.51188,0.0705 -0.65835,0.18861 -0.003,0.002 -0.005,0.005 -0.007,0.008 -0.0664,-0.24997 -0.1516,-0.49428 -0.262,-0.73122 -0.10802,-0.30245 -0.20596,-0.60618 -0.28577,-0.91571 0.12186,-0.0665 0.24472,-0.13105 0.37052,-0.19017 0.28511,-0.14224 0.58279,-0.26143 0.8909,-0.34313 0.0564,-0.005 0.1128,-0.009 0.1695,-0.009 z m -25.00984,0.21188 c 0.20156,-0.004 0.30534,0.12338 0.38964,0.29042 0.0671,0.18499 0.11573,0.38694 0.0532,0.57826 -0.0835,0.25505 -0.20907,0.49539 -0.33538,0.73174 -0.14234,0.25892 -0.33477,0.46872 -0.58446,0.62476 -0.25106,0.15606 -0.51384,0.28621 -0.80099,0.3576 -0.12437,0.0234 -0.24982,0.0371 -0.37569,0.047 -10e-4,-0.16814 -0.005,-0.33614 -0.0176,-0.50384 -0.0337,-0.3474 -0.10186,-0.68842 -0.22738,-1.01545 -0.10198,-0.29265 -0.20188,-0.58607 -0.30282,-0.87901 0.11657,-0.0312 0.23378,-0.0596 0.35295,-0.0806 0.28188,-0.0425 0.56735,-0.0394 0.85162,-0.0424 0.33327,-0.0276 0.66351,-0.081 0.99684,-0.10852 z m 5.59191,0.90588 c -0.0192,-10e-4 -0.0396,5.3e-4 -0.0605,0.005 -0.0237,0.006 -0.0473,0.0105 -0.0708,0.0165 -0.26372,0.021 -0.52579,0.0584 -0.77463,0.15296 -0.29268,0.0969 -0.60012,0.15272 -0.87643,0.29869 -0.22413,0.0779 -0.45082,0.14632 -0.67903,0.20929 -0.0655,-0.2632 -0.61214,-0.31376 -0.65578,-0.008 -0.0726,0.39612 -0.0747,0.79288 -0.0444,1.19269 0.002,0.0866 0.0108,0.17108 0.0248,0.25425 -0.0873,0.15956 -0.0913,0.37426 0.0796,0.44751 0.019,0.0101 0.0388,0.0181 0.0579,0.0279 0.0358,0.0913 0.0748,0.18219 0.11731,0.27182 0.1397,0.31311 0.38957,0.54608 0.61185,0.79891 0.2331,0.23514 0.48639,0.44817 0.75034,0.64751 0.27823,0.2063 0.58016,0.35378 0.91467,0.44028 0.30313,0.0604 0.61356,0.0787 0.92088,0.0496 0.27397,-0.0556 0.55335,-0.0749 0.82785,-0.12505 0.21122,-0.0617 0.40299,-0.16461 0.47749,-0.39171 0.0255,-0.0768 0.0116,-0.16125 0.0176,-0.24185 -0.0278,-0.31113 -0.58988,-0.2855 -0.65835,-0.017 -0.24416,0.0459 -0.49538,0.0561 -0.73846,0.11162 -0.22622,0.0325 -0.4601,-10e-4 -0.68471,-0.0336 -0.24913,-0.0594 -0.46697,-0.1752 -0.67438,-0.32556 -0.2281,-0.17209 -0.44596,-0.35576 -0.65061,-0.55552 -0.0778,-0.0884 -0.15991,-0.17375 -0.23874,-0.26148 0.0571,0.014 0.11379,0.0293 0.17156,0.0413 0.34092,0.0634 0.68777,0.0746 1.03353,0.0796 0.27236,0 0.54465,-0.003 0.81701,-0.003 0.25122,-0.0188 0.48592,-0.0804 0.71055,-0.19224 0.29943,-0.16145 -0.0174,-0.74953 -0.31678,-0.58808 -0.1156,0.0796 -0.26293,0.081 -0.39636,0.11214 -0.26871,0.003 -0.53742,0.003 -0.80615,0.003 -0.30353,-0.004 -0.60834,-0.0124 -0.90796,-0.0661 -0.26057,-0.0525 -0.51042,-0.13361 -0.75292,-0.23668 -0.0238,-0.0964 -0.0413,-0.19475 -0.0413,-0.29869 -0.0111,-0.14435 -0.0158,-0.28779 -0.015,-0.43098 0.32029,-0.0787 0.63594,-0.17215 0.94775,-0.2806 0.2726,-0.13962 0.5694,-0.20309 0.85886,-0.29249 0.20037,-0.0788 0.4112,-0.10793 0.62425,-0.12403 0.0502,-0.009 0.1006,-0.0184 0.1509,-0.0274 0.31265,-0.0628 0.21675,-0.64289 -0.0713,-0.6599 z"
         id="path48" />
    </g>
    <g
       transform="matrix(0.95745942,0,0,0.94719842,-40.203488,17.278568)"
       style="fill:#d14081;fill-opacity:1;stroke:#000000;stroke-opacity:1"
       id="g1510">
      <path
         style="fill:#d14081;fill-opacity:0.50196078;stroke:#000000;stroke-width:0.14496347;stroke-miterlimit:4;stroke-dasharray:none;stroke-opacity:1"
         d="m -910.27016,323.45952 c -0.38461,0.15956 -1.31633,0.60463 -2.07047,0.98901 -1.30954,0.66744 -4.189,1.85872 -5.92724,2.45223 -1.2636,0.43144 -3.08854,0.34967 -6.37843,-0.28584 -3.42991,-0.66254 -4.05982,-0.92519 -5.5271,-2.30462 l -0.97305,-0.9148 -0.74126,-1.83439 c -0.81158,-2.00835 -1.09607,-3.16912 -1.40938,-5.75029 -0.16449,-1.35515 -0.13899,-1.94472 0.12485,-2.88556 0.38471,-1.37191 1.45,-3.46511 2.23956,-4.40052 0.30174,-0.35747 0.83939,-1.00917 1.19477,-1.44823 0.35538,-0.43907 1.09796,-1.23947 1.65021,-1.77868 0.55225,-0.5392 1.49189,-1.54857 2.08811,-2.24305 1.46008,-1.70071 2.40813,-2.52998 4.90584,-4.29122 2.00049,-1.41072 3.95944,-3.05388 4.90272,-4.11268 0.2339,-0.26246 1.02616,-0.93071 1.76067,-1.48493 1.54753,-1.16768 3.22807,-2.02033 5.2937,-2.68591 0.87655,-0.28242 1.73905,-0.67124 2.2945,-1.03437 0.48961,-0.3199 1.74683,-1.0211 2.79396,-1.55805 1.04718,-0.53691 2.35048,-1.26909 2.89623,-1.62705 0.54633,-0.35735 1.64749,-0.91674 2.44835,-1.24173 0.80085,-0.32499 1.73537,-0.71648 2.0767,-0.86997 2.06033,-0.92647 4.58617,-0.8864 8.76159,0.13896 3.9854,0.97869 4.46515,1.21013 6.2567,3.01825 1.07982,1.08972 1.71287,2.07105 2.08105,3.2256 0.29843,0.93585 0.67261,4.21008 0.73109,6.39739 0.0444,1.65826 -0.5347,3.14265 -1.91409,4.90682 l -0.99046,1.26675 -7.12681,4.76419 c -3.91971,2.62036 -7.65842,5.20623 -8.30818,5.74648 -0.64978,0.5402 -1.93938,1.48396 -2.86578,2.09719 -0.92676,0.61287 -2.19094,1.57929 -2.80997,2.14688 -0.61908,0.56757 -1.63566,1.37316 -2.25906,1.79022 -0.62344,0.41703 -1.4494,1.05111 -1.83563,1.40891 -1.08749,1.0077 -2.59294,2.08319 -3.36369,2.40297 z"
         id="path518" />
      <path
         style="fill:#d14081;fill-opacity:1;stroke:#000000;stroke-width:0.99999994;stroke-miterlimit:4;stroke-dasharray:none;stroke-opacity:1"
         d="m -314.51367,6.2714844 c -0.94845,-0.2145188 -2.15281,1.3055779 -1.32422,2.0664062 0.44167,0.404863 0.23588,0.2089285 0.62695,0.5800782 0.69332,0.8342551 1.41605,1.6448412 2.24414,2.3496092 0.8027,0.703408 1.49641,1.519389 2.35157,2.164063 0.79521,0.577965 1.64734,1.089165 2.30664,1.832031 0.69951,0.641764 1.47424,1.171267 2.21484,1.757812 0.66531,0.583484 1.15108,1.311553 1.66211,2.03125 0.0242,0.03564 0.0442,0.07374 0.0684,0.109375 -0.84122,-0.242897 -1.70467,-0.366055 -2.54297,-0.632812 -1.07346,-0.345676 -2.11692,-0.800874 -3.24609,-0.955078 -1.22306,-0.212863 -2.42295,-0.562291 -3.64454,-0.789063 -1.14277,-0.310072 -2.2484,-0.736449 -3.39257,-1.042968 -1.41933,-0.399648 -2.77098,-1.017034 -4.15039,-1.533204 -0.58152,-0.202679 -1.06786,0.243108 -1.29102,0.804688 -0.64668,0.264866 -1.18266,0.906788 -0.83594,1.533203 0.73954,1.344151 1.57702,2.627721 2.44336,3.892578 0.64343,0.916725 1.36487,1.777783 1.76172,2.835938 0.24053,1.065675 0.39283,2.138604 0.72656,3.18164 0.39221,1.04727 0.79522,2.079584 1.32813,3.064453 0.42236,0.714293 0.55508,1.729774 1.17969,2.31836 0.21101,0.198954 0.47515,0.333323 0.71289,0.5 1.81723,-0.540662 1.31056,0.02204 1.91797,-1.220703 0.21425,-0.622173 -0.30809,-1.136439 -0.92383,-1.332032 -0.2356,-0.484858 -0.43304,-0.987522 -0.66797,-1.472656 -0.46462,-0.846992 -0.80261,-1.740606 -1.14844,-2.640625 -0.36533,-1.08703 -0.42856,-2.237341 -0.7793,-3.330078 -0.50063,-1.218293 -1.23282,-2.282506 -2.02539,-3.330078 -0.35249,-0.514318 -0.69572,-1.034407 -1.0332,-1.558594 0.68734,0.261114 1.37907,0.507502 2.08399,0.714844 1.15468,0.314872 2.27361,0.734057 3.42773,1.050781 1.29169,0.256101 2.5671,0.600222 3.86133,0.839844 1.01038,0.145436 1.9449,0.546683 2.90429,0.867187 0.90894,0.346054 1.90716,0.369205 2.8125,0.708985 0.9247,0.333883 1.99734,1.057425 2.98633,0.40625 0.30176,-0.198312 0.4664,-0.553795 0.69922,-0.830078 0.33457,-1.383685 -0.4012,-2.477249 -1.14062,-3.574219 -0.61773,-0.904063 -1.25931,-1.773311 -2.07618,-2.50586 -0.71123,-0.599206 -1.4971,-1.088817 -2.17968,-1.724609 -0.72851,-0.811653 -1.66108,-1.380576 -2.53321,-2.017578 -0.77265,-0.623206 -1.42621,-1.366832 -2.17187,-2.0214844 -0.72798,-0.6174614 -1.36081,-1.3319051 -1.96875,-2.0644531 -0.58254,-0.5833323 -0.29407,-0.3079864 -0.85938,-0.828125 -0.11839,-0.108685 -0.24927,-0.1744326 -0.38476,-0.2050781 z m -12.31641,13.2167966 c -1.15381,0.0015 -2.31824,0.129141 -3.44726,0.369141 -1.02826,0.207572 -2.03935,0.513928 -3.02539,0.871094 -0.55971,0.267741 -1.16037,0.421914 -1.74219,0.632812 -0.99577,0.363366 -0.57542,2.019308 0.27734,2.34961 -0.49446,0.5917 -0.95087,1.217835 -1.39844,1.855468 -0.68655,1.007509 -1.0386,2.11828 -1.29296,3.294922 -0.35384,1.24834 -0.14249,2.434785 0.35546,3.601563 0.47668,1.051956 1.35988,1.758425 2.28125,2.402343 1.15741,0.76218 2.48687,1.065867 3.84375,1.212891 1.17034,-0.04724 2.33187,0.07208 3.5,0.113281 1.22007,-0.0141 2.43407,-0.148744 3.61914,-0.4375 1.40247,-0.35879 2.39699,-1.220714 3.16211,-2.414062 0.74665,-1.171125 1.10299,-2.484645 1.27344,-3.847656 0.20258,-1.184958 0.29421,-2.386517 0.17969,-3.583985 -0.18081,-1.230425 -0.80833,-2.286028 -1.49024,-3.298828 -0.63477,-1.022022 -1.39567,-1.843591 -2.42578,-2.466797 -1.13026,-0.623395 -2.41202,-0.665635 -3.66992,-0.654297 z m 24.03516,0.273438 c 0.0616,0.0026 0.11752,0.0038 0.21484,0.01367 0.0287,0.0038 -0.0498,0.04272 -0.0801,0.03516 -0.0466,-0.0102 -0.0897,-0.0327 -0.13476,-0.04883 z m -24.00781,2.251953 c 0.78553,-0.0094 1.62043,-0.04404 2.34765,0.296875 0.74181,0.435893 1.16361,0.978491 1.62891,1.712891 0.45229,0.666103 0.90892,1.34942 1.07031,2.152343 0.1251,1.002936 -0.0261,2.020488 -0.17578,3.013672 -0.11652,1.005657 -0.36282,1.969657 -0.91992,2.832031 -0.36348,0.663383 -0.88129,1.085534 -1.6211,1.283204 -0.95213,0.247181 -1.93672,0.329265 -2.91796,0.363281 -1.10903,-0.03855 -2.21346,-0.165059 -3.32422,-0.101563 -0.93158,-0.09396 -1.85507,-0.26499 -2.66211,-0.771484 -0.537,-0.374287 -1.11933,-0.74549 -1.41602,-1.34961 -0.3171,-0.680201 -0.42895,-1.311089 -0.19726,-2.050781 0.18304,-0.846727 0.3933,-1.647945 0.89257,-2.378906 0.82326,-1.172825 1.6573,-2.301783 2.79297,-3.203125 0.32448,-0.315758 0.30622,-0.742762 0.11914,-1.126953 0.47947,-0.141049 0.9647,-0.264547 1.45313,-0.363281 0.9544,-0.222615 1.9526,-0.297256 2.92969,-0.308594 z m -16.31641,8.5625 c -0.84251,0.16459 -1.67087,1.3442 -0.98633,2.023437 1.0498,1.065903 2.20218,2.025689 3.38672,2.9375 0.76467,0.706734 1.66517,1.235521 2.46484,1.896485 0.64071,0.572901 1.17242,1.253466 1.70118,1.927734 0.63802,0.844762 1.46566,1.516563 2.19726,2.277344 0.6624,0.704957 1.25582,1.470457 1.84766,2.234375 0.78758,1.018053 2.78551,-0.526616 1.99804,-1.542969 -0.6472,-0.836561 -1.2993,-1.671025 -2.02539,-2.441406 -0.67419,-0.698608 -1.43355,-1.322499 -2.03125,-2.087891 -0.64354,-0.818532 -1.29551,-1.638334 -2.08789,-2.320312 -0.8256,-0.670451 -1.73472,-1.225476 -2.52343,-1.94336 -1.10102,-0.847143 -2.17446,-1.738078 -3.14844,-2.730468 h -0.002 c -0.22817,-0.226394 -0.51018,-0.285333 -0.79102,-0.230469 z m -7.98633,6.769531 c -0.0723,0.0078 -0.14565,0.02598 -0.2207,0.05469 -0.76263,0.303231 -1.50919,0.651414 -2.13281,1.199218 -0.91529,0.741279 -1.82084,1.515665 -2.45508,2.523438 -0.69695,1.251515 -1.15753,2.58362 -0.58985,3.988281 0.81007,1.314558 1.76726,1.857745 3.20118,2.367188 1.33613,0.396321 2.56576,0.361149 3.83398,-0.25 0.94462,-0.466016 1.93512,-0.828148 2.88477,-1.283204 0.99027,-0.381959 1.98583,-0.87122 3.0664,-0.875 0.84896,-0.0147 1.6825,0.17719 2.44336,0.560547 0.45581,0.22681 0.33296,0.866634 0.2207,1.269532 -0.29499,0.807609 -0.79857,1.54406 -1.4375,2.117187 -1.05414,0.948132 -2.25242,1.594636 -3.63671,1.947266 -1.23251,0.365896 -0.51383,2.787733 0.71875,2.421875 1.74043,-0.452523 3.25514,-1.302038 4.5957,-2.482422 0.95769,-0.828964 1.61589,-1.906721 2.10156,-3.0625 0.49977,-1.629506 0.3812,-2.601196 -0.71094,-3.927735 -1.21322,-0.998513 -2.73901,-1.335124 -4.27539,-1.36914 -1.41044,-0.02827 -2.70524,0.546906 -3.99414,1.042969 -1.02047,0.47947 -2.07437,0.878155 -3.08789,1.373047 -0.68946,0.315968 -1.24551,0.380557 -1.94922,0.115234 -0.43003,-0.185235 -1.69822,-0.613171 -1.75,-1.16211 -0.002,-0.546784 0.28036,-1.07617 0.55664,-1.535156 0.49584,-0.71845 1.17794,-1.271902 1.85157,-1.814453 0.42066,-0.372094 0.92236,-0.618357 1.44726,-0.804687 1.12575,-0.430796 0.40259,-2.531713 -0.68164,-2.414063 z m -7.80469,7.380859 c -0.85492,-0.07788 -1.98065,0.820416 -1.51367,1.664063 0.7872,1.435767 1.70098,2.794886 2.63086,4.140625 0.63103,1.085254 1.21304,2.195627 1.87695,3.261719 0.63421,1.124749 1.52394,1.971393 2.62696,2.621093 0.69944,0.340838 1.34448,0.875337 2.13867,0.990235 0.26615,0.0378 0.53792,0.01185 0.80664,0.01563 1.28273,-0.08595 1.11293,-2.605705 -0.16992,-2.519531 0.12268,0.331464 -1.42876,-0.653358 -1.5293,-0.683594 -0.76297,-0.402482 -1.3038,-1.012478 -1.73047,-1.759766 -0.68655,-1.09886 -1.2717,-2.253737 -1.94336,-3.361328 -0.88278,-1.276535 -1.75098,-2.565593 -2.49804,-3.927734 -0.15566,-0.281216 -0.41034,-0.415446 -0.69532,-0.441407 z m -8.86132,6.701172 c -0.85492,-0.07789 -1.98261,0.822369 -1.51563,1.666016 0.77034,1.377676 1.63561,2.699226 2.52539,4.001953 0.57944,0.838962 1.19027,1.655597 1.80274,2.470703 -0.34969,0.01407 -0.66691,0.150646 -0.82227,0.5 -0.2346,0.528303 -0.49153,1.048602 -0.70508,1.585938 -0.46564,1.062425 -0.83683,2.164471 -1.38086,3.191406 -0.49795,1.05154 -1.08723,2.038721 -1.79687,2.962891 -0.0487,0.07259 -0.51258,0.696345 -0.84571,1.183593 -0.28851,-0.38173 -0.57662,-0.76285 -0.86523,-1.144531 -0.64033,-0.859389 -1.28578,-1.718621 -1.83789,-2.638672 -0.60575,-1.048176 -1.05734,-2.165938 -1.64453,-3.222656 -1.06231,-1.451981 -2.3372,-2.708958 -3.74024,-3.835937 -1.001,-0.806854 -2.58694,1.159905 -1.58593,1.966796 1.22437,0.992164 2.35956,2.077535 3.2832,3.355469 0.27611,0.592856 0.55753,1.180231 0.84961,1.763672 -0.99433,-0.465426 -2.11862,-0.498365 -3.22266,-0.572266 -1.34044,-0.03099 -2.66399,-0.01695 -3.97265,0.292969 -1.17037,0.222123 -2.24584,0.700767 -3.27149,1.291016 -0.6167,0.372019 -1.19857,0.797724 -1.7793,1.222656 -1.03714,0.759874 0.45543,2.797324 1.49219,2.037109 0.0267,-0.01952 0.0534,-0.03907 0.0801,-0.05859 -0.0566,0.110514 -0.11633,0.218686 -0.17187,0.330078 -0.59358,1.274116 -1.08824,2.579977 -1.26172,3.978515 -0.16388,1.3248 0.2019,2.543291 0.79101,3.710938 0.64158,1.000772 1.59168,1.72349 2.58789,2.345703 -0.0425,0.331263 -0.107,0.659607 -0.22265,0.974609 -0.41095,0.920429 -0.88895,1.832541 -1.46094,2.66211 -0.48926,0.71588 -1.03252,1.258642 -1.83008,1.65039 -0.80897,0.450293 -1.65314,0.777672 -2.58789,0.845703 -0.95524,0.140221 -1.94686,0.0922 -2.89258,-0.09375 -1.05728,-0.265058 -2.04262,-0.73803 -3.07617,-1.080078 -0.70798,-0.306255 -1.47663,-0.562829 -1.81641,-1.30664 -0.41903,-0.893481 -0.56461,-1.808529 -0.4414,-2.796875 0.0666,-1.256996 0.25452,-2.495356 0.5293,-3.72461 0.21762,-0.947716 0.47869,-1.88688 0.7871,-2.808593 0.40252,-0.762104 1.04377,-1.355912 1.70118,-1.900391 1.07644,-0.634545 2.20143,-1.171356 3.36718,-1.623047 1.19917,-0.463937 0.28714,-2.819217 -0.91211,-2.355469 -1.29399,0.499352 -2.53841,1.100208 -3.73437,1.800782 -1.0698,0.747099 -1.94036,1.704381 -2.60938,2.818359 -0.47663,1.12218 -0.78577,2.313228 -1.06054,3.5 -0.30856,1.370683 -0.51274,2.756112 -0.58985,4.158203 -0.15904,1.390526 0.10219,2.703239 0.66016,3.970703 0.58658,1.357115 1.82076,2.009748 3.10156,2.580078 1.15571,0.408643 2.27589,0.903411 3.46289,1.214844 1.26221,0.281953 2.57373,0.307619 3.85352,0.150391 1.24418,-0.105638 2.38642,-0.546584 3.47266,-1.136719 1.12849,-0.581896 1.97897,-1.396428 2.69531,-2.431641 0.66459,-0.945486 1.18697,-1.995069 1.67578,-3.041015 0.15076,-0.364431 0.24921,-0.74225 0.32617,-1.125 0.39645,0.0504 0.79783,0.08036 1.20898,0.08008 1.40176,-0.03095 2.57372,-0.576224 3.63868,-1.449219 1.0134,-0.945411 1.54669,-2.236208 2.24609,-3.402344 0.6409,-1.123804 1.08361,-2.352525 1.48242,-3.580078 0.3298,-1.116475 0.42842,-2.18322 0.19922,-3.291015 0.0691,0.09323 0.13601,0.188047 0.20508,0.28125 0.58156,0.564245 1.00509,1.609888 1.60547,2.125 0.21649,0.186104 0.46917,0.326958 0.70312,0.490234 0.45192,-0.0446 0.92185,1.64e-4 1.35547,-0.134766 0.6714,-0.209159 1.75017,-2.004172 2.16406,-2.613281 0.78395,-1.023761 1.42679,-2.128672 1.98438,-3.289062 0.56088,-1.047572 0.93391,-2.177675 1.41406,-3.261719 0.1338,-0.336448 0.28824,-0.663539 0.43945,-0.992188 0.16178,0.284595 0.32195,0.570508 0.49415,0.84961 0.54519,0.72291 0.97687,1.482613 1.36132,2.296875 0.43015,0.907918 0.99456,1.739884 1.57422,2.55664 1.00607,1.220712 1.9303,1.485258 3.40821,0.890625 1.26508,-0.636056 2.22236,-1.693906 3.23437,-2.65625 0.89564,-0.902626 1.6343,-1.932359 2.41016,-2.933593 0.3205,-0.460838 0.58661,-0.94983 0.83984,-1.449219 0.57317,-1.152491 -1.68844,-2.277744 -2.26172,-1.126953 -0.17265,0.355427 -0.36678,0.695628 -0.57617,1.03125 -0.69608,0.901417 -1.35533,1.827373 -2.15039,2.648437 -0.80976,0.770041 -1.56678,1.629932 -2.54492,2.189453 -0.0382,0.02797 -0.0944,0.04323 -0.11328,0.08594 -0.006,0.01306 0.008,0.02937 0.0176,0.04492 -0.005,-0.005 -0.0121,-0.0087 -0.0176,-0.01367 -0.0627,-0.05518 -0.12124,-0.112851 -0.1836,-0.169922 -0.49394,-0.697134 -0.98388,-1.402792 -1.35351,-2.175781 -0.42452,-0.898583 -0.90606,-1.747077 -1.49805,-2.548828 -0.55911,-0.901531 -1.02042,-1.854809 -1.56641,-2.763672 -0.6853,-0.911358 -1.36823,-1.824724 -2.01562,-2.763672 -0.84509,-1.236642 -1.66821,-2.4912 -2.40039,-3.798828 l -0.002,-0.002 c -0.15577,-0.279519 -0.40924,-0.415521 -0.69336,-0.441407 z m -11.66993,15.75586 c 0.7903,0.05291 1.6158,0.0337 2.36524,0.316406 0.61606,0.281537 0.58343,1.384191 0.96875,1.875 0.27553,0.748876 0.0822,1.453773 -0.0996,2.212891 -0.33657,1.048592 -0.71132,2.098909 -1.24805,3.0625 -0.55015,0.926589 -0.98234,1.940074 -1.69531,2.757812 -0.59441,0.509972 -1.21927,0.840604 -2.0293,0.863281 -0.76917,0.0053 -1.4591,-0.02591 -2.10937,-0.498046 -0.67933,-0.378104 -1.31692,-0.877391 -1.83203,-1.458985 -0.38015,-0.721512 -0.63658,-1.449716 -0.52735,-2.28125 0.0934,-1.105247 0.58717,-2.118449 1.01172,-3.128906 0.61436,-1.232693 1.27181,-2.413456 2.25195,-3.404297 v -0.002 c 0.051,-0.05145 0.0905,-0.105796 0.125,-0.162109 0.92755,-0.176672 1.87165,-0.145695 2.81836,-0.152344 z"
         transform="matrix(0.26458333,0,0,0.26458333,-838.6374,288.77525)"
         id="path114" />
    </g>
    <g
       transform="matrix(0.95745942,0,0,0.94719842,-40.203488,17.278568)"
       style="fill:#3f7cac;fill-opacity:0.98039216;stroke:#000000;stroke-opacity:1"
       id="g1514">
      <path
         id="path1325"
         d="m -855.24428,304.77287 c 0.32521,0.27193 1.18064,0.91361 1.90089,1.42612 1.25071,0.88987 3.68171,2.92628 5.00419,4.19182 0.96132,0.92002 1.53587,2.45198 2.00809,5.3545 0.49234,3.02607 0.41997,3.62249 -0.63484,5.2331 l -0.69958,1.0681 -1.8463,1.14174 c -2.02136,1.25002 -3.25732,1.81997 -6.1227,2.82339 -1.50438,0.52678 -2.19447,0.67575 -3.37748,0.72906 -1.72508,0.0777 -4.53242,-0.19912 -5.90188,-0.58193 -0.52337,-0.14628 -1.47292,-0.40272 -2.11012,-0.56983 -0.63721,-0.16711 -1.83359,-0.55004 -2.6586,-0.85098 -0.82502,-0.30091 -2.33487,-0.78648 -3.35531,-1.07897 -2.49889,-0.71633 -3.8039,-1.26075 -6.75305,-2.81725 -2.36214,-1.24663 -4.97749,-2.39183 -6.54578,-2.86615 -0.38874,-0.11763 -1.45076,-0.57973 -2.3599,-1.02702 -1.91552,-0.94231 -3.51604,-2.08543 -5.04171,-3.60082 -0.64743,-0.64306 -1.41251,-1.24383 -2.03539,-1.59818 -0.5493,-0.31166 -1.81935,-1.14927 -2.8232,-1.85994 -1.00373,-0.71075 -2.32689,-1.57677 -2.94028,-1.9246 -0.61268,-0.34886 -1.66238,-1.09733 -2.33122,-1.66553 -0.66878,-0.56821 -1.46337,-1.22771 -1.76573,-1.46556 -1.82496,-1.43576 -2.70462,-3.53502 -3.05132,-7.28192 -0.33093,-3.57637 -0.23956,-4.0397 1.19138,-6.04196 0.86237,-1.20683 1.76338,-2.0131 2.96148,-2.65039 0.97115,-0.51657 4.61444,-1.77018 7.11849,-2.44938 1.89842,-0.51491 3.82455,-0.46443 6.36715,0.16687 l 1.82568,0.45332 8.11332,4.51655 c 4.46231,2.48414 8.8185,4.82856 9.68049,5.20975 0.86189,0.38131 2.42435,1.17497 3.47197,1.76382 1.04743,0.5891 2.6266,1.35541 3.50886,1.7034 0.88224,0.34801 2.18506,0.95591 2.89497,1.35115 0.7098,0.3955 1.74489,0.89492 2.29962,1.11088 1.56216,0.60819 3.35578,1.54239 4.00753,2.08721 z"
         style="fill:#3f7cac;fill-opacity:0.50196078;stroke:#000000;stroke-width:0.14925356;stroke-miterlimit:4;stroke-dasharray:none;stroke-opacity:1" />
      <path
         style="fill:#3f7cac;fill-opacity:0.97716896;stroke:#000000;stroke-width:0.99999994;stroke-miterlimit:4;stroke-dasharray:none;stroke-opacity:1"
         d="m -121.28711,-2.3730469 c -0.26542,-0.00811 -0.54434,0.078505 -0.8125,0.089844 -0.91192,0.5942551 -1.4096,1.49885431 -1.92187,2.43749998 -0.51251,0.87896692 -1.02463,1.75790412 -1.52735,2.64257812 -0.51991,0.9322583 -1.02953,1.8727427 -1.43164,2.8632812 -0.38944,0.9785575 -0.71335,1.9822645 -1.27344,2.8828126 -0.59656,1.1727874 -1.15477,2.365227 -1.63281,3.591797 v 0.0039 c -0.48401,1.19108 1.8558,2.142328 2.33984,0.951172 0.4512,-1.16024 0.97962,-2.288176 1.54493,-3.3964844 0.59542,-0.967937 0.9486,-2.0449311 1.36718,-3.09375 0.36378,-0.8880378 0.8247,-1.7310429 1.29102,-2.5683594 0.18781,-0.3306491 0.38019,-0.6589295 0.57031,-0.9882812 -0.007,0.09821 -0.004,0.1969109 -0.0137,0.2949218 -0.0794,1.0278803 0.0678,2.0422544 0.1543,3.0625 0.0895,1.1693103 0.37534,2.1981531 1.05664,3.1601563 0.99492,1.0474959 2.27724,0.9836379 3.58594,0.7519529 1.21814,-0.3802203 2.43189,-0.79922 3.61718,-1.2734373 0.9947,-0.3575433 1.82043,-1.0628198 2.77344,-1.4882813 0.3796,-0.1733506 0.75538,-0.3512463 1.13086,-0.53125 -0.0265,0.045335 -0.0517,0.091374 -0.0781,0.1367188 -0.51666,0.886148 -1.04384,1.7661579 -1.56054,2.6523438 -0.50982,0.875376 -1.02083,1.750001 -1.53125,2.625 -0.61308,0.901039 -0.94526,1.936744 -1.34571,2.939453 -0.36306,0.888302 -0.82082,1.733109 -1.2871,2.570312 -0.0733,0.148385 -0.15709,0.289153 -0.24024,0.431641 -0.6342,1.116926 1.56276,2.364343 2.19727,1.246094 0.0767,-0.154318 0.16345,-0.302637 0.25,-0.451172 0.51851,-0.932107 1.02604,-1.871508 1.42773,-2.861328 0.3538,-0.888189 0.63259,-1.808908 1.18164,-2.603516 0.50926,-0.873411 1.01809,-1.745729 1.52735,-2.61914 0.51866,-0.889626 1.04778,-1.774551 1.5664,-2.6640628 0.5393,-0.9293858 1.10403,-1.8559504 1.46875,-2.8710938 0.0427,-0.228737 0.16664,-0.4565075 0.12696,-0.6855468 -0.35887,-2.0760189 -1.89147,-1.6814745 -3.1875,-0.9355469 -0.89636,0.4894488 -1.81199,0.919876 -2.74024,1.34375 -0.89136,0.444548 -1.69857,1.0357585 -2.62305,1.421875 -1.02523,0.4174866 -2.08472,0.7525665 -3.125,1.1308594 -0.1776,0.033638 -0.93009,0.074418 -1.07031,0.1269531 -0.0378,0.013984 0.0474,0.107802 -0.0195,0.1191406 -0.43589,-0.5688189 -0.51557,-1.1799482 -0.58398,-1.8925781 -0.0786,-0.8742425 -0.21175,-1.7418878 -0.1543,-2.6230469 0.0832,-1.0169953 0.05,-2.0406402 0.18945,-3.05468748 0.0535,-0.99087874 0.30093,-2.38537892 -0.94726,-2.83007812 -0.0843,-0.030047 -0.17129,-0.042217 -0.25977,-0.044922 z m 13.33789,8.1601563 c 0.0515,-0.00316 -0.0102,0.023246 -0.11523,0.041016 0.031,-0.00876 0.10023,-0.040095 0.11523,-0.041016 z m 6.10547,5.3945316 c -0.91973,0.01868 -1.81787,0.280882 -2.7168,0.5 -0.8643,0.214526 -1.67406,0.554246 -2.46875,0.951171 -0.73523,0.276473 -1.44313,0.658563 -2.0957,1.095704 -0.82454,0.635905 -1.56967,1.341734 -2.23438,2.142578 -0.69562,0.874923 -1.28318,1.808099 -1.66601,2.859375 -0.3323,1.155401 -0.0822,2.200895 0.38281,3.271484 0.40082,1.043754 1.16996,1.794102 2.03906,2.457031 1.00283,0.580309 2.10355,0.960808 3.21485,1.271485 1.12611,0.215055 2.24588,0.451071 3.38476,0.58789 1.21168,0.177638 2.42667,0.250804 3.64844,0.169922 1.27374,0.04906 2.460119,-0.301358 3.654298,-0.685547 1.098217,-0.389215 2.052918,-1.046282 2.892578,-1.841796 0.218416,-0.226367 0.422191,-0.460309 0.613282,-0.701172 -0.04532,0.688538 -0.09421,1.376777 -0.107422,2.068359 0.04535,1.06458 0.08202,2.130317 0.03516,3.195313 0.05405,1.069492 0.0013,2.142791 0.121094,3.207031 0.720378,2.025449 2.226695,1.953732 3.865234,1.101562 1.077128,-0.556875 1.763532,-1.538621 2.558594,-2.40625 0.634923,-0.732397 1.299689,-1.43121 2.121094,-1.953125 0.986796,-0.594255 1.939148,-1.23584 2.863281,-1.923828 0.835049,-0.647395 1.517117,-1.4769 2.345703,-2.128906 0.995679,-0.813203 -0.602015,-2.76847 -1.597656,-1.955078 -0.782627,0.653329 -1.486399,1.39603 -2.259766,2.060547 -0.881083,0.660056 -1.793676,1.265732 -2.736328,1.833984 -0.988082,0.660132 -1.845105,1.462117 -2.611328,2.371094 -0.587377,0.655937 -1.089801,1.410721 -1.863282,1.86914 -0.139652,0.07542 -0.17793,0.108951 -0.238281,0.152344 -0.03026,-0.706028 0.02205,-1.42069 -0.04492,-2.125 0.04082,-1.086538 0.02305,-2.174096 -0.03516,-3.259765 0.01398,-1.152378 0.172002,-2.292519 0.175781,-3.445313 0.08655,-1.518501 0.209855,-3.031798 0.480469,-4.53125 h 0.002 c 0.15772,-1.276195 -2.350206,-1.586591 -2.507812,-0.310547 -4.72e-4,0.0026 -0.0015,0.0052 -0.002,0.0078 -0.03531,-0.08648 -0.06226,-0.176111 -0.09961,-0.261719 -0.55525,-0.991559 -1.370701,-1.811242 -2.158203,-2.623047 -0.404107,-0.392882 -0.194374,-0.200488 -0.628906,-0.582031 -0.375238,-0.326434 -0.851134,-0.236716 -1.240234,0.03906 -0.0251,-0.213786 -0.100248,-0.416158 -0.294922,-0.570312 -1.190287,-0.826772 -2.451326,-1.497229 -3.863288,-1.833985 -0.31224,-0.05864 -0.62115,-0.08044 -0.92773,-0.07422 z m 0.37891,2.539062 c 1.05139,0.203528 1.944143,0.792519 2.843746,1.347656 0.371747,0.294406 0.81878,0.208081 1.185547,-0.05469 0.02849,0.188015 0.09334,0.368898 0.259766,0.513672 0.315553,0.270841 0.155366,0.124555 0.478515,0.4375 0.588284,0.599168 1.184088,1.214708 1.666016,1.90039 0.372283,0.779981 0.553875,1.632434 0.587891,2.496094 -0.04214,0.700914 -0.729182,1.245136 -1.117188,1.779297 -0.548636,0.542967 -1.192123,0.981529 -1.916015,1.257813 -1.003012,0.324396 -1.978392,0.63343 -3.054688,0.570312 -1.065,0.08013 -2.12339,-0.0094 -3.17969,-0.160156 -1.00996,-0.113197 -1.99891,-0.339309 -3,-0.509766 -0.81278,-0.22628 -1.60026,-0.509264 -2.37109,-0.855469 -0.53545,-0.39787 -1.01636,-0.805339 -1.24805,-1.455078 -0.21316,-0.481701 -0.40642,-0.869847 -0.31836,-1.408203 0.27005,-0.77983 0.73508,-1.449367 1.23828,-2.101562 0.51103,-0.625663 1.08968,-1.168178 1.72071,-1.671875 0.54342,-0.399118 1.18274,-0.66556 1.80273,-0.919922 0.622,-0.322545 1.24936,-0.583764 1.93164,-0.751953 0.81736,-0.202961 1.63553,-0.496835 2.49024,-0.414063 z m 25.937496,9.177735 c -0.972343,-0.0075 -1.825468,1.732125 -0.853515,2.298828 0.0079,0.0057 0.01551,0.01187 0.02344,0.01758 -1.216784,0.793967 -2.481604,1.507888 -3.669922,2.345703 -1.066847,0.769323 -1.869289,1.797445 -2.58789,2.882812 -0.571087,0.925455 -1.155275,1.846307 -1.595704,2.841797 -0.516548,1.203175 -0.653811,2.443664 -0.417968,3.722656 0.337058,1.222602 1.149599,2.126246 1.964844,3.048829 0.739351,0.87016 1.636681,1.568934 2.572265,2.21289 0.83777,0.550526 1.565121,1.248363 2.363281,1.855469 0.890873,0.575887 1.348775,0.678713 2.400391,0.521484 1.240479,-0.338116 0.576454,-2.773436 -0.664063,-2.435546 0.539944,0.107338 -0.06958,0.05428 -0.210937,-0.09766 -0.831194,-0.629253 -1.583823,-1.358184 -2.460937,-1.923828 -0.767736,-0.525241 -1.50804,-1.090874 -2.111329,-1.806641 -0.526866,-0.593348 -1.088387,-1.139142 -1.382812,-1.896484 -0.210558,-0.745172 0.0012,-1.505678 0.271484,-2.210937 0.261137,-0.660717 0.650564,-1.261873 1.027344,-1.867188 0.07868,0.08226 0.172299,0.154087 0.292969,0.203125 1.251741,0.35229 2.492301,0.727728 3.693359,1.228516 0.92863,0.402784 1.808609,0.902992 2.6875,1.402344 0.472668,0.276359 0.947028,0.550644 1.419922,0.826171 1.112126,0.6528 2.39194,-1.528159 1.28125,-2.175781 -0.481663,-0.281537 -0.963461,-0.560978 -1.445313,-0.841797 -0.969335,-0.552945 -1.944296,-1.101142 -2.970703,-1.542969 -1.127989,-0.466905 -2.285239,-0.848234 -3.464843,-1.162109 0.244396,-0.261 0.503055,-0.509551 0.796875,-0.724609 1.299968,-0.926173 2.718481,-1.665533 4.029297,-2.576172 0.129099,-0.09574 0.219695,-0.212574 0.27539,-0.339844 0.52963,0.378133 1.05328,0.76506 1.591797,1.13086 0.963137,0.647735 1.960294,1.241682 2.957031,1.835937 0.479925,0.280517 0.960726,0.56249 1.441406,0.841797 1.114772,0.647811 2.382137,-1.534056 1.271485,-2.181641 -0.474671,-0.277493 -0.948855,-0.554992 -1.423828,-0.832031 -0.953046,-0.564019 -1.905,-1.133774 -2.824219,-1.751953 -1.303483,-0.88475 -2.563437,-1.829694 -3.855469,-2.730469 l -0.002,-0.002 c -0.138827,-0.08096 -0.281016,-0.116123 -0.419922,-0.117187 z m -15.142578,8.18164 c 0.04704,0.07053 0.07439,0.169276 0.0293,0.335938 -0.0163,-0.111424 -0.0196,-0.223932 -0.0293,-0.335938 z m 25.810547,0.648438 c -0.594429,0.05034 -0.711535,0.563103 -0.875,1.548828 -0.04573,0.731112 -0.0655,1.465859 -0.271484,2.171875 -0.408643,1.123729 -0.655223,2.294301 -1.085938,3.408203 -0.498633,1.192592 -1.160594,2.315961 -1.542969,3.558594 -0.482532,1.324648 -1.113925,2.580021 -1.65625,3.880859 h -0.002 c -0.484006,1.19108 1.8558,2.14229 2.339844,0.951172 0.562356,-1.325216 1.1931,-2.613877 1.6875,-3.966797 0.38109,-1.196523 1.003054,-2.28875 1.496094,-3.4375 0.328346,-0.788933 0.555289,-1.610181 0.794922,-2.427734 0.402692,1.329869 0.853946,2.643177 1.65039,3.787109 1.207786,1.224302 2.753926,1.480245 4.392578,1.298828 1.140492,-0.189977 2.248352,-0.512748 3.337891,-0.890625 -0.0796,0.122969 -0.165782,0.241593 -0.244141,0.365234 -0.544138,0.873223 -1.05413,1.767684 -1.572265,2.65625 -0.525241,0.922621 -1.102237,1.813755 -1.53711,2.783204 -0.431811,0.993259 -0.728134,2.029328 -1.042968,3.0625 -0.42361,0.917745 -0.427626,1.901546 -0.517578,2.880859 -0.01134,0.096 -0.02382,0.191109 -0.03516,0.287109 -0.152353,1.276649 2.355498,1.577468 2.507813,0.300782 0.01398,-0.125481 0.0298,-0.251473 0.04492,-0.376954 0.06391,-0.810028 0.05135,-1.599588 0.417968,-2.357421 0.2863,-0.943295 0.548248,-1.888403 0.94336,-2.794922 0.35913,-0.890608 0.964586,-1.663909 1.404297,-2.515625 0.501996,-0.860977 0.996734,-1.726773 1.521484,-2.574219 0.502186,-0.794494 1.022288,-1.583446 1.671875,-2.267578 0.708737,-0.730885 1.456547,-1.427819 2.029297,-2.277344 0.09827,-0.304592 0.463552,-0.638849 0.296875,-0.912109 -1.245014,-2.043818 -1.961539,-1.2834 -3.210938,-0.455078 -0.943181,0.575206 -1.874777,1.175662 -2.894531,1.611328 -1.112012,0.420964 -2.251116,0.759364 -3.423828,0.96875 -0.719244,0.100195 -1.435024,0.104433 -2.068359,-0.308594 -0.767622,-0.83811 -0.887934,-2.181519 -1.314454,-3.203125 -0.35297,-1.127773 -0.735012,-2.244865 -1.175781,-3.341797 -0.0325,-0.108094 -0.270431,-0.971844 -0.367187,-1.005859 -0.812849,-0.301493 -1.342562,-0.438406 -1.699219,-0.408203 z m 18.291016,9.501953 c -0.645651,0.109679 -1.273223,0.808752 -1.25,1.443359 -0.20686,0.08592 -0.415635,0.167906 -0.621094,0.257813 -1.202532,0.559559 -2.238274,1.410213 -3.199219,2.3125 -0.772951,0.781908 -1.556809,1.540862 -2.248047,2.398437 -0.809386,0.966463 -1.131447,2.138917 -1.242187,3.367188 -0.05786,1.376655 0.352658,2.656411 1.015625,3.84375 0.625927,0.877682 1.431684,1.610601 2.197265,2.367187 0.745777,0.710476 1.614089,1.267453 2.486328,1.806641 0.906445,0.630009 1.904932,1.051459 2.931641,1.4375 0.601436,0.238866 0.303967,0.117424 0.890625,0.36914 1.181783,0.506381 2.177952,-1.816035 0.996094,-2.322265 -0.663307,-0.28407 -0.331086,-0.146345 -0.996094,-0.410157 -0.874658,-0.32931 -1.722688,-0.671235 -2.490234,-1.220703 -0.712177,-0.44107 -1.430208,-0.886801 -2.046875,-1.458984 -0.607484,-0.595994 -1.224677,-1.189259 -1.78125,-1.830078 -0.440655,-0.724233 -0.689327,-1.533604 -0.685547,-2.386719 0.04124,-0.728164 0.2121,-1.413338 0.695312,-1.982422 0.182662,-0.22913 0.385285,-0.437623 0.582032,-0.652344 l 3.929687,2.291016 c 0.979125,0.570898 1.958414,1.142031 2.9375,1.712891 0.872277,0.508611 1.743071,1.018808 2.615235,1.527343 0.290003,0.168945 0.581203,0.336915 0.871093,0.50586 1.110652,0.647622 2.382174,-1.534019 1.271485,-2.181641 -0.290004,-0.168945 -0.579251,-0.336914 -0.869141,-0.505859 -0.872164,-0.508536 -1.744948,-1.018771 -2.617187,-1.527344 l -2.9375,-1.71289 c -1.119983,-0.653024 -2.239393,-1.305947 -3.359376,-1.958985 0.632346,-0.568898 1.301926,-1.102118 2.066407,-1.474609 0.456762,-0.200208 0.923779,-0.372587 1.388672,-0.548828 0.600716,0.515588 1.223017,1.007225 1.861328,1.476562 0.9408,0.674117 1.93639,1.263179 2.929687,1.855469 0.70938,0.426746 1.429483,0.835033 2.144532,1.251953 0.436044,0.25508 0.873973,0.50931 1.310546,0.763672 1.11292,0.64766 2.382666,-1.534812 1.271485,-2.181641 -0.437707,-0.255231 -0.874793,-0.510507 -1.3125,-0.765625 -0.709682,-0.413782 -1.419262,-0.828405 -2.128907,-1.242187 -0.923527,-0.544177 -1.84583,-1.093213 -2.71875,-1.716797 -0.154981,-0.11355 -0.300181,-0.239244 -0.453124,-0.355469 1.045615,-0.472702 0.410923,-2.700572 -0.78125,-2.386719 -0.518173,0.115222 -1.026467,0.258938 -1.53125,0.414063 -0.111793,-0.1101 -0.226811,-0.217072 -0.335938,-0.330078 h -0.002 c -0.222501,-0.23194 -0.503057,-0.297922 -0.785156,-0.25 z m 15.574218,8.96289 c -0.279867,-0.05958 -0.56301,-0.0077 -0.794921,0.214844 -0.06973,0.0735 -0.139202,0.147268 -0.208985,0.220703 -0.769801,-0.09443 -1.721596,0.362542 -1.585937,1.167969 0.01121,0.150305 0.03091,0.299404 0.04492,0.449219 -0.430775,0.45121 -0.86155,0.90269 -1.291016,1.355468 -0.733569,0.897827 -1.561484,1.708886 -2.316406,2.587891 -0.693922,0.83297 -1.267055,1.754913 -1.828125,2.679688 -0.43132,0.864302 -1.004526,1.605872 -1.617188,2.34375 -0.612661,0.725064 -1.088846,1.544031 -1.744141,2.230468 -0.255193,0.259843 -0.49645,0.515932 -0.716796,0.804688 -0.691512,1.07115 1.389189,2.423644 2.103515,1.392578 0.149825,-0.149264 0.319908,-0.328536 0.44336,-0.460937 0.690822,-0.732322 1.229087,-1.56813 1.855468,-2.353516 0.690331,-0.832063 1.337657,-1.682428 1.833985,-2.648438 0.489789,-0.80776 0.986265,-1.616733 1.58789,-2.347656 0.700679,-0.821072 1.472151,-1.576354 2.158204,-2.410156 0.06954,0.371958 0.130094,0.745778 0.205078,1.117187 0.295823,1.225172 0.41202,2.478184 0.607422,3.720703 0.27428,1.272341 0.419647,2.566763 0.632812,3.84961 0.243666,1.325669 0.580874,2.627343 0.791016,3.958984 0.04876,1.011742 0.176587,2.033697 0.107422,3.046875 -0.05609,1.301632 0.06094,1.275297 2.261718,1.447266 0.268007,0.02132 0.898903,-1.150114 1.029297,-1.351563 0.636888,-0.929461 1.056954,-1.954822 1.447266,-3.003906 0.431471,-1.004258 0.773613,-2.044593 1.035156,-3.105469 0.258633,-0.996699 0.511457,-1.995903 0.794922,-2.986328 0.35142,-0.882671 0.654474,-1.773672 0.927734,-2.683593 0.343748,-0.856328 0.561299,-1.753957 0.875,-2.621094 0.154545,-0.288227 0.191324,-0.644451 0.421875,-0.886719 0.718829,-1.065789 -1.375035,-2.478201 -2.09375,-1.412109 -0.288151,0.462652 -0.534621,0.923889 -0.705078,1.445312 -0.325493,0.91132 -0.562693,1.84949 -0.917969,2.75 -0.276245,0.922356 -0.591987,1.816703 -0.935547,2.716797 -0.290456,1.025272 -0.555053,2.056836 -0.822265,3.087891 -0.222539,0.966122 -0.564173,1.901546 -0.947266,2.814453 -0.01038,0.02786 -0.0228,0.05421 -0.0332,0.08203 -0.211827,-1.245822 -0.507438,-2.471068 -0.74414,-3.712891 -0.212901,-1.275477 -0.355269,-2.561277 -0.628907,-3.826171 -0.202167,-1.277897 -0.322323,-2.569909 -0.626953,-3.830079 -0.196183,-0.96991 -0.357267,-1.943998 -0.49414,-2.921875 0.280649,-0.294809 0.562639,-0.588434 0.841796,-0.884765 0.695849,-0.667531 -0.113524,-1.858364 -0.953125,-2.03711 z m 12.802735,7.601563 c -0.841036,0.171854 -1.659157,1.357993 -0.96875,2.03125 0.956319,0.93106 1.988746,1.776165 3.050781,2.582031 -0.316513,0.892783 -0.622157,1.789988 -0.976563,2.669922 -0.405392,0.981165 -0.916681,1.910759 -1.4375,2.833984 -0.543307,0.917292 -0.847169,1.948862 -1.269531,2.923829 -0.393751,0.880932 -0.87204,1.722323 -1.347656,2.560546 -0.219576,0.269968 -0.30617,0.659736 -0.550781,0.914063 -0.537541,0.292629 -0.927649,0.841973 -0.646485,1.398437 0.315591,0.27806 0.543008,0.717575 0.947266,0.833985 1.314142,0.377386 1.952525,-1.048762 2.447266,-1.898438 0.521461,-0.917669 1.03898,-1.841387 1.46875,-2.80664 0.385171,-0.893934 0.667643,-1.834535 1.148437,-2.681641 0.575887,-1.019981 1.138454,-2.051503 1.583984,-3.136719 0.280249,-0.699181 0.525667,-1.409055 0.773438,-2.11914 0.504453,0.314118 1.014979,0.617624 1.525391,0.921875 0.815773,0.465146 1.598904,0.984002 2.4667965,1.345703 0.5417575,0.155716 0.2902216,0.08722 0.7558594,0.207031 1.2454677,0.319181 1.8723452,-2.125942 0.6269531,-2.445312 -0.3486614,-0.09071 -0.1888137,-0.05142 -0.4726562,-0.117188 -0.7580221,-0.222312 -1.3752118,-0.849228 -2.0957028,-1.164062 -0.722502,-0.425963 -1.437049,-0.865395 -2.136719,-1.328126 -0.181934,-0.398984 -0.632967,-0.69675 -1.111328,-0.789062 -1.042718,-0.78075 -2.053189,-1.604543 -2.988282,-2.513672 -0.230097,-0.224419 -0.512623,-0.279941 -0.792968,-0.222656 z m -2.666016,16.279297 c 0.03204,0.0041 0.05969,0.02001 0.08984,0.0293 -0.101867,-0.01264 -0.209115,4.43e-4 -0.316406,0.01367 0.08245,-0.02372 0.168863,-0.05032 0.226562,-0.04297 z"
         transform="matrix(0.26458333,0,0,0.26458333,-838.6374,288.77525)"
         id="path164" />
    </g>
    <g
       transform="matrix(0.95745942,0,0,0.94719842,-156.78856,42.714701)"
       id="g400">
      <path
         style="fill:#000000;fill-opacity:1;stroke:#160808;stroke-width:0.26458332;stroke-miterlimit:4;stroke-dasharray:none;stroke-opacity:1"
         id="path272"
         d="m -784.1213,267.09132 c -0.051,0.36155 -0.0805,0.72554 -0.0997,1.09 0.003,0.27474 -0.0398,0.5548 -0.003,0.82801 0.0513,0.27022 0.0852,0.54256 0.10459,0.8168 0.0551,0.26199 0.0988,0.52522 0.12489,0.79166 0.0209,0.2663 0.0858,0.52649 0.11991,0.79168 0.0734,0.25258 0.0964,0.51602 0.1561,0.77103 0.0227,0.12583 0.0713,0.24434 0.11295,0.36462 0.11128,0.32147 -0.52012,0.54004 -0.6314,0.21857 v 0 c -0.0498,-0.14393 -0.10512,-0.28694 -0.13356,-0.43717 -0.06,-0.27652 -0.0958,-0.55809 -0.16693,-0.83264 -0.0342,-0.27186 -0.10303,-0.5383 -0.12216,-0.81175 -0.0259,-0.27262 -0.0794,-0.5399 -0.12636,-0.80944 -0.0183,-0.26447 -0.054,-0.52644 -0.10184,-0.78724 -0.0315,-0.31223 -0.0122,-0.62616 -0.003,-0.9394 0.0204,-0.38428 0.0516,-0.76803 0.10552,-1.14922 0.0481,-0.33676 0.70956,-0.24228 0.66146,0.0945 z" />
      <path
         style="fill:#000000;fill-opacity:1;stroke:#160808;stroke-width:0.26458332;stroke-miterlimit:4;stroke-dasharray:none;stroke-opacity:1"
         id="path274"
         d="m -785.82625,266.7118 c 0.37436,-0.20765 0.76007,-0.39172 1.15271,-0.5619 0.3206,-0.14671 0.64746,-0.19079 0.99431,-0.15192 0.3389,0.0552 0.5607,0.26397 0.73064,0.54686 0.10234,0.16899 0.25657,0.28988 0.3782,0.443 0.15745,0.24532 0.24318,0.51728 0.29519,0.8016 0.0776,0.40318 -0.0726,0.74608 -0.34361,1.03585 -0.23545,0.18769 -0.52943,0.27937 -0.81598,0.35946 -0.23622,0.0671 -0.48172,0.0779 -0.72559,0.0848 -0.037,0 -0.074,0 -0.11104,0.003 -0.34013,0.006 -0.35119,-0.66244 -0.0111,-0.66807 v 0 c 0.0346,0 0.0691,0 0.10369,-0.003 0.19019,-0.005 0.38241,-0.01 0.56693,-0.0611 0.17732,-0.0476 0.35509,-0.10758 0.52011,-0.18717 0.13833,-0.11483 0.19431,-0.26932 0.1587,-0.44691 -0.031,-0.18169 -0.0815,-0.35253 -0.16999,-0.51517 -0.12039,-0.18362 -0.33505,-0.30268 -0.42482,-0.51334 -0.0532,-0.10311 -0.10853,-0.1882 -0.22831,-0.21617 -0.23058,-0.0279 -0.43738,0 -0.65206,0.10144 -0.37026,0.15984 -0.73353,0.33351 -1.08651,0.5288 -0.29536,0.16878 -0.62688,-0.41137 -0.3315,-0.58015 z" />
      <path
         style="fill:#000000;fill-opacity:1;stroke:#160808;stroke-width:0.26458332;stroke-miterlimit:4;stroke-dasharray:none;stroke-opacity:1"
         id="path276"
         d="m -780.42126,269.13715 c -0.34391,-0.009 -0.68474,0.0497 -1.01047,0.1573 -0.25853,0.0705 -0.47855,0.19484 -0.64902,0.40142 -0.16539,0.18669 -0.23382,0.42508 -0.31152,0.65657 -0.0851,0.21169 -0.0512,0.40066 0.006,0.61161 0.0624,0.15602 0.0953,0.33597 0.26757,0.39701 0.14211,0.0567 0.29607,0.0512 0.4454,0.0741 0.23286,0.0539 0.46987,0.0797 0.70794,0.0948 0.23427,0.0188 0.46345,0.0201 0.68911,-0.0501 0.21863,-0.0692 0.4444,-0.13525 0.64691,-0.24519 0.15229,-0.11723 0.28387,-0.26138 0.40579,-0.41026 0.1647,-0.16968 0.25305,-0.3693 0.29975,-0.59711 0.0185,-0.17981 0.0665,-0.37769 0.0251,-0.55695 0.0267,-0.0169 -0.10596,-0.23609 -0.073,-0.14052 0.003,0.003 0.0127,0.0119 0.008,0.0106 -0.12213,-0.0335 -0.23058,-0.0854 -0.35602,-0.11005 -0.19113,-0.0718 -0.38735,-0.11289 -0.58912,-0.13861 -0.0308,-0.003 -0.0616,-0.006 -0.0924,-0.008 -0.33872,-0.0315 -0.27694,-0.69678 0.0618,-0.66532 v 0 c 0.0387,0.004 0.0774,0.007 0.11605,0.0111 0.21587,0.0281 0.43228,0.0634 0.63508,0.14621 0.18754,0.0382 0.36557,0.0991 0.54258,0.17148 0.23037,0.14147 0.36494,0.3583 0.40778,0.62656 0.0316,0.26532 0.0164,0.53353 -0.0333,0.79634 -0.0743,0.32819 -0.20283,0.62979 -0.43627,0.87884 -0.18015,0.21876 -0.37846,0.43125 -0.62018,0.58224 -0.24561,0.1201 -0.50252,0.21717 -0.76565,0.29171 -0.30112,0.0815 -0.60394,0.10506 -0.91512,0.0744 -0.26138,-0.0169 -0.52199,-0.0445 -0.77779,-0.10298 -0.21397,-0.0453 -0.44278,-0.0222 -0.64056,-0.13965 -0.34676,-0.19666 -0.48995,-0.44394 -0.60534,-0.81788 -0.0885,-0.33583 -0.11811,-0.66421 0.007,-0.99734 0.10641,-0.31422 0.21389,-0.63149 0.4413,-0.88242 0.25971,-0.28858 0.5689,-0.49583 0.94771,-0.59809 0.39325,-0.12409 0.80089,-0.20116 1.21512,-0.18939 0.34018,0 0.34018,0.66818 0,0.66818 z" />
      <path
         style="fill:#000000;fill-opacity:1;stroke:#160808;stroke-width:0.26458332;stroke-miterlimit:4;stroke-dasharray:none;stroke-opacity:1"
         id="path278"
         d="m -777.87398,270.72719 c 0.30614,0.21426 0.61478,0.42725 0.96133,0.57044 0.21318,0.11777 0.43477,0.19429 0.67511,0.2263 0.18542,-0.0122 0.36026,-0.0646 0.51348,-0.16986 0.12203,-0.11271 0.1416,-0.27744 0.16174,-0.43389 0.0302,-0.19256 -0.0227,-0.35171 -0.13486,-0.50387 -0.17105,-0.21217 -0.40433,-0.3614 -0.61648,-0.52848 -0.19605,-0.14179 -0.41664,-0.24805 -0.63569,-0.34962 -0.2622,-0.12523 -0.52077,-0.25495 -0.77337,-0.39844 -0.29684,-0.11173 -0.50332,-0.30863 -0.65196,-0.58465 -0.16354,-0.37899 -0.10279,-0.64844 0.1959,-0.93067 0.25516,-0.20479 0.56467,-0.28398 0.88153,-0.32996 0.1659,-0.0269 0.30523,-0.10893 0.45638,-0.17447 0.13724,-0.0596 0.26451,-0.0693 0.41257,-0.0781 0.34017,0 0.3424,0.66704 0.003,0.66818 v 0 c -0.051,-0.0238 -0.10215,0.0172 -0.15406,0.0251 -0.20521,0.0835 -0.39862,0.19442 -0.62405,0.22093 -0.19288,0.0259 -0.38695,0.061 -0.54628,0.18114 -0.0889,0.004 -0.0608,-0.0117 -0.0311,0.11009 0.0815,0.17073 0.21037,0.2422 0.38902,0.31149 0.23699,0.13475 0.47963,0.25636 0.72583,0.37389 0.26559,0.12459 0.53253,0.25437 0.76785,0.43121 0.26265,0.20929 0.55078,0.39593 0.75102,0.67194 0.19865,0.29644 0.30001,0.61576 0.24736,0.97639 -0.052,0.35557 -0.16037,0.68337 -0.46371,0.9048 -0.29409,0.18116 -0.61659,0.28625 -0.96613,0.26855 -0.29615,-0.043 -0.57803,-0.12711 -0.84164,-0.2722 -0.3837,-0.16389 -0.73385,-0.38765 -1.07265,-0.6303 -0.28302,-0.1887 0.0876,-0.74464 0.37066,-0.55594 z" />
      <path
         style="fill:#000000;fill-opacity:1;stroke:#160808;stroke-width:0.26458332;stroke-miterlimit:4;stroke-dasharray:none;stroke-opacity:1"
         id="path280"
         d="m -773.94572,268.12914 c 0,0.40741 0,0.81481 0,1.22222 0,0.29988 0,0.59976 0,0.89964 0,0.26715 0,0.53427 0,0.80142 0.0124,0.25268 -0.0227,0.50972 0.0135,0.76054 0.0644,0.20789 0.0243,0.45191 0.11993,0.64934 -0.005,-0.0159 -0.0101,-0.0316 -0.0151,-0.0473 0.22447,0.25559 -0.27757,0.69652 -0.50204,0.44093 v 0 c -0.035,-0.0498 -0.0699,-0.0996 -0.10481,-0.14944 -0.096,-0.26252 -0.11046,-0.54062 -0.16142,-0.81407 -0.0295,-0.27916 -0.0159,-0.55949 -0.0182,-0.83997 0,-0.26715 0,-0.53427 0,-0.80142 0,-0.29988 0,-0.59976 0,-0.89964 0,-0.40741 0,-0.81481 0,-1.22222 0,-0.3402 0.66817,-0.3402 0.66817,0 z" />
      <path
         style="fill:#000000;fill-opacity:1;stroke:#160808;stroke-width:0.26458332;stroke-miterlimit:4;stroke-dasharray:none;stroke-opacity:1"
         id="path282"
         d="m -771.92859,267.93227 c 0.0494,0.36959 0.0725,0.74062 0.13875,1.1077 0.0621,0.30554 0.0923,0.61548 0.10774,0.92644 0.0103,0.27273 0.01,0.54573 0.009,0.81862 0,0.29369 0,0.5874 0,0.88112 -8e-5,0.12292 -1.1e-4,0.24585 -1.6e-4,0.3688 -1.3e-4,0.34017 -0.66831,0.33991 -0.66818,-2.7e-4 v 0 c 6e-5,-0.123 1.1e-4,-0.24601 1.6e-4,-0.36901 2.1e-4,-0.29366 0,-0.58732 0,-0.88096 1.1e-4,-0.26183 0,-0.52377 -0.009,-0.78544 -0.0138,-0.28234 -0.0411,-0.56367 -0.098,-0.841 -0.0673,-0.37513 -0.0945,-0.75367 -0.14259,-1.13152 -0.0481,-0.33676 0.61336,-0.43124 0.66146,-0.0945 z" />
      <path
         style="fill:#000000;fill-opacity:1;stroke:#160808;stroke-width:0.26458332;stroke-miterlimit:4;stroke-dasharray:none;stroke-opacity:1"
         id="path284"
         d="m -773.31887,267.55288 c 0.32748,0.0606 0.65241,0.0693 0.98264,0.04 0.25374,-0.0464 0.52025,-0.013 0.77195,-0.0652 0.23781,-0.0628 0.48096,-0.0939 0.72567,-0.11237 0.17431,-0.009 0.09,-0.005 0.25284,-0.0111 0.33993,-0.0124 0.36436,0.65529 0.0243,0.66773 v 0 c -0.14846,0.005 -0.0725,0.003 -0.22773,0.01 -0.22384,0.0164 -0.44503,0.0477 -0.66257,0.10461 -0.27347,0.0421 -0.55142,0.0371 -0.82611,0.0723 -0.38097,0.0331 -0.75795,0.0236 -1.13556,-0.0442 -0.33676,-0.0481 -0.24228,-0.70958 0.0945,-0.66146 z" />
      <path
         style="fill:#000000;fill-opacity:1;stroke:#160808;stroke-width:0.26458332;stroke-miterlimit:4;stroke-dasharray:none;stroke-opacity:1"
         id="path286"
         d="m -769.11575,268.55592 c 0.10898,0.3847 0.17391,0.77922 0.21622,1.17625 0.029,0.30486 0.0322,0.61124 0.0337,0.91721 0,0.2681 0,0.53618 0,0.80428 0.005,0.27834 0.008,0.55277 -0.045,0.8268 0,0.0138 0,0.0277 0,0.0415 -0.0278,0.33903 -0.69376,0.2844 -0.66593,-0.0546 v 0 c 0.004,-0.0389 0.008,-0.0778 0.0116,-0.11676 0.0472,-0.23061 0.0307,-0.46345 0.0323,-0.69818 0,-0.2666 0.003,-0.53319 0,-0.79979 -0.003,-0.2836 -0.004,-0.56758 -0.03,-0.85021 -0.0376,-0.35877 -0.0962,-0.71525 -0.19423,-1.06296 -0.0934,-0.32708 0.54901,-0.51065 0.64249,-0.18354 z" />
      <path
         style="fill:#000000;fill-opacity:1;stroke:#160808;stroke-width:0.26458332;stroke-miterlimit:4;stroke-dasharray:none;stroke-opacity:1"
         id="path288"
         d="m -766.93804,268.77928 c -0.12634,0.31258 -0.22762,0.63436 -0.2861,0.96647 -0.005,0.18835 0.0444,0.36525 0.11817,0.5366 0.0825,0.2472 0.23254,0.44704 0.41616,0.62685 0.16351,0.14795 0.36687,0.19246 0.57867,0.21921 0.2191,0.0319 0.42667,0.005 0.62622,-0.0891 0.25982,-0.13954 0.4967,-0.31044 0.72228,-0.49935 0.18799,-0.16909 0.32319,-0.3629 0.39193,-0.60534 0.0562,-0.18941 0.0377,-0.32409 -0.0817,-0.47426 -0.12745,-0.17992 -0.32232,-0.26255 -0.50527,-0.37256 -0.24085,-0.17534 -0.4893,-0.33695 -0.74441,-0.49065 -0.18828,-0.10416 -0.37857,-0.20066 -0.57719,-0.28405 -0.17687,-0.058 -0.36761,-0.11912 -0.55033,-0.0595 -0.21593,0.0916 -0.40905,0.22415 -0.59481,0.36597 -0.20818,0.17346 -0.391,0.37497 -0.58153,0.56719 -0.0476,0.0445 -0.0732,0.0767 -0.0878,0.13483 -0.13253,0.31329 -0.7479,0.053 -0.61537,-0.26033 v 0 c 0.0587,-0.1279 0.12467,-0.24881 0.22974,-0.34602 0.21328,-0.21275 0.41539,-0.43892 0.65101,-0.62793 0.26098,-0.19712 0.53437,-0.38119 0.84772,-0.48461 0.33054,-0.0659 0.6477,-0.0317 0.96184,0.0951 0.22746,0.0969 0.44651,0.2078 0.66252,0.32763 0.25413,0.15423 0.50474,0.31274 0.74353,0.49011 0.26035,0.15743 0.52967,0.2966 0.70493,0.55769 0.235,0.34745 0.28932,0.64993 0.17618,1.05641 -0.11572,0.36406 -0.31244,0.67074 -0.60274,0.92318 -0.27445,0.22857 -0.5638,0.43553 -0.88271,0.59862 -0.31591,0.13245 -0.64055,0.19127 -0.98305,0.13922 -0.35656,-0.0499 -0.69181,-0.15332 -0.96012,-0.40695 -0.24414,-0.24424 -0.44805,-0.51695 -0.56341,-0.84656 -0.11705,-0.29152 -0.19357,-0.59209 -0.15814,-0.90924 0.0694,-0.38164 0.18211,-0.75285 0.32962,-1.11178 0.13398,-0.31269 0.74813,-0.0495 0.61415,0.26318 z" />
      <path
         style="fill:#000000;fill-opacity:1;stroke:#160808;stroke-width:0.26458332;stroke-miterlimit:4;stroke-dasharray:none;stroke-opacity:1"
         id="path290"
         d="m -762.6316,268.73946 c -0.0981,0.34771 -0.15661,0.70419 -0.19423,1.06296 -0.0262,0.28263 -0.0286,0.56661 -0.03,0.85021 -0.006,0.0814 1.3e-4,0.2671 0.0156,0.30412 0.12406,0.31675 -0.49808,0.56044 -0.62214,0.2437 v 0 c -0.0591,-0.18108 -0.0738,-0.3607 -0.0617,-0.55107 0.003,-0.30597 0.005,-0.61235 0.0337,-0.91721 0.0423,-0.39703 0.10723,-0.79155 0.21622,-1.17625 0.0934,-0.32711 0.73591,-0.14354 0.64246,0.18354 z" />
      <path
         style="fill:#000000;fill-opacity:1;stroke:#160808;stroke-width:0.26458332;stroke-miterlimit:4;stroke-dasharray:none;stroke-opacity:1"
         id="path292"
         d="m -763.01197,267.15635 c 0.32861,0.27879 0.6608,0.55137 0.97306,0.84868 0.24268,0.26744 0.46688,0.55046 0.708,0.81939 0.20169,0.20904 0.42711,0.39139 0.64608,0.5816 0.21551,0.18069 0.42516,0.3687 0.64172,0.54811 0.10406,0.0696 0.17791,0.17341 0.27594,0.24988 0.033,0.0257 0.18828,0.063 -0.0541,-0.008 -0.65024,-0.56396 -0.18984,0.20929 -0.31954,0.23434 -5e-5,0 -0.006,-0.0817 -0.01,-0.14859 -0.008,-0.13014 -0.006,-0.1021 -0.0132,-0.23733 -0.0455,-0.24413 -0.0901,-0.48707 -0.1534,-0.72718 -0.0787,-0.28509 -0.10724,-0.57914 -0.12317,-0.87333 -0.0111,-0.27327 -0.01,-0.54682 -0.01,-0.82027 0,-0.22275 0,-0.4455 0,-0.66825 0,-0.34018 0.66858,-0.33938 0.66818,0 v 0 c 0,0.22267 0,0.44532 0,0.66799 -2.1e-4,0.26138 -0.003,0.5229 0.009,0.78412 0.013,0.24879 0.0352,0.49771 0.10208,0.7388 0.0748,0.28426 0.13028,0.57263 0.17457,0.86325 0.006,0.10904 0.0578,0.54478 -0.004,0.61809 -0.0858,0.10145 -0.21426,0.15717 -0.32139,0.23575 -0.32258,-0.0598 -0.41725,-0.19085 -0.64969,-0.3978 -0.21852,-0.18384 -0.43328,-0.37219 -0.65148,-0.55645 -0.23982,-0.20846 -0.48607,-0.40923 -0.70538,-0.64 -0.22929,-0.25598 -0.4455,-0.52274 -0.67135,-0.7816 -0.30131,-0.28734 -0.62288,-0.54954 -0.93988,-0.8191 -0.26133,-0.21778 0.16642,-0.7311 0.42775,-0.51332 z" />
    </g>
    <g
       transform="matrix(0.95745942,0,0,0.94719842,-205.74489,62.660747)"
       id="g409">
      <path
         style="fill:#000000;fill-opacity:1;stroke:#160808;stroke-width:0.26458332;stroke-miterlimit:4;stroke-dasharray:none;stroke-opacity:1"
         id="path294"
         d="m -752.94595,265.4823 c 0.1,0.4123 0.191,0.82752 0.27244,1.24402 0.0716,0.37277 0.0956,0.75139 0.10658,1.13001 0.006,0.30589 0.005,0.61185 0.004,0.91776 0,0.26945 0,0.53891 0,0.80836 0.007,0.28739 0.004,0.57078 -0.0427,0.85481 -0.009,0.0398 -0.0172,0.0795 -0.0259,0.11928 -0.0734,0.33213 -0.72585,0.18788 -0.65241,-0.14428 v 0 c 0.006,-0.028 0.0127,-0.056 0.019,-0.0839 0.0417,-0.24781 0.0377,-0.49527 0.0337,-0.74639 1.8e-4,-0.26979 0,-0.53961 0,-0.80944 0,-0.29897 0.003,-0.59803 -0.004,-0.89699 -0.01,-0.34218 -0.0302,-0.68445 -0.0945,-1.02147 -0.0771,-0.39783 -0.16528,-0.79407 -0.25905,-1.18817 -0.0934,-0.3271 0.54901,-0.51064 0.64246,-0.18357 z" />
      <path
         style="fill:#000000;fill-opacity:1;stroke:#160808;stroke-width:0.26458332;stroke-miterlimit:4;stroke-dasharray:none;stroke-opacity:1"
         id="path296"
         d="m -753.50179,265.2491 c 0.4399,-0.079 0.87445,0.003 1.29144,0.14356 0.38372,0.1469 0.70744,0.40429 1.05386,0.61841 0.28665,0.11547 0.53901,0.25403 0.76028,0.4725 0.30252,0.32472 0.26069,0.70575 0.0503,1.06145 -0.20432,0.24485 -0.5092,0.35547 -0.79529,0.4757 -0.24805,0.14549 -0.51559,0.24736 -0.77578,0.36676 -0.11391,0.0568 -0.2358,0.0933 -0.35568,0.13449 -0.0169,0.006 -0.0484,0.0369 -0.0505,0.019 -0.0763,-0.65259 -0.22839,-0.6091 0.0378,-0.64963 0.29649,-0.0185 0.58256,-0.0993 0.87358,-0.1529 0.33017,-0.0697 0.65378,-0.063 0.97996,0.0175 0.38328,0.12491 0.63828,0.4001 0.80936,0.75396 0.15849,0.36131 0.0943,0.70932 -0.0465,1.06156 -0.10041,0.26667 -0.27035,0.49532 -0.43997,0.72093 -0.21818,0.26326 -0.52668,0.42056 -0.82127,0.58291 -0.2893,0.16814 -0.58322,0.32491 -0.9013,0.43042 -0.29319,0.0857 -0.59891,0.0981 -0.90213,0.10493 -0.28011,0 -0.56081,0.0143 -0.83923,-0.0193 -0.28535,-0.0449 -0.54314,-0.17412 -0.77578,-0.34028 -0.41646,-0.41061 -0.27504,-0.73917 0.20264,-0.99518 0.3029,-0.15486 0.60703,0.44008 0.30417,0.59494 v 0 c -0.14306,0.0659 -0.061,0.0267 -0.0788,-0.0986 -0.006,-0.0392 -0.0753,-0.11253 -0.0289,-0.037 0.13346,0.10996 0.3011,0.17984 0.4694,0.21444 0.23916,0.0437 0.48996,-0.003 0.73171,0.013 0.23812,-0.005 0.47884,-0.0109 0.71048,-0.0724 0.27956,-0.088 0.53152,-0.23802 0.78616,-0.38068 0.21243,-0.11605 0.43884,-0.22468 0.60899,-0.39905 0.13605,-0.18041 0.27689,-0.36004 0.35623,-0.57422 0.0786,-0.18018 0.13425,-0.33557 0.0571,-0.52713 -0.0722,-0.17534 -0.19145,-0.31668 -0.3723,-0.38701 -0.22857,-0.0676 -0.45675,-0.0508 -0.68934,-0.006 -0.31353,0.0573 -0.62201,0.14383 -0.94165,0.1618 -0.36965,0.0196 -0.24152,0.0681 -0.32322,-0.64273 -0.003,-0.0295 0.35235,-0.0754 0.36515,-0.13676 0.26744,-0.1184 0.53629,-0.2291 0.79171,-0.37365 0.16608,-0.0691 0.32954,-0.14472 0.49163,-0.2214 0.0885,-0.0989 -0.0478,0.0603 0.0574,-0.0977 0.0381,-0.0572 0.0558,-0.0339 -0.0201,-0.13073 -0.17936,-0.1864 -0.40915,-0.26186 -0.63854,-0.37569 -0.30353,-0.18891 -0.58867,-0.41254 -0.91879,-0.5543 -0.31573,-0.11118 -0.6454,-0.1765 -0.97976,-0.11398 -0.33676,0.0481 -0.43127,-0.61333 -0.0945,-0.66146 z" />
      <path
         style="fill:#000000;fill-opacity:1;stroke:#160808;stroke-width:0.26458332;stroke-miterlimit:4;stroke-dasharray:none;stroke-opacity:1"
         id="path298"
         d="m -749.13381,267.38196 c -0.24786,0.26583 -0.46646,0.55004 -0.66026,0.85672 -0.0961,0.18434 -0.23429,0.40286 -0.1691,0.61746 0.0561,0.25842 0.23889,0.45492 0.39008,0.6626 0.15555,0.19102 0.32186,0.37091 0.54901,0.47294 0.21307,0.11673 0.44534,0.1679 0.68405,0.19582 0.21849,0.032 0.41212,-0.0351 0.59653,-0.14579 0.24503,-0.16129 0.45209,-0.36655 0.62164,-0.60481 0.15719,-0.21606 0.26876,-0.46315 0.35319,-0.71586 0.0652,-0.20534 0.0788,-0.40629 0.018,-0.61283 -0.0733,-0.17872 -0.21262,-0.28273 -0.35316,-0.40457 -0.19672,-0.11094 -0.40855,-0.19248 -0.6277,-0.24614 -0.23556,-0.0412 -0.47861,-0.0714 -0.71718,-0.0442 -0.26294,0.0728 -0.52686,0.13732 -0.78301,0.23119 -0.0894,0.03 -0.41002,0.13446 -0.43566,0.24096 -0.21439,0.26411 -0.73316,-0.157 -0.51877,-0.42111 v 0 c 0.19442,-0.21759 0.44246,-0.36812 0.72469,-0.44728 0.31012,-0.11343 0.63024,-0.19685 0.95232,-0.26919 0.31483,-0.0243 0.6314,-0.004 0.94086,0.0618 0.3185,0.0819 0.63188,0.19965 0.90265,0.38965 0.2432,0.21182 0.46151,0.42529 0.56227,0.74327 0.0795,0.33541 0.0794,0.66437 -0.0328,0.99433 -0.10906,0.31482 -0.24685,0.6232 -0.44505,0.89283 -0.22929,0.31105 -0.49991,0.58545 -0.82952,0.79153 -0.31372,0.17521 -0.64569,0.27964 -1.00955,0.22963 -0.31131,-0.0387 -0.61587,-0.10861 -0.89498,-0.25781 -0.32125,-0.16174 -0.58036,-0.39473 -0.79814,-0.68135 -0.21233,-0.2925 -0.4454,-0.57568 -0.5084,-0.94382 -0.0533,-0.41021 0.0491,-0.73488 0.26313,-1.0863 0.22035,-0.3482 0.47011,-0.67123 0.75253,-0.97206 0.24053,-0.24053 0.71303,0.23194 0.47247,0.47247 z" />
      <path
         style="fill:#000000;fill-opacity:1;stroke:#160808;stroke-width:0.26458332;stroke-miterlimit:4;stroke-dasharray:none;stroke-opacity:1"
         id="path300"
         d="m -746.01606,266.40787 c 0,0.5176 0,1.03521 0,1.55279 0.0185,0.47987 -0.0456,0.95612 -0.0814,1.43362 -0.0507,0.43357 -0.01,0.87526 -0.0707,1.30696 -0.15629,0.30866 -0.10523,0.35613 -0.67964,0.0809 -0.0669,-0.0321 -0.0498,-0.13988 -0.0746,-0.20981 -0.10033,-0.32504 0.53813,-0.52211 0.63846,-0.19707 v 0 c 0.0478,0.30607 -0.56756,-0.13951 -0.54385,0.21961 0.0796,-0.38293 -0.007,-0.8586 0.064,-1.25063 0.0347,-0.46088 0.0977,-0.92041 0.0796,-1.38356 0,-0.51758 0,-1.03519 0,-1.55279 0,-0.34017 0.66818,-0.34017 0.66818,0 z" />
      <path
         style="fill:#000000;fill-opacity:1;stroke:#160808;stroke-width:0.26458332;stroke-miterlimit:4;stroke-dasharray:none;stroke-opacity:1"
         id="path302"
         d="m -746.99282,266.8847 c 0.37785,0.0481 0.75639,0.0753 1.13151,0.14259 0.31277,0.0472 0.62193,0.11655 0.92427,0.20928 0.30086,0.0857 0.56793,0.26104 0.80648,0.45916 0.2717,0.23889 0.47217,0.52747 0.61695,0.85672 0.12475,0.3211 0.15502,0.66344 0.1695,1.00425 0.0379,0.39127 -0.13222,0.71639 -0.35301,1.02349 -0.23355,0.29803 -0.52623,0.54557 -0.84921,0.74097 -0.29667,0.16216 -0.62759,0.2023 -0.95919,0.22042 -0.27408,0.009 -0.5484,0.005 -0.82256,0.004 -0.23575,-0.0323 -0.10899,0.005 -0.36878,-0.14478 -0.24911,-0.23166 0.20595,-0.72096 0.45503,-0.48926 v 0 c -0.14785,-0.0521 -0.17703,-0.0576 -0.0823,-0.0341 0.26109,0.003 0.52229,0.005 0.7833,-0.003 0.22328,-0.0114 0.44992,-0.027 0.65381,-0.12796 0.24852,-0.14261 0.46794,-0.33903 0.64989,-0.55964 0.1378,-0.18561 0.25493,-0.36039 0.22543,-0.60233 -0.0106,-0.25971 -0.0274,-0.52194 -0.11607,-0.76885 -0.0976,-0.2376 -0.24583,-0.43878 -0.43672,-0.61172 -0.16323,-0.14673 -0.36119,-0.26757 -0.57195,-0.32953 -0.27464,-0.0882 -0.55865,-0.14423 -0.84315,-0.18939 -0.36708,-0.0663 -0.73811,-0.0893 -1.10771,-0.13875 -0.33676,-0.0481 -0.24228,-0.70956 0.0945,-0.66146 z" />
      <path
         style="fill:#000000;fill-opacity:1;stroke:#160808;stroke-width:0.26458332;stroke-miterlimit:4;stroke-dasharray:none;stroke-opacity:1"
         id="path304"
         d="m -742.31912,265.79951 c -0.0952,0.33486 -0.16375,0.67226 -0.15438,1.02071 0.01,0.27065 0.0911,0.53216 0.17386,0.78804 0.037,0.10059 0.13025,0.30617 0.27466,0.26776 0.18899,-0.10351 0.36944,-0.22149 0.5543,-0.33206 0.27625,-0.15893 0.5166,-0.3684 0.75129,-0.58187 0.16401,-0.16915 0.33641,-0.32054 0.40674,-0.55057 0.0114,-0.033 0.0476,-0.19457 -0.0392,-0.16409 -0.25144,-0.22913 0.19859,-0.723 0.45005,-0.4939 v 0 c 0.26641,0.28006 0.32547,0.49903 0.22067,0.8763 -0.12147,0.33263 -0.33158,0.58642 -0.58894,0.8268 -0.26781,0.24307 -0.54351,0.47966 -0.8582,0.66108 -0.31803,0.18929 -0.62021,0.4326 -1.01066,0.41667 -0.43262,-0.10221 -0.64352,-0.30081 -0.79647,-0.72054 -0.10271,-0.31771 -0.19656,-0.64328 -0.20611,-0.97941 -0.007,-0.4155 0.0636,-0.81955 0.17994,-1.21848 0.0935,-0.32711 0.73591,-0.14354 0.64246,0.18356 z" />
      <path
         style="fill:#000000;fill-opacity:1;stroke:#160808;stroke-width:0.26458332;stroke-miterlimit:4;stroke-dasharray:none;stroke-opacity:1"
         id="path306"
         d="m -741.94836,268.51202 c -0.14213,0.36407 -0.26384,0.73565 -0.39761,1.10273 -0.10536,0.25646 -0.15783,0.52562 -0.18291,0.80023 -0.0209,0.14534 -0.0552,0.28811 -0.0802,0.4327 -0.007,0.0412 -0.0156,0.0823 -0.0196,0.12396 -0.003,0.0169 0.009,0.0671 0.003,0.0511 -0.0238,-0.0648 -0.0385,-0.13251 -0.0577,-0.19876 0.24209,0.23897 -0.2273,0.71451 -0.4694,0.47554 v 0 c -0.047,-0.0937 -0.10951,-0.18103 -0.14102,-0.28099 -0.0497,-0.15751 0.0906,-0.49273 0.0991,-0.66598 0.0318,-0.33137 0.0952,-0.65715 0.22061,-0.96721 0.13878,-0.37812 0.26247,-0.7619 0.41101,-1.1365 0.13401,-0.31268 0.74816,-0.0495 0.61415,0.26321 z" />
    </g>
    <g
       transform="matrix(0.95745942,0,0,0.94719842,-174.86183,62.583821)"
       id="g419">
      <path
         style="fill:#000000;fill-opacity:1;stroke:#160808;stroke-width:0.26458332;stroke-miterlimit:4;stroke-dasharray:none;stroke-opacity:1"
         id="path308"
         d="m -736.39436,270.6797 c -0.0193,-0.47038 0.0177,-0.93697 0.062,-1.40459 0.0688,-0.50258 0.16674,-1.00148 0.28196,-1.49538 0.0903,-0.38269 0.19365,-0.76155 0.26062,-1.14927 0.0441,-0.37428 0.0612,-0.87886 0.62732,-0.73535 0.088,0.0222 0.13058,0.12612 0.19587,0.18917 0.17862,0.29811 0.38778,0.57407 0.61183,0.839 0.24622,0.28916 0.52482,0.54816 0.77528,0.83322 0.14846,0.15277 0.25863,0.34073 0.47,0.40558 0.14907,-0.0494 0.27784,-0.15811 0.38828,-0.26651 0.19193,-0.19894 0.33181,-0.44148 0.45749,-0.68596 0.0924,-0.23506 0.15201,-0.48379 0.20931,-0.72988 0.078,-0.50474 0.39148,-0.77436 0.85202,-0.33843 0.25288,0.35296 0.43793,0.74838 0.61727,1.14213 0.1693,0.3556 0.37758,0.69297 0.60155,1.01666 0.19736,0.27538 0.35349,0.57319 0.48988,0.88239 0.0167,0.0212 0.0334,0.0425 0.05,0.0637 0.19119,0.28136 -0.3615,0.65688 -0.55268,0.3755 v 0 c -0.0364,-0.0569 -0.0728,-0.11388 -0.10928,-0.17082 -0.11805,-0.27117 -0.25487,-0.53062 -0.42796,-0.77136 -0.24538,-0.35671 -0.47488,-0.72724 -0.65966,-1.11922 -0.14766,-0.32454 -0.30525,-0.64346 -0.48607,-0.95096 -0.0823,-0.11086 0.004,0.0276 0.17942,-0.0365 0.22378,-0.082 0.15578,-0.21534 0.12425,-0.0891 -0.0122,0.0489 -0.0188,0.099 -0.0283,0.14857 -0.0707,0.29945 -0.14227,0.60306 -0.26673,0.88505 -0.16248,0.31078 -0.34298,0.61707 -0.59378,0.86583 -0.30342,0.27667 -0.64973,0.50649 -1.07891,0.40481 -0.31139,-0.12467 -0.52909,-0.33486 -0.73938,-0.59193 -0.25099,-0.2894 -0.53703,-0.54702 -0.78259,-0.84172 -0.23238,-0.27559 -0.45355,-0.56065 -0.63759,-0.87148 0.41455,0.13999 0.31157,-0.0175 0.43812,-0.18862 0.0177,-0.0241 -0.0172,0.0572 -0.0217,0.0866 -0.0185,0.12081 -0.018,0.24418 -0.045,0.36396 -0.07,0.40042 -0.17397,0.7924 -0.26842,1.18748 -0.10959,0.4641 -0.19953,0.93371 -0.26726,1.40573 -0.0423,0.4468 -0.0788,0.89212 -0.059,1.34162 0,0.34018 -0.66818,0.34018 -0.66818,0 z" />
      <path
         style="fill:#000000;fill-opacity:1;stroke:#160808;stroke-width:0.26458332;stroke-miterlimit:4;stroke-dasharray:none;stroke-opacity:1"
         id="path310"
         d="m -726.91926,267.28618 c -0.3298,0.18756 -0.6164,0.43707 -0.85285,0.73255 -0.17214,0.22156 -0.32147,0.46136 -0.40633,0.72975 -0.0978,0.23633 -0.15105,0.48316 -0.17859,0.73626 -0.0318,0.18838 0.0324,0.33348 0.13573,0.48471 0.14767,0.22186 0.35177,0.37314 0.58179,0.49977 0.194,0.0983 0.39458,0.12192 0.60651,0.0978 0.20402,-0.0407 0.36282,-0.1338 0.50212,-0.28609 0.11706,-0.18047 0.19246,-0.38465 0.24149,-0.5933 0.05,-0.25768 0.118,-0.51022 0.15288,-0.77086 0.0146,-0.19768 0.009,-0.42614 -0.0883,-0.60413 -0.12023,-0.16817 -0.29186,-0.29064 -0.4518,-0.41894 -0.20395,-0.15793 -0.4345,-0.26733 -0.67043,-0.36777 -0.2199,-0.0877 -0.45551,-0.10792 -0.68943,-0.12107 -0.0982,-0.0364 -0.51445,0.17798 -0.26365,0.0457 -0.17905,0.28927 -0.74719,-0.0624 -0.56814,-0.35165 v 0 c 0.0615,-0.0671 0.11281,-0.14513 0.18454,-0.20114 0.18503,-0.14452 0.46689,-0.13666 0.68575,-0.16002 0.31144,0.0185 0.62325,0.0535 0.91432,0.17407 0.29065,0.12538 0.57473,0.26397 0.82513,0.46061 0.24172,0.19391 0.49223,0.38635 0.64246,0.66474 0.12819,0.30578 0.18296,0.63823 0.14166,0.96962 -0.0391,0.28345 -0.1098,0.55885 -0.16576,0.83894 -0.0807,0.32329 -0.20116,0.64021 -0.4127,0.90202 -0.25733,0.25479 -0.54827,0.4296 -0.91212,0.48395 -0.35081,0.0333 -0.68617,-0.0146 -1.00209,-0.18016 -0.32051,-0.18296 -0.60833,-0.40373 -0.81356,-0.71662 -0.18077,-0.28403 -0.28962,-0.58206 -0.2404,-0.9244 0.034,-0.29853 0.0944,-0.59185 0.20806,-0.87138 0.11647,-0.34383 0.29557,-0.65826 0.52256,-0.94213 0.29286,-0.35568 0.636,-0.66421 1.03968,-0.89098 0.29535,-0.16878 0.62685,0.41134 0.33149,0.58012 z" />
      <path
         style="fill:#000000;fill-opacity:1;stroke:#160808;stroke-width:0.26458332;stroke-miterlimit:4;stroke-dasharray:none;stroke-opacity:1"
         id="path312"
         d="m -723.71841,266.42314 c -0.0553,0.38073 -0.0817,0.76448 -0.0996,1.1485 -0.0148,0.3714 -0.0148,0.74316 -0.0156,1.11477 -1.6e-4,0.32493 0,0.64989 0,0.97483 -0.0212,0.27286 0.0377,0.53803 0.0772,0.80608 0.006,0.0477 0.009,0.0958 0.0175,0.14317 0.0348,0.19835 0.0666,-0.043 -0.10683,-0.0702 -0.12444,-0.0196 -0.2481,0.0437 -0.37214,0.0655 0.21339,-0.26495 0.73377,0.15417 0.52038,0.4191 v 0 c -0.14017,0.0419 -0.27464,0.13637 -0.42053,0.1256 -0.23841,-0.0175 -0.27747,-0.42537 -0.2994,-0.58589 -0.044,-0.29972 -0.10559,-0.59794 -0.0843,-0.90284 -2.6e-4,-0.32554 0,-0.65109 0,-0.9766 0,-0.38164 0,-0.76341 0.0164,-1.14478 0.019,-0.40518 0.0472,-0.81005 0.10559,-1.21174 0.0481,-0.33676 0.70959,-0.24228 0.66146,0.0945 z" />
      <path
         style="fill:#000000;fill-opacity:1;stroke:#160808;stroke-width:0.26458332;stroke-miterlimit:4;stroke-dasharray:none;stroke-opacity:1"
         id="path314"
         d="m -726.01216,266.48381 c 0.36155,0.051 0.72554,0.0805 1.09,0.0997 0.30888,0.0145 0.61815,0.0148 0.92729,0.0153 0.30136,0.0275 0.5987,0.0831 0.90019,0.11018 0.21315,0.0185 0.42397,-0.0426 0.63482,-0.0708 0.18936,-0.0265 0.38052,-0.0331 0.57139,-0.0378 0.3401,-0.008 0.35642,0.65966 0.0164,0.66796 v 0 c -0.16689,0.004 -0.33411,0.009 -0.49971,0.0322 -0.26004,0.0342 -0.51904,0.10647 -0.78312,0.0739 -0.28188,-0.0257 -0.56081,-0.0705 -0.84127,-0.10745 -0.32043,0 -0.64103,0 -0.96118,-0.0164 -0.38428,-0.0204 -0.76803,-0.0516 -1.14921,-0.10549 -0.33676,-0.0481 -0.24228,-0.70959 0.0945,-0.66146 z" />
      <path
         style="fill:#000000;fill-opacity:1;stroke:#160808;stroke-width:0.26458332;stroke-miterlimit:4;stroke-dasharray:none;stroke-opacity:1"
         id="path316"
         d="m -721.54827,267.26409 c 0.0333,0.37486 0.11951,0.74112 0.18185,1.11154 0.0556,0.33488 0.0653,0.67453 0.0718,1.01319 0.003,0.19556 0.003,0.39116 0.003,0.58674 -1.6e-4,0.14378 -0.0437,0.12306 0.0169,0.14349 -0.009,-0.0274 -0.0172,-0.0549 -0.0259,-0.0823 0.24292,0.23812 -0.22484,0.71527 -0.46775,0.47712 v 0 c -0.0485,-0.0666 -0.097,-0.13314 -0.14552,-0.19973 -0.0689,-0.30073 -0.0424,-0.60494 -0.0484,-0.9126 -0.006,-0.30583 -0.013,-0.6127 -0.0627,-0.91522 -0.0629,-0.37582 -0.15042,-0.74745 -0.18436,-1.12768 -0.0481,-0.33676 0.61335,-0.43127 0.66145,-0.0945 z" />
      <path
         style="fill:#000000;fill-opacity:1;stroke:#160808;stroke-width:0.26458332;stroke-miterlimit:4;stroke-dasharray:none;stroke-opacity:1"
         id="path318"
         d="m -719.27552,267.21339 c -0.21559,0.28025 -0.37886,0.58881 -0.47784,0.92761 -0.0785,0.23595 -0.0373,0.44831 0.0307,0.67789 0.0837,0.22891 0.24289,0.41523 0.41707,0.58123 0.11543,0.15161 0.24148,0.21667 0.42222,0.24905 0.18203,0.0271 0.36118,0.0385 0.53395,-0.0316 0.14854,-0.1116 0.23617,-0.27845 0.33092,-0.43405 0.11509,-0.22452 0.21376,-0.4582 0.27493,-0.70337 0.0519,-0.22423 0.0592,-0.4473 0.0249,-0.67328 -0.0651,-0.20492 -0.18844,-0.38148 -0.3039,-0.56071 -0.15584,-0.19719 -0.34867,-0.35708 -0.55991,-0.49122 -0.2141,-0.12126 -0.4371,-0.20823 -0.67837,-0.25411 -0.2228,-0.0185 -0.45786,-0.0654 -0.68038,-0.0259 -0.24212,0.0507 -0.034,0.0827 0.0156,-0.14065 0.0847,0.32946 -0.56235,0.49596 -0.64712,0.1665 v 0 c -0.007,-0.0798 -0.0357,-0.16068 -0.0212,-0.23945 0.0542,-0.29199 0.30604,-0.41087 0.56756,-0.44915 0.29779,-0.0319 0.59891,-0.0111 0.89487,0.0331 0.32343,0.0657 0.62691,0.18023 0.91186,0.34866 0.28845,0.18921 0.55502,0.40961 0.75899,0.69096 0.16615,0.25919 0.33755,0.51851 0.4028,0.82471 0.045,0.31427 0.0355,0.62622 -0.0386,0.93644 -0.0806,0.30811 -0.19986,0.60478 -0.35149,0.88498 -0.17624,0.28921 -0.35978,0.57462 -0.68207,0.71755 -0.29118,0.0944 -0.58365,0.11364 -0.88599,0.0554 -0.29805,-0.0641 -0.5602,-0.18384 -0.75681,-0.4262 -0.25218,-0.25061 -0.47974,-0.52723 -0.59113,-0.871 -0.10253,-0.35264 -0.14275,-0.6998 -0.0295,-1.0577 0.12223,-0.40045 0.30562,-0.77319 0.56192,-1.10641 0.18867,-0.28305 0.74464,0.0876 0.55594,0.37063 z" />
      <path
         style="fill:#000000;fill-opacity:1;stroke:#160808;stroke-width:0.26458332;stroke-miterlimit:4;stroke-dasharray:none;stroke-opacity:1"
         id="path320"
         d="m -715.29942,266.02224 c -0.0553,0.38074 -0.0817,0.76449 -0.0996,1.1485 -0.0138,0.32499 -0.0148,0.6503 -0.0156,0.97552 -0.0344,0.37378 -0.0817,0.74589 -0.15296,1.11443 -0.05,0.3089 -0.0408,0.34131 -0.23106,0.59841 -0.27948,0.19396 -0.66045,-0.35494 -0.38097,-0.54891 v 0 c -0.25729,0.39156 -0.031,-0.01 -0.0439,-0.1765 0.0635,-0.32737 0.10364,-0.65739 0.14076,-0.98878 0,-0.3352 0.003,-0.67048 0.0164,-1.00541 0.019,-0.40519 0.0472,-0.81005 0.1056,-1.21174 0.0481,-0.33676 0.70958,-0.24228 0.66145,0.0945 z" />
      <path
         style="fill:#000000;fill-opacity:1;stroke:#160808;stroke-width:0.26458332;stroke-miterlimit:4;stroke-dasharray:none;stroke-opacity:1"
         id="path322"
         d="m -716.37344,265.81999 c 0.35488,0.29726 0.69593,0.61042 1.03248,0.92813 0.28967,0.26692 0.53208,0.57904 0.79214,0.87379 0.24241,0.27128 0.49763,0.53068 0.75321,0.78946 0.27316,0.25586 0.51935,0.53491 0.75851,0.82206 0.19836,0.22763 0.32515,0.5184 0.54462,0.72676 -0.17709,-0.0548 0.12549,0.0788 0.0897,0.0677 -0.0557,-0.0172 -0.11202,-0.0816 -0.16529,-0.0577 -0.10583,0.0474 -0.28678,0.36227 -0.34356,0.26872 -0.12782,-0.27173 -0.22471,-0.55566 -0.32332,-0.83913 -0.11694,-0.28041 -0.23058,-0.56192 -0.34748,-0.84233 -0.10757,-0.28437 -0.19515,-0.57809 -0.26524,-0.87402 -0.0674,-0.31896 -0.0843,-0.64492 -0.0938,-0.96981 -0.006,-0.24516 -0.0114,-0.48934 0.0145,-0.73326 0.0407,-0.33774 0.70406,-0.25784 0.66337,0.0799 v 0 c -0.0306,0.20952 -0.007,0.42296 -0.0101,0.63408 0.008,0.28045 0.0209,0.56194 0.0767,0.83769 0.0592,0.2608 0.13981,0.51843 0.23159,0.7693 0.12107,0.2929 0.24183,0.58563 0.36153,0.87919 0.0949,0.27345 0.18729,0.54724 0.31191,0.80878 0.0146,0.0401 0.10301,0.25077 0.0721,0.30173 -0.28192,0.46498 -0.43553,0.41576 -0.74819,0.13875 -0.22323,-0.23355 -0.38846,-0.51115 -0.58261,-0.76865 -0.22715,-0.2727 -0.46038,-0.53779 -0.72052,-0.78017 -0.26439,-0.26771 -0.52829,-0.53618 -0.7789,-0.81696 -0.24654,-0.27958 -0.47612,-0.57589 -0.74978,-0.82997 -0.32647,-0.30829 -0.65725,-0.61216 -1.0015,-0.90064 -0.26133,-0.21778 0.16642,-0.7311 0.42775,-0.51332 z" />
    </g>
  </g>
</svg>
